Voltage(V)	Current(A)	DiodeCurrent(A)	DiodeCurrent Std(A)
0.0000E+0	2.6075E-12	-68.0529E-9	67.4106E-12
2.0000E+0	40.0376E-12	-68.0678E-9	231.9483E-12
4.0000E+0	73.0991E-12	-67.9487E-9	144.9003E-12
6.0000E+0	186.8197E-12	-67.7502E-9	38.3936E-12
8.0000E+0	248.3130E-12	-67.4981E-9	208.1631E-12
10.0000E+0	287.4218E-12	-67.3753E-9	201.8686E-12
12.0000E+0	326.0325E-12	-67.3459E-9	218.3239E-12
14.0000E+0	357.5852E-12	-67.2394E-9	111.2540E-12
16.0000E+0	389.8576E-12	-67.0297E-9	85.7794E-12
18.0000E+0	425.5268E-12	-67.2383E-9	197.6692E-12
20.0000E+0	465.2299E-12	-67.0456E-9	229.8532E-12
22.0000E+0	504.0284E-12	-67.1504E-9	104.3389E-12
24.0000E+0	546.5378E-12	-67.4418E-9	110.8998E-12
26.0000E+0	573.1747E-12	-67.3981E-9	140.2771E-12
28.0000E+0	590.6519E-12	-67.4306E-9	91.5198E-12
30.0000E+0	601.0432E-12	-67.7265E-9	223.9977E-12
32.0000E+0	613.3991E-12	-68.2346E-9	181.8165E-12
34.0000E+0	625.2829E-12	-67.9587E-9	270.0694E-12
36.0000E+0	636.9985E-12	-67.5802E-9	339.6418E-12
38.0000E+0	650.8767E-12	-67.3231E-9	325.0879E-12
40.0000E+0	665.7753E-12	-67.2710E-9	125.7383E-12
42.0000E+0	684.8037E-12	-67.2449E-9	94.5111E-12
44.0000E+0	699.8458E-12	-67.0808E-9	172.7153E-12
46.0000E+0	721.1594E-12	-66.9081E-9	274.6170E-12
48.0000E+0	746.9273E-12	-67.0986E-9	178.0380E-12
50.0000E+0	792.1535E-12	-67.0604E-9	182.9670E-12
50.1000E+0	795.0200E-12	-67.3966E-9	148.0794E-12
50.2000E+0	799.0903E-12	-67.4217E-9	200.3457E-12
50.3000E+0	803.4506E-12	-67.6110E-9	201.6233E-12
50.4000E+0	809.0755E-12	-67.6743E-9	292.1138E-12
50.5000E+0	814.6196E-12	-67.7403E-9	275.2740E-12
50.6000E+0	819.9420E-12	-67.9315E-9	378.8681E-12
50.7000E+0	828.3658E-12	-67.9774E-9	92.1465E-12
50.8000E+0	836.9602E-12	-67.7362E-9	145.6300E-12
50.9000E+0	846.5997E-12	-67.2282E-9	216.0077E-12
51.0000E+0	858.6545E-12	-67.1902E-9	127.3823E-12
51.1000E+0	873.5755E-12	-67.0002E-9	212.0173E-12
51.2000E+0	893.8228E-12	-67.1107E-9	97.8204E-12
51.3000E+0	923.8205E-12	-67.2148E-9	225.6417E-12
51.4000E+0	961.7318E-12	-67.0454E-9	164.5952E-12
51.5000E+0	1.0282E-9	-67.1731E-9	126.1652E-12
51.6000E+0	1.1565E-9	-67.4047E-9	200.8846E-12
51.7000E+0	1.4641E-9	-67.0597E-9	342.0821E-12
51.8000E+0	2.6772E-9	-67.6450E-9	147.8220E-12
51.9000E+0	9.1467E-9	-67.3431E-9	387.4363E-12
52.0000E+0	33.3648E-9	-68.0468E-9	270.6447E-12
52.1000E+0	82.9516E-9	-68.0163E-9	127.4429E-12
52.2000E+0	149.1732E-9	-67.9811E-9	186.8514E-12
52.3000E+0	231.6976E-9	-67.6553E-9	96.2914E-12
52.4000E+0	323.4043E-9	-67.5170E-9	48.4091E-12
52.5000E+0	432.5810E-9	-67.1245E-9	215.7655E-12
52.6000E+0	548.4100E-9	-67.1871E-9	131.8754E-12
52.7000E+0	675.7385E-9	-67.1988E-9	85.2011E-12
52.8000E+0	814.7023E-9	-67.1784E-9	203.2341E-12
52.9000E+0	963.7761E-9	-67.1164E-9	125.0238E-12
53.0000E+0	1.1247E-6	-67.0159E-9	261.3104E-12
53.1000E+0	1.2871E-6	-67.3455E-9	102.2195E-12
53.2000E+0	1.4494E-6	-67.4432E-9	202.3681E-12
53.3000E+0	1.6620E-6	-67.5463E-9	229.1962E-12
53.4000E+0	1.8335E-6	-67.5372E-9	222.6352E-12
53.5000E+0	2.0561E-6	-67.5335E-9	308.2602E-12
53.6000E+0	2.2394E-6	-67.9357E-9	235.9993E-12
53.7000E+0	2.4598E-6	-67.8520E-9	252.1155E-12
53.8000E+0	2.6684E-6	-67.8911E-9	65.9513E-12
53.9000E+0	2.8910E-6	-67.5062E-9	121.7509E-12
54.0000E+0	3.1002E-6	-67.5560E-9	140.2105E-12
54.1000E+0	3.3128E-6	-67.4428E-9	98.5258E-12
54.2000E+0	3.5204E-6	-67.0858E-9	266.9964E-12
54.3000E+0	3.8089E-6	-67.1881E-9	99.7399E-12
54.4000E+0	4.0209E-6	-67.0886E-9	216.6889E-12
54.5000E+0	4.2341E-6	-67.4324E-9	123.9005E-12
54.6000E+0	4.5267E-6	-67.1208E-9	327.1255E-12
54.7000E+0	4.7865E-6	-67.0711E-9	219.9134E-12
54.8000E+0	5.0271E-6	-67.6374E-9	142.2178E-12
54.9000E+0	5.2888E-6	-67.7131E-9	79.5606E-12
55.0000E+0	5.6083E-6	-67.8283E-9	205.5442E-12
55.1000E+0	5.8806E-6	-67.7328E-9	246.3841E-12
55.2000E+0	6.1473E-6	-68.2065E-9	222.5989E-12
55.3000E+0	6.4439E-6	-68.0162E-9	283.4668E-12
55.4000E+0	6.7164E-6	-67.6551E-9	125.2388E-12
55.5000E+0	7.0136E-6	-67.5262E-9	157.6134E-12
55.6000E+0	7.2278E-6	-67.2153E-9	221.9480E-12
55.7000E+0	7.5756E-6	-67.2333E-9	94.9289E-12
55.8000E+0	7.8565E-6	-67.2048E-9	149.1148E-12
55.9000E+0	8.1343E-6	-67.3212E-9	136.3714E-12
56.0000E+0	8.4448E-6	-67.2268E-9	104.1814E-12
56.1000E+0	8.7516E-6	-67.1736E-9	102.9946E-12
56.2000E+0	9.0763E-6	-67.2767E-9	90.2270E-12
56.3000E+0	9.3520E-6	-66.5850E-9	450.9261E-12
56.4000E+0	9.6919E-6	-67.2239E-9	278.9980E-12
56.5000E+0	10.0600E-6	-67.4333E-9	111.9655E-12
56.6000E+0	10.3786E-6	-67.9522E-9	93.8329E-12
56.7000E+0	10.8099E-6	-67.9087E-9	321.7635E-12
56.8000E+0	11.0829E-6	-68.0867E-9	252.6786E-12
56.9000E+0	11.4087E-6	-68.0723E-9	295.4926E-12
57.0000E+0	11.7703E-6	-67.6323E-9	203.4763E-12
57.1000E+0	12.2597E-6	-67.5873E-9	170.3962E-12
57.2000E+0	12.5287E-6	-67.2700E-9	115.5442E-12
57.3000E+0	12.8464E-6	-66.9888E-9	278.7527E-12
57.4000E+0	13.1631E-6	-67.0889E-9	49.1236E-12
57.5000E+0	13.4812E-6	-66.8565E-9	214.9511E-12
57.6000E+0	13.9564E-6	-67.0755E-9	174.3836E-12
57.7000E+0	14.4027E-6	-67.2313E-9	136.4653E-12
57.8000E+0	14.7435E-6	-67.3128E-9	244.7583E-12
57.9000E+0	15.0844E-6	-67.3081E-9	57.8826E-12
58.0000E+0	15.5565E-6	-67.2408E-9	192.1226E-12
58.1000E+0	15.9894E-6	-67.8087E-9	166.0969E-12
58.2000E+0	16.5234E-6	-67.4817E-9	410.0074E-12
58.3000E+0	16.8310E-6	-67.8125E-9	203.7276E-12
58.4000E+0	17.4129E-6	-67.9720E-9	128.4571E-12
58.5000E+0	17.7010E-6	-67.4147E-9	193.6515E-12
58.6000E+0	18.0118E-6	-67.4299E-9	104.0482E-12
58.7000E+0	18.6024E-6	-67.2598E-9	171.4710E-12
58.8000E+0	18.9091E-6	-67.3285E-9	37.9879E-12
58.9000E+0	19.4355E-6	-67.0627E-9	116.7311E-12
59.0000E+0	19.7320E-6	-66.8916E-9	314.3367E-12
59.1000E+0	20.3735E-6	-67.1468E-9	187.6629E-12
59.2000E+0	20.8924E-6	-67.3040E-9	279.5884E-12
59.3000E+0	21.3693E-6	-67.1366E-9	228.8116E-12
59.4000E+0	21.7276E-6	-67.2520E-9	333.0113E-12
59.5000E+0	22.3233E-6	-67.4471E-9	247.9736E-12
59.6000E+0	22.9364E-6	-67.6765E-9	169.2124E-12
59.7000E+0	23.5758E-6	-68.0875E-9	203.7306E-12
59.8000E+0	23.9561E-6	-67.7711E-9	443.8475E-12
59.9000E+0	24.3787E-6	-68.1428E-9	198.2899E-12
60.0000E+0	24.9697E-6	-67.6703E-9	206.2102E-12
60.1000E+0	25.4415E-6	-67.5298E-9	146.1659E-12
60.2000E+0	25.8836E-6	-67.5840E-9	127.5095E-12
60.3000E+0	26.7263E-6	-67.1373E-9	165.3945E-12
60.4000E+0	27.0350E-6	-66.9840E-9	319.9106E-12
60.5000E+0	27.5347E-6	-67.2149E-9	143.4168E-12
60.6000E+0	28.3978E-6	-67.1866E-9	146.4384E-12
60.7000E+0	28.8526E-6	-67.1816E-9	247.7163E-12
60.8000E+0	29.5745E-6	-67.3655E-9	165.8335E-12
60.9000E+0	30.3224E-6	-67.2915E-9	216.3650E-12
61.0000E+0	30.9190E-6	-67.5455E-9	143.9981E-12
61.1000E+0	31.6020E-6	-67.7225E-9	137.5098E-12
61.2000E+0	32.1250E-6	-67.8334E-9	262.8969E-12
61.3000E+0	32.6575E-6	-67.9293E-9	219.6167E-12
61.4000E+0	33.7120E-6	-67.8605E-9	207.4364E-12
61.5000E+0	34.3115E-6	-67.7917E-9	142.8839E-12
61.6000E+0	35.0382E-6	-67.1209E-9	229.5292E-12
61.7000E+0	35.5519E-6	-67.2354E-9	178.7343E-12
61.8000E+0	36.2026E-6	-67.1563E-9	50.7737E-12
61.9000E+0	36.8774E-6	-67.1738E-9	164.1865E-12
62.0000E+0	37.5935E-6	-66.9338E-9	232.3056E-12
62.1000E+0	38.4672E-6	-67.0128E-9	186.3004E-12
62.2000E+0	39.3095E-6	-67.2639E-9	132.2962E-12
62.3000E+0	39.7268E-6	-67.1657E-9	254.8918E-12
62.4000E+0	40.8336E-6	-67.1673E-9	126.2712E-12
62.5000E+0	41.6705E-6	-67.4256E-9	106.7035E-12
62.6000E+0	42.5530E-6	-67.6875E-9	207.4274E-12
62.7000E+0	43.0948E-6	-67.6119E-9	386.2313E-12
62.8000E+0	44.3098E-6	-67.8312E-9	263.1936E-12
62.9000E+0	45.7878E-6	-67.5328E-9	519.3631E-12
63.0000E+0	46.6763E-6	-67.7596E-9	250.6501E-12
63.1000E+0	47.1287E-6	-67.3410E-9	335.1397E-12
63.2000E+0	47.8563E-6	-67.4140E-9	245.1065E-12
63.3000E+0	48.7751E-6	-67.0473E-9	152.6844E-12
63.4000E+0	49.7088E-6	-67.1167E-9	185.9371E-12
63.5000E+0	50.1343E-6	-66.9968E-9	94.3386E-12
63.6000E+0	51.3685E-6	-66.9924E-9	70.1991E-12
63.7000E+0	52.3599E-6	-66.9990E-9	129.6349E-12
63.8000E+0	53.7659E-6	-67.2418E-9	109.8189E-12
63.9000E+0	54.7441E-6	-66.9470E-9	248.7457E-12
