Voltage(V)	Current(A)	DiodeCurrent(A)	DiodeCurrent Std(A)
0.0000E+0	258.8353E-15	-80.6054E-9	224.5306E-12
2.0000E+0	39.0844E-12	-80.6703E-9	51.1067E-12
4.0000E+0	65.9035E-12	-80.9209E-9	150.3501E-12
6.0000E+0	176.2782E-12	-81.2370E-9	225.0725E-12
8.0000E+0	233.5779E-12	-81.7617E-9	277.3994E-12
10.0000E+0	277.2922E-12	-81.9533E-9	388.6564E-12
12.0000E+0	306.0857E-12	-82.0270E-9	236.0659E-12
14.0000E+0	340.9988E-12	-81.5375E-9	146.6200E-12
16.0000E+0	372.4263E-12	-80.9163E-9	90.6933E-12
18.0000E+0	404.3723E-12	-81.0435E-9	349.8480E-12
20.0000E+0	441.0140E-12	-80.7700E-9	262.0280E-12
22.0000E+0	480.1820E-12	-80.6486E-9	249.8235E-12
24.0000E+0	517.0103E-12	-80.4537E-9	261.1621E-12
26.0000E+0	542.8580E-12	-80.2031E-9	408.8297E-12
28.0000E+0	558.9629E-12	-80.6438E-9	206.4131E-12
30.0000E+0	571.6057E-12	-80.8006E-9	135.2209E-12
32.0000E+0	581.2247E-12	-80.9698E-9	177.2387E-12
34.0000E+0	592.1541E-12	-80.9006E-9	322.6839E-12
36.0000E+0	605.9728E-12	-81.1470E-9	239.1359E-12
38.0000E+0	617.1897E-12	-81.0287E-9	533.3206E-12
40.0000E+0	631.5570E-12	-81.3264E-9	505.1514E-12
42.0000E+0	646.1858E-12	-82.1593E-9	263.0029E-12
44.0000E+0	660.1791E-12	-81.7769E-9	470.7996E-12
46.0000E+0	679.0580E-12	-81.2578E-9	308.4994E-12
48.0000E+0	697.5580E-12	-81.2403E-9	207.0973E-12
50.0000E+0	725.7011E-12	-80.6535E-9	151.9669E-12
50.1000E+0	728.6016E-12	-80.5712E-9	152.8600E-12
50.2000E+0	731.2104E-12	-80.5614E-9	258.8611E-12
50.3000E+0	731.7982E-12	-80.3992E-9	116.3284E-12
50.4000E+0	733.6102E-12	-80.2714E-9	324.0373E-12
50.5000E+0	736.2018E-12	-80.7564E-9	174.6712E-12
50.6000E+0	740.8050E-12	-80.6790E-9	243.2899E-12
50.7000E+0	742.7490E-12	-80.8076E-9	140.1136E-12
50.8000E+0	747.2897E-12	-80.8363E-9	231.6788E-12
50.9000E+0	750.9583E-12	-81.3685E-9	57.5980E-12
51.0000E+0	756.4443E-12	-81.3105E-9	460.4905E-12
51.1000E+0	763.9452E-12	-81.7157E-9	261.8342E-12
51.2000E+0	770.9857E-12	-82.2542E-9	323.6649E-12
51.3000E+0	783.1222E-12	-81.8389E-9	238.3185E-12
51.4000E+0	798.5151E-12	-81.2781E-9	106.4370E-12
51.5000E+0	827.4848E-12	-81.2003E-9	192.4375E-12
51.6000E+0	882.8552E-12	-80.7129E-9	141.5548E-12
51.7000E+0	1.0373E-9	-80.4507E-9	190.3605E-12
51.8000E+0	1.6834E-9	-80.4504E-9	59.1754E-12
51.9000E+0	4.9112E-9	-80.3183E-9	141.2550E-12
52.0000E+0	15.7464E-9	-80.2542E-9	145.4423E-12
52.1000E+0	34.8796E-9	-80.5179E-9	301.9203E-12
52.2000E+0	59.0740E-9	-80.5026E-9	75.1130E-12
52.3000E+0	88.5066E-9	-80.9237E-9	352.6849E-12
52.4000E+0	125.1342E-9	-80.6859E-9	155.4668E-12
52.5000E+0	162.4902E-9	-81.3766E-9	101.0024E-12
52.6000E+0	209.6030E-9	-81.5363E-9	104.0725E-12
52.7000E+0	258.5828E-9	-81.5343E-9	283.9875E-12
52.8000E+0	309.1375E-9	-81.3751E-9	466.4943E-12
52.9000E+0	362.6794E-9	-81.9677E-9	84.0657E-12
53.0000E+0	420.6989E-9	-81.4067E-9	311.8601E-12
53.1000E+0	481.6912E-9	-80.3344E-9	526.2117E-12
53.2000E+0	537.7725E-9	-80.2621E-9	249.9961E-12
53.3000E+0	608.4755E-9	-80.7505E-9	186.3579E-12
53.4000E+0	680.9387E-9	-80.4936E-9	124.0943E-12
53.5000E+0	744.2940E-9	-80.3327E-9	182.7914E-12
53.6000E+0	832.0959E-9	-80.2876E-9	279.0161E-12
53.7000E+0	908.3316E-9	-80.6318E-9	308.0816E-12
53.8000E+0	976.3090E-9	-80.4799E-9	213.9610E-12
53.9000E+0	1.0622E-6	-80.9362E-9	228.6633E-12
54.0000E+0	1.1482E-6	-80.8443E-9	245.3245E-12
54.1000E+0	1.2254E-6	-81.4011E-9	122.4170E-12
54.2000E+0	1.3369E-6	-81.6268E-9	281.4110E-12
54.3000E+0	1.4304E-6	-81.7999E-9	169.0125E-12
54.4000E+0	1.5373E-6	-82.3284E-9	265.6158E-12
54.5000E+0	1.6238E-6	-82.0731E-9	157.6891E-12
54.6000E+0	1.7221E-6	-81.3664E-9	266.5786E-12
54.7000E+0	1.7939E-6	-81.0664E-9	174.2534E-12
54.8000E+0	1.8894E-6	-80.6758E-9	164.3923E-12
54.9000E+0	1.9838E-6	-80.2756E-9	147.3406E-12
55.0000E+0	2.0710E-6	-80.1234E-9	133.3226E-12
55.1000E+0	2.2018E-6	-79.9951E-9	88.9796E-12
55.2000E+0	2.3021E-6	-80.2880E-9	237.9673E-12
55.3000E+0	2.4027E-6	-80.3747E-9	203.8971E-12
55.4000E+0	2.5363E-6	-80.4051E-9	169.5878E-12
55.5000E+0	2.6381E-6	-80.5262E-9	168.0195E-12
55.6000E+0	2.7525E-6	-80.7098E-9	199.5403E-12
55.7000E+0	2.8835E-6	-80.5346E-9	471.4718E-12
55.8000E+0	2.9853E-6	-80.9598E-9	353.0846E-12
55.9000E+0	3.1626E-6	-81.8034E-9	321.1217E-12
56.0000E+0	3.2713E-6	-82.0274E-9	316.6710E-12
56.1000E+0	3.3978E-6	-82.0016E-9	307.9605E-12
56.2000E+0	3.5807E-6	-81.6456E-9	245.8149E-12
56.3000E+0	3.6766E-6	-81.2041E-9	218.5328E-12
56.4000E+0	3.7507E-6	-80.9944E-9	128.5722E-12
56.5000E+0	3.9225E-6	-80.4947E-9	297.1245E-12
56.6000E+0	4.0552E-6	-80.7205E-9	224.8727E-12
56.7000E+0	4.2095E-6	-80.6328E-9	154.9158E-12
56.8000E+0	4.3191E-6	-80.5675E-9	182.9760E-12
56.9000E+0	4.4341E-6	-80.4074E-9	264.2291E-12
57.0000E+0	4.6189E-6	-80.6971E-9	349.7209E-12
57.1000E+0	4.7409E-6	-80.8242E-9	300.9878E-12
57.2000E+0	4.9239E-6	-81.0428E-9	206.2678E-12
57.3000E+0	5.0656E-6	-81.2799E-9	153.5927E-12
57.4000E+0	5.2481E-6	-81.4912E-9	290.8058E-12
57.5000E+0	5.4202E-6	-81.7951E-9	644.5777E-12
57.6000E+0	5.5924E-6	-82.3121E-9	191.7260E-12
57.7000E+0	5.7298E-6	-81.8964E-9	270.8899E-12
57.8000E+0	5.9760E-6	-81.5670E-9	359.6939E-12
57.9000E+0	6.0967E-6	-81.1153E-9	84.1051E-12
58.0000E+0	6.2032E-6	-80.9351E-9	302.4017E-12
58.1000E+0	6.3708E-6	-80.6175E-9	105.5166E-12
58.2000E+0	6.5519E-6	-80.3272E-9	249.9840E-12
58.3000E+0	6.7155E-6	-80.0834E-9	229.4020E-12
58.4000E+0	6.9346E-6	-80.5821E-9	291.4477E-12
58.5000E+0	7.0362E-6	-80.3120E-9	108.9561E-12
58.6000E+0	7.2756E-6	-80.1676E-9	167.3625E-12
58.7000E+0	7.4568E-6	-80.5733E-9	158.4309E-12
58.8000E+0	7.7134E-6	-80.9130E-9	185.1832E-12
58.9000E+0	7.8413E-6	-80.6908E-9	292.2621E-12
59.0000E+0	8.0842E-6	-81.2871E-9	227.7399E-12
59.1000E+0	8.2578E-6	-81.0382E-9	629.4243E-12
59.2000E+0	8.5784E-6	-82.0977E-9	98.7135E-12
59.3000E+0	8.7420E-6	-81.9733E-9	351.2771E-12
59.4000E+0	9.0646E-6	-81.9603E-9	177.7352E-12
59.5000E+0	9.2406E-6	-81.7157E-9	174.9013E-12
59.6000E+0	9.3315E-6	-81.0281E-9	405.6567E-12
59.7000E+0	9.5678E-6	-80.9284E-9	179.3308E-12
59.8000E+0	9.7252E-6	-80.5581E-9	92.1163E-12
59.9000E+0	10.0763E-6	-80.2282E-9	207.9087E-12
60.0000E+0	10.2755E-6	-80.3821E-9	162.9724E-12
60.1000E+0	10.4885E-6	-80.2072E-9	214.1851E-12
60.2000E+0	10.7726E-6	-80.5285E-9	350.7775E-12
60.3000E+0	10.9241E-6	-80.7131E-9	264.5985E-12
60.4000E+0	11.2551E-6	-80.5850E-9	197.8600E-12
60.5000E+0	11.5358E-6	-80.9263E-9	176.9298E-12
60.6000E+0	11.7274E-6	-81.0972E-9	139.1720E-12
60.7000E+0	12.0570E-6	-81.4384E-9	160.0477E-12
60.8000E+0	12.5017E-6	-81.9546E-9	255.7577E-12
60.9000E+0	12.6946E-6	-82.1802E-9	237.3103E-12
61.0000E+0	13.1334E-6	-82.1823E-9	304.2698E-12
61.1000E+0	13.3006E-6	-81.1977E-9	242.3785E-12
61.2000E+0	13.5339E-6	-81.0024E-9	219.3079E-12
61.3000E+0	13.8769E-6	-80.7023E-9	156.3236E-12
61.4000E+0	14.0651E-6	-80.4957E-9	263.5297E-12
61.5000E+0	14.4603E-6	-80.1300E-9	256.6206E-12
61.6000E+0	14.7195E-6	-80.3686E-9	205.7561E-12
61.7000E+0	15.0173E-6	-80.1136E-9	101.3748E-12
61.8000E+0	15.2367E-6	-80.3101E-9	241.1100E-12
61.9000E+0	15.7037E-6	-80.5365E-9	282.8340E-12
62.0000E+0	16.0235E-6	-80.6644E-9	126.8010E-12
62.1000E+0	16.4908E-6	-81.2045E-9	187.6840E-12
62.2000E+0	16.9121E-6	-81.1607E-9	204.1938E-12
62.3000E+0	17.2898E-6	-81.5627E-9	374.6778E-12
62.4000E+0	17.8098E-6	-81.5902E-9	348.6884E-12
62.5000E+0	18.1360E-6	-81.5731E-9	425.5665E-12
62.6000E+0	18.5691E-6	-81.9231E-9	149.0633E-12
62.7000E+0	18.8696E-6	-81.3895E-9	248.8123E-12
62.8000E+0	19.4172E-6	-81.2236E-9	244.4495E-12
62.9000E+0	19.5138E-6	-80.7812E-9	256.5268E-12
63.0000E+0	19.9015E-6	-80.4304E-9	188.2835E-12
63.1000E+0	20.4041E-6	-80.3771E-9	179.0522E-12
63.2000E+0	20.9155E-6	-80.7346E-9	256.8053E-12
63.3000E+0	21.1019E-6	-80.3183E-9	244.9339E-12
63.4000E+0	21.5971E-6	-80.6337E-9	142.9142E-12
63.5000E+0	22.2752E-6	-80.5743E-9	254.9403E-12
63.6000E+0	22.5143E-6	-80.8791E-9	200.0399E-12
63.7000E+0	23.1939E-6	-80.8316E-9	207.4546E-12
63.8000E+0	23.7785E-6	-81.6084E-9	304.5635E-12
63.9000E+0	24.4349E-6	-81.7224E-9	248.4914E-12
