Voltage(V)	Current(A)	DiodeCurrent(A)	DiodeCurrent Std(A)
0.0000E+0	157.4181E-15	-45.2983E-9	122.2717E-12
2.0000E+0	39.3098E-12	-45.3349E-9	113.1857E-12
4.0000E+0	68.1448E-12	-45.4340E-9	99.7369E-12
6.0000E+0	180.0624E-12	-45.3751E-9	186.9211E-12
8.0000E+0	236.7415E-12	-45.1047E-9	115.2142E-12
10.0000E+0	281.1480E-12	-45.2991E-9	141.6789E-12
12.0000E+0	316.2321E-12	-45.2562E-9	142.8930E-12
14.0000E+0	345.6353E-12	-45.3688E-9	87.6475E-12
16.0000E+0	377.1602E-12	-45.3664E-9	82.0614E-12
18.0000E+0	412.0994E-12	-45.6112E-9	152.4967E-12
20.0000E+0	449.7215E-12	-45.6929E-9	142.5690E-12
22.0000E+0	488.7427E-12	-45.4981E-9	203.0221E-12
24.0000E+0	526.7216E-12	-45.4705E-9	145.8359E-12
26.0000E+0	553.8629E-12	-45.4008E-9	32.2203E-12
28.0000E+0	567.9477E-12	-45.3317E-9	158.1887E-12
30.0000E+0	580.5201E-12	-45.3500E-9	103.1520E-12
32.0000E+0	592.6004E-12	-44.9706E-9	115.4352E-12
34.0000E+0	603.0587E-12	-45.2113E-9	108.7229E-12
36.0000E+0	617.6050E-12	-45.1034E-9	53.5682E-12
38.0000E+0	629.1586E-12	-45.2601E-9	107.3544E-12
40.0000E+0	641.7996E-12	-45.2471E-9	154.0832E-12
42.0000E+0	657.2791E-12	-45.2151E-9	175.5038E-12
44.0000E+0	673.7096E-12	-45.6643E-9	132.3053E-12
46.0000E+0	690.9919E-12	-45.4584E-9	148.6667E-12
48.0000E+0	712.5322E-12	-45.6453E-9	129.6410E-12
50.0000E+0	742.5275E-12	-45.5260E-9	308.9354E-12
50.1000E+0	742.9621E-12	-45.4846E-9	125.4810E-12
50.2000E+0	746.0398E-12	-45.2317E-9	38.6782E-12
50.3000E+0	748.6453E-12	-44.9257E-9	115.8409E-12
50.4000E+0	750.8426E-12	-44.7965E-9	134.9878E-12
50.5000E+0	753.5284E-12	-44.7307E-9	52.9506E-12
50.6000E+0	756.6594E-12	-44.6093E-9	154.2921E-12
50.7000E+0	759.2968E-12	-44.6551E-9	102.8735E-12
50.8000E+0	765.9164E-12	-44.7599E-9	59.2935E-12
50.9000E+0	768.8926E-12	-44.7151E-9	107.4453E-12
51.0000E+0	776.9214E-12	-44.8870E-9	60.2563E-12
51.1000E+0	784.0999E-12	-45.0146E-9	79.0883E-12
51.2000E+0	794.7235E-12	-45.4074E-9	102.9674E-12
51.3000E+0	808.4097E-12	-45.3671E-9	111.8929E-12
51.4000E+0	828.9004E-12	-45.5433E-9	213.7218E-12
51.5000E+0	863.2371E-12	-45.7472E-9	112.3198E-12
51.6000E+0	930.7627E-12	-45.3878E-9	84.1293E-12
51.7000E+0	1.0964E-9	-45.0076E-9	102.4012E-12
51.8000E+0	1.8624E-9	-44.8951E-9	146.7411E-12
51.9000E+0	5.5494E-9	-44.8464E-9	124.2578E-12
52.0000E+0	18.3863E-9	-44.5171E-9	208.7656E-12
52.1000E+0	40.6742E-9	-44.6641E-9	56.4354E-12
52.2000E+0	72.7063E-9	-44.5958E-9	85.1527E-12
52.3000E+0	110.9089E-9	-44.6354E-9	141.6153E-12
52.4000E+0	151.8977E-9	-44.8141E-9	106.6005E-12
52.5000E+0	202.0857E-9	-44.9470E-9	99.3614E-12
52.6000E+0	253.3962E-9	-44.8880E-9	115.3232E-12
52.7000E+0	315.4040E-9	-45.2214E-9	118.9836E-12
52.8000E+0	374.5409E-9	-45.5353E-9	143.6681E-12
52.9000E+0	451.8036E-9	-45.5794E-9	207.8876E-12
53.0000E+0	528.1206E-9	-45.7439E-9	163.6869E-12
53.1000E+0	600.5453E-9	-45.4347E-9	163.8958E-12
53.2000E+0	677.1381E-9	-45.3806E-9	113.3280E-12
53.3000E+0	755.3025E-9	-45.2499E-9	52.0423E-12
53.4000E+0	848.3842E-9	-45.0421E-9	145.5876E-12
53.5000E+0	928.7473E-9	-44.9883E-9	155.7544E-12
53.6000E+0	1.0151E-6	-44.9965E-9	64.2013E-12
53.7000E+0	1.1215E-6	-44.8979E-9	88.4770E-12
53.8000E+0	1.2231E-6	-45.0309E-9	111.8989E-12
53.9000E+0	1.3135E-6	-45.0009E-9	211.7841E-12
54.0000E+0	1.4233E-6	-45.1357E-9	149.4418E-12
54.1000E+0	1.5256E-6	-45.1643E-9	81.8919E-12
54.2000E+0	1.6523E-6	-45.4898E-9	46.6773E-12
54.3000E+0	1.7476E-6	-44.9966E-9	440.0205E-12
54.4000E+0	1.8869E-6	-45.4594E-9	223.9280E-12
54.5000E+0	2.0240E-6	-45.8063E-9	180.5751E-12
54.6000E+0	2.1212E-6	-45.6088E-9	155.1671E-12
54.7000E+0	2.2409E-6	-45.3012E-9	178.0864E-12
54.8000E+0	2.3684E-6	-45.2058E-9	125.6051E-12
54.9000E+0	2.4725E-6	-45.0093E-9	55.5301E-12
55.0000E+0	2.5681E-6	-44.8520E-9	117.2851E-12
55.1000E+0	2.7191E-6	-44.8714E-9	62.9479E-12
55.2000E+0	2.8468E-6	-44.6909E-9	177.7655E-12
55.3000E+0	2.9801E-6	-44.9326E-9	155.6061E-12
55.4000E+0	3.0709E-6	-44.9892E-9	75.9607E-12
55.5000E+0	3.2370E-6	-44.9429E-9	93.7633E-12
55.6000E+0	3.3956E-6	-45.2090E-9	98.3381E-12
55.7000E+0	3.5674E-6	-45.4092E-9	107.2636E-12
55.8000E+0	3.7364E-6	-45.3925E-9	237.7462E-12
55.9000E+0	3.8386E-6	-45.4371E-9	238.8998E-12
56.0000E+0	3.9818E-6	-45.5034E-9	282.1165E-12
56.1000E+0	4.2133E-6	-45.7358E-9	101.0993E-12
56.2000E+0	4.2985E-6	-45.1974E-9	143.4440E-12
56.3000E+0	4.4314E-6	-45.0969E-9	159.3907E-12
56.4000E+0	4.5924E-6	-44.9937E-9	92.6189E-12
56.5000E+0	4.7345E-6	-44.9360E-9	131.4121E-12
56.6000E+0	4.9577E-6	-44.8897E-9	208.1177E-12
56.7000E+0	5.0744E-6	-44.9550E-9	68.0858E-12
56.8000E+0	5.2587E-6	-44.9721E-9	152.4664E-12
56.9000E+0	5.3585E-6	-44.9491E-9	130.4857E-12
57.0000E+0	5.6260E-6	-45.1085E-9	106.5460E-12
57.1000E+0	5.7793E-6	-45.3363E-9	52.6932E-12
57.2000E+0	5.9726E-6	-45.4285E-9	78.8491E-12
57.3000E+0	6.1960E-6	-45.5328E-9	104.3389E-12
57.4000E+0	6.3753E-6	-45.5112E-9	201.4356E-12
57.5000E+0	6.5799E-6	-45.4227E-9	71.0771E-12
57.6000E+0	6.7629E-6	-45.1579E-9	246.9685E-12
57.7000E+0	6.8072E-6	-45.4702E-9	124.3153E-12
57.8000E+0	7.0489E-6	-45.4191E-9	105.7589E-12
57.9000E+0	7.2822E-6	-45.1610E-9	177.8321E-12
58.0000E+0	7.4577E-6	-45.3526E-9	105.0231E-12
58.1000E+0	7.6812E-6	-45.2125E-9	96.1885E-12
58.2000E+0	7.9538E-6	-45.3926E-9	190.9176E-12
58.3000E+0	8.1859E-6	-45.4181E-9	149.3934E-12
58.4000E+0	8.4078E-6	-45.5251E-9	210.7002E-12
58.5000E+0	8.6843E-6	-45.7698E-9	174.4502E-12
58.6000E+0	8.7772E-6	-45.6704E-9	220.9519E-12
58.7000E+0	9.0524E-6	-45.9466E-9	31.1242E-12
58.8000E+0	9.3363E-6	-45.6255E-9	80.8655E-12
58.9000E+0	9.4630E-6	-45.4721E-9	105.0504E-12
59.0000E+0	9.6722E-6	-45.1331E-9	34.5455E-12
59.1000E+0	9.8630E-6	-44.7983E-9	203.2916E-12
59.2000E+0	10.0408E-6	-44.8716E-9	106.2887E-12
59.3000E+0	10.3183E-6	-44.6951E-9	70.6866E-12
59.4000E+0	10.4662E-6	-44.6456E-9	162.3880E-12
59.5000E+0	10.8125E-6	-44.7616E-9	97.8688E-12
59.6000E+0	11.0679E-6	-44.9441E-9	116.5343E-12
59.7000E+0	11.3052E-6	-44.8164E-9	210.3793E-12
59.8000E+0	11.6784E-6	-45.2246E-9	66.1814E-12
59.9000E+0	11.9804E-6	-45.3620E-9	115.0023E-12
60.0000E+0	12.2724E-6	-45.6230E-9	65.8363E-12
60.1000E+0	12.5773E-6	-45.7482E-9	208.2630E-12
60.2000E+0	12.9762E-6	-45.9293E-9	80.6172E-12
60.3000E+0	13.1867E-6	-45.6802E-9	112.4530E-12
60.4000E+0	13.5306E-6	-45.3779E-9	145.5301E-12
60.5000E+0	13.8413E-6	-45.3172E-9	179.0401E-12
60.6000E+0	13.9057E-6	-45.2327E-9	171.1803E-12
60.7000E+0	14.2324E-6	-45.1083E-9	125.9412E-12
60.8000E+0	14.5974E-6	-45.0166E-9	165.6518E-12
60.9000E+0	15.0816E-6	-45.0894E-9	111.8868E-12
61.0000E+0	15.2930E-6	-45.0873E-9	73.1844E-12
61.1000E+0	15.5776E-6	-45.2583E-9	110.5880E-12
61.2000E+0	16.0650E-6	-45.1369E-9	133.2711E-12
61.3000E+0	16.2718E-6	-45.1982E-9	102.2528E-12
61.4000E+0	16.6732E-6	-45.4319E-9	212.4048E-12
61.5000E+0	17.2010E-6	-45.7732E-9	88.2318E-12
61.6000E+0	17.7528E-6	-45.4939E-9	351.2559E-12
61.7000E+0	17.8076E-6	-45.9313E-9	174.1293E-12
61.8000E+0	18.5054E-6	-45.7068E-9	99.4008E-12
61.9000E+0	18.6961E-6	-45.2998E-9	134.7395E-12
62.0000E+0	19.0166E-6	-45.2018E-9	86.9541E-12
62.1000E+0	19.2200E-6	-45.0558E-9	91.3715E-12
62.2000E+0	19.7557E-6	-44.8171E-9	169.0670E-12
62.3000E+0	20.0596E-6	-44.8675E-9	111.3661E-12
62.4000E+0	20.5737E-6	-44.9625E-9	57.2438E-12
62.5000E+0	21.1414E-6	-44.8834E-9	81.4801E-12
62.6000E+0	21.5505E-6	-45.0722E-9	142.1694E-12
62.7000E+0	22.0976E-6	-45.0166E-9	117.0823E-12
62.8000E+0	22.4119E-6	-45.0316E-9	152.5239E-12
62.9000E+0	22.7489E-6	-45.3156E-9	108.2506E-12
63.0000E+0	23.5347E-6	-45.1910E-9	317.3432E-12
63.1000E+0	24.2083E-6	-45.4616E-9	139.7291E-12
63.2000E+0	24.7248E-6	-45.8818E-9	87.3568E-12
63.3000E+0	25.1771E-6	-45.7223E-9	84.1990E-12
63.4000E+0	25.7947E-6	-45.6905E-9	196.0918E-12
63.5000E+0	25.9709E-6	-45.4148E-9	135.6327E-12
63.6000E+0	26.2013E-6	-45.3285E-9	38.4996E-12
63.7000E+0	26.9358E-6	-45.1389E-9	43.6133E-12
63.8000E+0	27.3485E-6	-45.0471E-9	110.7181E-12
63.9000E+0	28.0484E-6	-44.9599E-9	104.5054E-12
