Voltage(V)	Current(A)	DiodeCurrent(A)	DiodeCurrent Std(A)
0.0000E+0	3.4813E-12	-45.1694E-9	99.1646E-12
2.0000E+0	39.5660E-12	-44.9676E-9	44.2340E-12
4.0000E+0	65.7882E-12	-44.9342E-9	108.9621E-12
6.0000E+0	176.4729E-12	-44.8239E-9	201.7354E-12
8.0000E+0	233.9056E-12	-44.9473E-9	276.7605E-12
10.0000E+0	273.0195E-12	-44.8970E-9	121.2180E-12
12.0000E+0	308.7753E-12	-45.0262E-9	150.4076E-12
14.0000E+0	339.4800E-12	-45.1210E-9	96.4670E-12
16.0000E+0	371.2552E-12	-45.5443E-9	117.5485E-12
18.0000E+0	404.0105E-12	-45.9248E-9	60.8709E-12
20.0000E+0	439.8613E-12	-45.7882E-9	139.4687E-12
22.0000E+0	477.4823E-12	-46.4177E-9	28.8172E-12
24.0000E+0	516.0613E-12	-46.2523E-9	125.4477E-12
26.0000E+0	541.8144E-12	-45.8445E-9	151.3159E-12
28.0000E+0	557.2975E-12	-45.5047E-9	42.6808E-12
30.0000E+0	569.4159E-12	-45.4557E-9	236.0114E-12
32.0000E+0	580.7888E-12	-45.0617E-9	158.0343E-12
34.0000E+0	590.8579E-12	-45.2318E-9	108.7835E-12
36.0000E+0	604.3450E-12	-45.2092E-9	103.0975E-12
38.0000E+0	616.6699E-12	-45.3326E-9	61.7187E-12
40.0000E+0	629.1369E-12	-45.3989E-9	128.1786E-12
42.0000E+0	642.5086E-12	-45.4366E-9	127.7790E-12
44.0000E+0	657.7497E-12	-45.4146E-9	123.3313E-12
46.0000E+0	674.5782E-12	-45.7249E-9	146.9985E-12
48.0000E+0	693.3423E-12	-46.1267E-9	105.0141E-12
50.0000E+0	718.7598E-12	-46.2394E-9	127.5700E-12
50.1000E+0	720.3247E-12	-46.0424E-9	316.3107E-12
50.2000E+0	722.9423E-12	-46.1286E-9	160.1445E-12
50.3000E+0	722.6825E-12	-45.7063E-9	194.4175E-12
50.4000E+0	725.2310E-12	-45.4663E-9	119.5498E-12
50.5000E+0	726.6023E-12	-45.1185E-9	200.9966E-12
50.6000E+0	728.5162E-12	-45.0530E-9	162.6908E-12
50.7000E+0	731.7522E-12	-45.1840E-9	111.8868E-12
50.8000E+0	735.1814E-12	-45.0736E-9	140.2771E-12
50.9000E+0	738.7617E-12	-45.0790E-9	247.1592E-12
51.0000E+0	742.3185E-12	-45.0920E-9	170.7776E-12
51.1000E+0	746.9092E-12	-45.3628E-9	143.9496E-12
51.2000E+0	753.9057E-12	-45.4924E-9	137.0648E-12
51.3000E+0	762.4962E-12	-45.8517E-9	123.9005E-12
51.4000E+0	775.1544E-12	-45.9910E-9	142.0846E-12
51.5000E+0	793.7638E-12	-46.2614E-9	141.6486E-12
51.6000E+0	837.6972E-12	-46.4199E-9	72.9119E-12
51.7000E+0	952.0834E-12	-45.9437E-9	105.4773E-12
51.8000E+0	1.4490E-9	-45.6281E-9	142.9717E-12
51.9000E+0	3.9901E-9	-45.4156E-9	97.7386E-12
52.0000E+0	11.8400E-9	-45.3162E-9	81.2591E-12
52.1000E+0	25.4440E-9	-45.2218E-9	83.1423E-12
52.2000E+0	43.6990E-9	-45.0305E-9	148.1974E-12
52.3000E+0	64.0739E-9	-45.2720E-9	242.9084E-12
52.4000E+0	90.5969E-9	-45.2420E-9	99.1828E-12
52.5000E+0	119.7771E-9	-45.2029E-9	99.3584E-12
52.6000E+0	150.7353E-9	-45.1340E-9	231.9029E-12
52.7000E+0	181.6278E-9	-45.4691E-9	184.6746E-12
52.8000E+0	222.7478E-9	-45.7064E-9	147.7160E-12
52.9000E+0	261.4204E-9	-46.1280E-9	80.8685E-12
53.0000E+0	301.2420E-9	-45.7387E-9	297.6816E-12
53.1000E+0	347.2798E-9	-45.7781E-9	484.2848E-12
53.2000E+0	392.0791E-9	-45.9518E-9	188.5318E-12
53.3000E+0	444.5561E-9	-45.8391E-9	145.6966E-12
53.4000E+0	493.2502E-9	-45.7365E-9	185.8372E-12
53.5000E+0	546.0225E-9	-45.6286E-9	184.7593E-12
53.6000E+0	601.0100E-9	-45.2643E-9	228.2091E-12
53.7000E+0	658.6694E-9	-45.2065E-9	74.4378E-12
53.8000E+0	711.2725E-9	-45.3930E-9	77.7198E-12
53.9000E+0	767.6009E-9	-45.4399E-9	118.2086E-12
54.0000E+0	835.1019E-9	-45.4026E-9	66.5114E-12
54.1000E+0	892.8494E-9	-45.5434E-9	123.5857E-12
54.2000E+0	962.4815E-9	-45.5172E-9	63.1719E-12
54.3000E+0	1.0405E-6	-45.5284E-9	286.9849E-12
54.4000E+0	1.1105E-6	-46.1807E-9	222.8865E-12
54.5000E+0	1.1935E-6	-46.2605E-9	67.0322E-12
54.6000E+0	1.2637E-6	-46.4338E-9	122.0052E-12
54.7000E+0	1.3248E-6	-45.9898E-9	186.2277E-12
54.8000E+0	1.3937E-6	-45.8659E-9	110.3942E-12
54.9000E+0	1.4644E-6	-45.5522E-9	175.1829E-12
55.0000E+0	1.5310E-6	-45.2929E-9	69.1091E-12
55.1000E+0	1.6095E-6	-45.3505E-9	45.6994E-12
55.2000E+0	1.6705E-6	-45.0814E-9	101.8471E-12
55.3000E+0	1.7677E-6	-45.1650E-9	226.7650E-12
55.4000E+0	1.8553E-6	-45.0291E-9	152.7752E-12
55.5000E+0	1.9410E-6	-45.2565E-9	82.0372E-12
55.6000E+0	1.9983E-6	-45.1838E-9	182.8095E-12
55.7000E+0	2.1131E-6	-45.2424E-9	236.5019E-12
55.8000E+0	2.2091E-6	-45.7644E-9	109.9098E-12
55.9000E+0	2.3015E-6	-46.1770E-9	61.9911E-12
56.0000E+0	2.4386E-6	-46.2490E-9	91.4017E-12
56.1000E+0	2.5057E-6	-46.4112E-9	170.0873E-12
56.2000E+0	2.6008E-6	-46.1703E-9	136.7075E-12
56.3000E+0	2.7127E-6	-45.8033E-9	188.3774E-12
56.4000E+0	2.7716E-6	-45.4793E-9	189.9275E-12
56.5000E+0	2.8775E-6	-45.2850E-9	112.6982E-12
56.6000E+0	2.9612E-6	-45.1893E-9	152.1515E-12
56.7000E+0	3.0488E-6	-45.0542E-9	162.7150E-12
56.8000E+0	3.1539E-6	-44.9292E-9	99.1555E-12
56.9000E+0	3.2470E-6	-45.1709E-9	42.3780E-12
57.0000E+0	3.3862E-6	-45.2989E-9	116.0922E-12
57.1000E+0	3.5052E-6	-45.2640E-9	114.3150E-12
57.2000E+0	3.5802E-6	-45.3877E-9	82.0433E-12
57.3000E+0	3.7267E-6	-45.6976E-9	68.7458E-12
57.4000E+0	3.8672E-6	-45.8805E-9	153.9046E-12
57.5000E+0	3.9667E-6	-46.1257E-9	312.7654E-12
57.6000E+0	4.1091E-6	-46.2131E-9	159.1484E-12
57.7000E+0	4.2430E-6	-46.2136E-9	383.8697E-12
57.8000E+0	4.3606E-6	-45.9684E-9	314.3912E-12
57.9000E+0	4.4737E-6	-45.6252E-9	340.3170E-12
58.0000E+0	4.5944E-6	-45.4053E-9	65.3791E-12
58.1000E+0	4.6612E-6	-45.3276E-9	134.4398E-12
58.2000E+0	4.8178E-6	-45.2152E-9	143.7347E-12
58.3000E+0	4.9355E-6	-45.0426E-9	112.0079E-12
58.4000E+0	5.0668E-6	-44.9821E-9	138.1002E-12
58.5000E+0	5.2302E-6	-45.3523E-9	48.6634E-12
58.6000E+0	5.3343E-6	-45.2272E-9	136.9134E-12
58.7000E+0	5.5455E-6	-45.4583E-9	144.1797E-12
58.8000E+0	5.6400E-6	-45.5900E-9	160.2656E-12
58.9000E+0	5.8771E-6	-45.3985E-9	550.7780E-12
59.0000E+0	5.9846E-6	-46.2538E-9	37.6761E-12
59.1000E+0	6.1956E-6	-46.4828E-9	113.5187E-12
59.2000E+0	6.3207E-6	-46.4715E-9	140.8009E-12
59.3000E+0	6.4284E-6	-46.1265E-9	189.0283E-12
59.4000E+0	6.6182E-6	-45.8041E-9	122.7076E-12
59.5000E+0	6.7630E-6	-45.5246E-9	173.8870E-12
59.6000E+0	6.9630E-6	-45.4594E-9	108.3475E-12
59.7000E+0	7.0696E-6	-45.5383E-9	145.6936E-12
59.8000E+0	7.1892E-6	-45.3639E-9	103.7152E-12
59.9000E+0	7.3631E-6	-45.3403E-9	152.1182E-12
60.0000E+0	7.5347E-6	-45.4016E-9	227.2766E-12
60.1000E+0	7.7084E-6	-45.5604E-9	83.1393E-12
60.2000E+0	8.0263E-6	-45.5888E-9	103.3155E-12
60.3000E+0	8.1347E-6	-45.6073E-9	157.4953E-12
60.4000E+0	8.4114E-6	-45.8894E-9	115.6078E-12
60.5000E+0	8.6413E-6	-46.0394E-9	180.5146E-12
60.6000E+0	8.9101E-6	-46.2560E-9	228.7360E-12
60.7000E+0	9.1541E-6	-46.1410E-9	262.5881E-12
60.8000E+0	9.4111E-6	-46.3844E-9	173.5419E-12
60.9000E+0	9.4397E-6	-46.1589E-9	139.7533E-12
61.0000E+0	9.7327E-6	-45.8683E-9	150.3198E-12
61.1000E+0	9.9117E-6	-45.7828E-9	133.0077E-12
61.2000E+0	10.0453E-6	-45.4447E-9	164.5861E-12
61.3000E+0	10.3011E-6	-45.4334E-9	163.2570E-12
61.4000E+0	10.5009E-6	-45.6435E-9	51.7970E-12
61.5000E+0	10.7487E-6	-45.4509E-9	170.5506E-12
61.6000E+0	11.0488E-6	-45.3690E-9	199.7523E-12
61.7000E+0	11.2015E-6	-45.4635E-9	89.1068E-12
61.8000E+0	11.5518E-6	-45.6628E-9	148.4881E-12
61.9000E+0	11.5651E-6	-45.6630E-9	139.8835E-12
62.0000E+0	12.0495E-6	-46.0279E-9	157.9313E-12
62.1000E+0	12.4481E-6	-45.9430E-9	212.2807E-12
62.2000E+0	12.7010E-6	-46.0695E-9	145.8692E-12
62.3000E+0	13.0831E-6	-46.2545E-9	185.2710E-12
62.4000E+0	13.2095E-6	-46.0949E-9	118.4235E-12
62.5000E+0	13.4961E-6	-45.9456E-9	135.2421E-12
62.6000E+0	13.7948E-6	-46.0146E-9	126.8525E-12
62.7000E+0	14.0517E-6	-45.8900E-9	74.7224E-12
62.8000E+0	14.3942E-6	-45.7846E-9	57.0137E-12
62.9000E+0	14.8680E-6	-45.8823E-9	204.7933E-12
63.0000E+0	15.0302E-6	-46.0377E-9	139.1205E-12
63.1000E+0	15.4055E-6	-45.5610E-9	240.4832E-12
63.2000E+0	15.7872E-6	-45.9913E-9	158.4067E-12
63.3000E+0	15.9036E-6	-46.2658E-9	107.7601E-12
63.4000E+0	16.4410E-6	-45.9583E-9	308.1058E-12
63.5000E+0	16.9451E-6	-46.4595E-9	148.5153E-12
63.6000E+0	17.2310E-6	-46.0011E-9	127.1310E-12
63.7000E+0	17.5190E-6	-46.0158E-9	200.6363E-12
63.8000E+0	17.9473E-6	-45.8017E-9	180.1028E-12
63.9000E+0	18.2250E-6	-45.8565E-9	147.7130E-12
