Voltage(V)	Current(A)	DiodeCurrent(A)	DiodeCurrent Std(A)
0.0000E+0	1.3203E-12	-23.3671E-9	42.2872E-12
2.0000E+0	38.3380E-12	-23.3592E-9	97.8173E-12
4.0000E+0	67.9253E-12	-23.3077E-9	110.8756E-12
6.0000E+0	175.8758E-12	-23.3398E-9	53.2291E-12
8.0000E+0	230.3215E-12	-23.3523E-9	99.1465E-12
10.0000E+0	276.2769E-12	-23.3422E-9	77.1082E-12
12.0000E+0	309.1662E-12	-23.3474E-9	72.6909E-12
14.0000E+0	338.8127E-12	-23.3706E-9	88.3620E-12
16.0000E+0	369.4000E-12	-23.4442E-9	135.9294E-12
18.0000E+0	401.7111E-12	-23.3806E-9	143.3653E-12
20.0000E+0	439.3314E-12	-23.4985E-9	99.8337E-12
22.0000E+0	477.7372E-12	-23.3126E-9	77.9166E-12
24.0000E+0	515.4852E-12	-23.4023E-9	151.3159E-12
26.0000E+0	542.4409E-12	-23.4260E-9	81.7344E-12
28.0000E+0	559.7233E-12	-23.3380E-9	94.8896E-12
30.0000E+0	569.1270E-12	-23.3548E-9	105.3925E-12
32.0000E+0	582.3996E-12	-23.2987E-9	88.0804E-12
34.0000E+0	594.7063E-12	-23.3585E-9	124.3638E-12
36.0000E+0	606.1518E-12	-23.3072E-9	76.6086E-12
38.0000E+0	619.6775E-12	-23.2938E-9	116.1921E-12
40.0000E+0	633.0056E-12	-23.2745E-9	68.4915E-12
42.0000E+0	647.3760E-12	-23.3131E-9	152.8418E-12
44.0000E+0	663.6051E-12	-23.2948E-9	124.3698E-12
46.0000E+0	681.6344E-12	-23.2411E-9	112.2744E-12
48.0000E+0	703.5330E-12	-23.3560E-9	110.7151E-12
50.0000E+0	735.5175E-12	-23.4050E-9	106.0556E-12
50.1000E+0	737.5077E-12	-23.4117E-9	83.9840E-12
50.2000E+0	739.8724E-12	-23.3829E-9	110.3397E-12
50.3000E+0	742.9145E-12	-23.3308E-9	110.9059E-12
50.4000E+0	746.2927E-12	-23.3532E-9	112.3016E-12
50.5000E+0	750.8024E-12	-23.2984E-9	88.2076E-12
50.6000E+0	753.0638E-12	-23.4666E-9	133.8191E-12
50.7000E+0	758.3475E-12	-23.2866E-9	78.8824E-12
50.8000E+0	764.0712E-12	-23.3612E-9	119.0200E-12
50.9000E+0	770.4856E-12	-23.3452E-9	116.5585E-12
51.0000E+0	778.4753E-12	-23.3985E-9	60.2230E-12
51.1000E+0	787.2931E-12	-23.4050E-9	129.7772E-12
51.2000E+0	801.1369E-12	-23.3542E-9	83.7660E-12
51.3000E+0	816.9573E-12	-23.3656E-9	125.8291E-12
51.4000E+0	845.1225E-12	-23.3424E-9	116.1558E-12
51.5000E+0	887.2024E-12	-23.3527E-9	83.9204E-12
51.6000E+0	986.7162E-12	-23.3658E-9	37.5943E-12
51.7000E+0	1.2709E-9	-23.3383E-9	75.3037E-12
51.8000E+0	2.5594E-9	-23.3218E-9	61.7459E-12
51.9000E+0	9.0578E-9	-23.2938E-9	73.5325E-12
52.0000E+0	28.2105E-9	-23.3418E-9	77.7894E-12
52.1000E+0	57.2573E-9	-23.2760E-9	75.4279E-12
52.2000E+0	95.2813E-9	-23.3623E-9	69.3392E-12
52.3000E+0	139.4405E-9	-23.3215E-9	119.7315E-12
52.4000E+0	189.4226E-9	-23.3148E-9	44.0039E-12
52.5000E+0	250.8355E-9	-23.3126E-9	94.3295E-12
52.6000E+0	308.8196E-9	-23.4081E-9	108.4444E-12
52.7000E+0	377.8747E-9	-23.3616E-9	120.3582E-12
52.8000E+0	444.9997E-9	-23.4014E-9	134.8818E-12
52.9000E+0	523.7949E-9	-23.3098E-9	71.0741E-12
53.0000E+0	605.3223E-9	-23.3754E-9	113.1736E-12
53.1000E+0	678.3067E-9	-23.3416E-9	105.3743E-12
53.2000E+0	768.1508E-9	-23.2383E-9	52.6720E-12
53.3000E+0	862.6579E-9	-23.2973E-9	110.2156E-12
53.4000E+0	938.3940E-9	-23.1913E-9	66.2904E-12
53.5000E+0	1.0363E-6	-23.1815E-9	81.3620E-12
53.6000E+0	1.1400E-6	-23.1688E-9	68.7428E-12
53.7000E+0	1.2311E-6	-23.2609E-9	98.9951E-12
53.8000E+0	1.3121E-6	-23.3126E-9	146.7835E-12
53.9000E+0	1.4297E-6	-23.2556E-9	68.9275E-12
54.0000E+0	1.5307E-6	-23.3167E-9	79.5303E-12
54.1000E+0	1.6426E-6	-23.3033E-9	92.1526E-12
54.2000E+0	1.7565E-6	-23.2860E-9	79.4092E-12
54.3000E+0	1.8671E-6	-23.3640E-9	140.5950E-12
54.4000E+0	1.9707E-6	-23.3767E-9	87.9926E-12
54.5000E+0	2.0805E-6	-23.4294E-9	118.3993E-12
54.6000E+0	2.1956E-6	-23.3981E-9	136.8074E-12
54.7000E+0	2.3306E-6	-23.3274E-9	93.2153E-12
54.8000E+0	2.4427E-6	-23.3213E-9	91.3139E-12
54.9000E+0	2.5744E-6	-23.3118E-9	62.2757E-12
55.0000E+0	2.6773E-6	-23.2732E-9	100.6118E-12
55.1000E+0	2.7872E-6	-23.3828E-9	119.1744E-12
55.2000E+0	2.8982E-6	-23.2767E-9	110.6546E-12
55.3000E+0	3.1038E-6	-23.2590E-9	30.3128E-12
55.4000E+0	3.1799E-6	-23.3291E-9	104.3086E-12
55.5000E+0	3.2630E-6	-23.3715E-9	71.9794E-12
55.6000E+0	3.3833E-6	-23.3603E-9	122.0052E-12
55.7000E+0	3.5539E-6	-23.3654E-9	80.1903E-12
55.8000E+0	3.7251E-6	-23.3841E-9	74.0230E-12
55.9000E+0	3.8109E-6	-23.4108E-9	74.9283E-12
56.0000E+0	4.0162E-6	-23.3596E-9	89.5428E-12
56.1000E+0	4.0917E-6	-23.3726E-9	81.9585E-12
56.2000E+0	4.2357E-6	-23.3104E-9	59.7900E-12
56.3000E+0	4.3976E-6	-23.2880E-9	64.8553E-12
56.4000E+0	4.5145E-6	-23.2081E-9	72.8483E-12
56.5000E+0	4.6061E-6	-23.2250E-9	42.9714E-12
56.6000E+0	4.7508E-6	-23.2920E-9	85.2193E-12
56.7000E+0	4.8998E-6	-23.2240E-9	69.0910E-12
56.8000E+0	5.0973E-6	-23.2401E-9	44.3702E-12
56.9000E+0	5.2034E-6	-23.3246E-9	66.8505E-12
57.0000E+0	5.3554E-6	-23.2653E-9	108.6987E-12
57.1000E+0	5.5528E-6	-23.2439E-9	80.7141E-12
57.2000E+0	5.6667E-6	-23.2830E-9	185.2438E-12
57.3000E+0	5.8540E-6	-23.3558E-9	116.6523E-12
57.4000E+0	5.9706E-6	-23.4281E-9	78.7219E-12
57.5000E+0	6.1042E-6	-23.4475E-9	94.3658E-12
57.6000E+0	6.3750E-6	-23.3680E-9	47.9761E-12
57.7000E+0	6.4925E-6	-23.3238E-9	89.6669E-12
57.8000E+0	6.5923E-6	-23.2538E-9	35.7838E-12
57.9000E+0	6.7455E-6	-23.2707E-9	44.9879E-12
58.0000E+0	6.9381E-6	-23.1998E-9	51.6124E-12
58.1000E+0	7.1314E-6	-23.2206E-9	43.6254E-12
58.2000E+0	7.2973E-6	-23.3332E-9	135.2482E-12
58.3000E+0	7.4157E-6	-23.3133E-9	99.0859E-12
58.4000E+0	7.6249E-6	-23.2621E-9	85.0043E-12
58.5000E+0	7.8468E-6	-23.2947E-9	113.7912E-12
58.6000E+0	7.9876E-6	-23.3167E-9	90.1755E-12
58.7000E+0	8.1935E-6	-23.2813E-9	74.0594E-12
58.8000E+0	8.3825E-6	-23.3107E-9	85.6916E-12
58.9000E+0	8.6222E-6	-23.3715E-9	89.7941E-12
59.0000E+0	8.7921E-6	-23.4234E-9	80.3690E-12
59.1000E+0	8.8766E-6	-23.2807E-9	71.0983E-12
59.2000E+0	9.1214E-6	-23.4413E-9	153.7744E-12
59.3000E+0	9.3928E-6	-23.3977E-9	136.7136E-12
59.4000E+0	9.5271E-6	-23.3441E-9	138.9480E-12
59.5000E+0	9.7273E-6	-23.2639E-9	59.8748E-12
59.6000E+0	10.0273E-6	-23.2517E-9	101.7593E-12
59.7000E+0	10.2534E-6	-23.2882E-9	55.9661E-12
59.8000E+0	10.3541E-6	-23.3202E-9	68.0616E-12
59.9000E+0	10.6414E-6	-23.2837E-9	85.3767E-12
60.0000E+0	10.6907E-6	-23.3180E-9	63.7986E-12
60.1000E+0	10.9901E-6	-23.2732E-9	28.7597E-12
60.2000E+0	11.3029E-6	-23.3797E-9	105.1533E-12
60.3000E+0	11.5505E-6	-23.3220E-9	49.0934E-12
60.4000E+0	11.8258E-6	-23.3596E-9	75.4914E-12
60.5000E+0	11.9665E-6	-23.4203E-9	107.4483E-12
60.6000E+0	12.3175E-6	-23.3083E-9	66.0633E-12
60.7000E+0	12.4047E-6	-23.2969E-9	53.5743E-12
60.8000E+0	12.8480E-6	-23.4285E-9	104.7870E-12
60.9000E+0	12.9863E-6	-23.4089E-9	68.9578E-12
61.0000E+0	13.2009E-6	-23.3235E-9	106.1161E-12
61.1000E+0	13.4527E-6	-23.3883E-9	66.4690E-12
61.2000E+0	13.8123E-6	-23.3830E-9	122.7803E-12
61.3000E+0	14.0596E-6	-23.3868E-9	121.6601E-12
61.4000E+0	14.4234E-6	-23.3872E-9	90.6660E-12
61.5000E+0	14.6664E-6	-23.2634E-9	46.9437E-12
61.6000E+0	14.8343E-6	-23.2969E-9	92.9640E-12
61.7000E+0	15.2146E-6	-23.3609E-9	114.2605E-12
61.8000E+0	15.5956E-6	-23.3404E-9	103.9332E-12
61.9000E+0	15.8790E-6	-23.4079E-9	83.1393E-12
62.0000E+0	16.0659E-6	-23.3896E-9	89.5095E-12
62.1000E+0	16.3504E-6	-23.3603E-9	133.2893E-12
62.2000E+0	16.6921E-6	-23.3079E-9	147.4587E-12
62.3000E+0	17.0574E-6	-23.3684E-9	129.7439E-12
62.4000E+0	17.4646E-6	-23.3539E-9	130.5553E-12
62.5000E+0	17.7929E-6	-23.3701E-9	100.7390E-12
62.6000E+0	18.2936E-6	-23.2866E-9	147.2528E-12
62.7000E+0	18.6025E-6	-23.3402E-9	82.4550E-12
62.8000E+0	18.9736E-6	-23.3585E-9	87.1812E-12
62.9000E+0	19.1616E-6	-23.3374E-9	96.1309E-12
63.0000E+0	19.4554E-6	-23.3631E-9	136.8649E-12
63.1000E+0	19.9183E-6	-23.3930E-9	110.4699E-12
63.2000E+0	20.2817E-6	-23.3371E-9	95.8554E-12
63.3000E+0	20.8052E-6	-23.3236E-9	36.6285E-12
63.4000E+0	20.9490E-6	-23.3471E-9	83.1363E-12
63.5000E+0	21.5149E-6	-23.2798E-9	75.7336E-12
63.6000E+0	21.7198E-6	-23.3664E-9	98.0323E-12
63.7000E+0	22.5037E-6	-23.3671E-9	107.6390E-12
63.8000E+0	22.8640E-6	-23.2645E-9	76.9205E-12
63.9000E+0	23.1610E-6	-23.2937E-9	107.3544E-12
