Voltage(V)	Current(A)	DiodeCurrent(A)	DiodeCurrent Std(A)
0.0000E+0	3.2958E-12	-72.2581E-9	232.1421E-12
2.0000E+0	43.3640E-12	-72.5738E-9	383.3671E-12
4.0000E+0	73.6884E-12	-72.3754E-9	55.2576E-12
6.0000E+0	190.2781E-12	-71.7719E-9	331.2068E-12
8.0000E+0	247.3450E-12	-71.8656E-9	231.7212E-12
10.0000E+0	296.0116E-12	-71.4705E-9	200.4032E-12
12.0000E+0	331.6676E-12	-71.2346E-9	262.3398E-12
14.0000E+0	362.7944E-12	-71.3461E-9	144.5976E-12
16.0000E+0	394.8254E-12	-71.1248E-9	195.6740E-12
18.0000E+0	431.2001E-12	-71.3329E-9	103.9968E-12
20.0000E+0	472.0773E-12	-71.1525E-9	197.5390E-12
22.0000E+0	510.4509E-12	-71.3690E-9	179.2793E-12
24.0000E+0	549.6734E-12	-71.5631E-9	162.6575E-12
26.0000E+0	579.5919E-12	-71.2705E-9	120.1311E-12
28.0000E+0	595.3007E-12	-71.6955E-9	185.0258E-12
30.0000E+0	608.6404E-12	-71.8776E-9	275.2709E-12
32.0000E+0	620.5301E-12	-72.4339E-9	131.0034E-12
34.0000E+0	634.8970E-12	-72.3732E-9	291.1328E-12
36.0000E+0	645.0910E-12	-72.2475E-9	200.2064E-12
38.0000E+0	659.1679E-12	-71.7078E-9	346.7901E-12
40.0000E+0	674.4506E-12	-71.6350E-9	89.1582E-12
42.0000E+0	692.5776E-12	-71.5004E-9	142.3571E-12
44.0000E+0	710.3267E-12	-71.5293E-9	122.0628E-12
46.0000E+0	732.7334E-12	-71.1694E-9	203.5065E-12
48.0000E+0	762.2630E-12	-71.4251E-9	131.5363E-12
50.0000E+0	815.8287E-12	-71.4531E-9	206.3616E-12
50.1000E+0	819.1148E-12	-71.6165E-9	109.3648E-12
50.2000E+0	822.8087E-12	-71.7260E-9	283.6848E-12
50.3000E+0	830.9677E-12	-71.7692E-9	256.4632E-12
50.4000E+0	836.8805E-12	-71.8955E-9	136.7347E-12
50.5000E+0	843.9635E-12	-72.1841E-9	68.0919E-12
50.6000E+0	849.6506E-12	-72.0164E-9	402.3142E-12
50.7000E+0	861.8218E-12	-72.0671E-9	334.3919E-12
50.8000E+0	872.6658E-12	-72.0515E-9	141.3610E-12
50.9000E+0	886.6152E-12	-71.9954E-9	231.4124E-12
51.0000E+0	902.4483E-12	-71.8328E-9	143.6893E-12
51.1000E+0	921.1633E-12	-71.4688E-9	146.2809E-12
51.2000E+0	946.3350E-12	-71.2494E-9	194.7082E-12
51.3000E+0	982.3325E-12	-71.2043E-9	164.1320E-12
51.4000E+0	1.0384E-9	-71.2822E-9	61.7762E-12
51.5000E+0	1.1203E-9	-71.0855E-9	212.9801E-12
51.6000E+0	1.2782E-9	-71.3248E-9	117.4819E-12
51.7000E+0	1.6776E-9	-71.1941E-9	483.2493E-12
51.8000E+0	3.0980E-9	-71.3806E-9	240.8587E-12
51.9000E+0	10.9758E-9	-71.8253E-9	181.6227E-12
52.0000E+0	40.5232E-9	-71.8726E-9	360.9323E-12
52.1000E+0	104.2105E-9	-72.0794E-9	192.2437E-12
52.2000E+0	191.1537E-9	-72.2156E-9	206.1588E-12
52.3000E+0	300.5507E-9	-72.3552E-9	356.9963E-12
52.4000E+0	423.2606E-9	-72.0303E-9	206.5493E-12
52.5000E+0	562.7402E-9	-71.7389E-9	189.7398E-12
52.6000E+0	724.3412E-9	-71.6634E-9	170.9260E-12
52.7000E+0	887.2483E-9	-71.4386E-9	245.5969E-12
52.8000E+0	1.0708E-6	-71.4305E-9	100.1274E-12
52.9000E+0	1.2621E-6	-71.4892E-9	117.2064E-12
53.0000E+0	1.4463E-6	-71.4256E-9	52.0150E-12
53.1000E+0	1.6774E-6	-71.5950E-9	146.4444E-12
53.2000E+0	1.9134E-6	-71.3405E-9	219.5198E-12
53.3000E+0	2.1365E-6	-71.5126E-9	253.2024E-12
53.4000E+0	2.3839E-6	-71.7677E-9	101.4021E-12
53.5000E+0	2.6408E-6	-72.2000E-9	49.9865E-12
53.6000E+0	2.9219E-6	-72.2753E-9	117.0399E-12
53.7000E+0	3.1964E-6	-72.1901E-9	290.4486E-12
53.8000E+0	3.4948E-6	-72.3835E-9	238.1519E-12
53.9000E+0	3.7366E-6	-72.1602E-9	80.7384E-12
54.0000E+0	4.0469E-6	-71.8902E-9	159.3452E-12
54.1000E+0	4.3215E-6	-71.4598E-9	215.7201E-12
54.2000E+0	4.5652E-6	-71.3923E-9	233.0110E-12
54.3000E+0	4.8750E-6	-71.0260E-9	80.8685E-12
54.4000E+0	5.1821E-6	-71.0701E-9	88.0199E-12
54.5000E+0	5.5116E-6	-71.1976E-9	169.5726E-12
54.6000E+0	5.8290E-6	-71.2466E-9	266.7027E-12
54.7000E+0	6.1602E-6	-71.4762E-9	65.4881E-12
54.8000E+0	6.4402E-6	-71.6120E-9	254.3347E-12
54.9000E+0	6.8786E-6	-71.5928E-9	104.2511E-12
55.0000E+0	7.1602E-6	-72.0566E-9	139.7200E-12
55.1000E+0	7.5500E-6	-72.1324E-9	184.1508E-12
55.2000E+0	7.9929E-6	-72.5343E-9	313.7342E-12
55.3000E+0	8.3219E-6	-72.5803E-9	133.1530E-12
55.4000E+0	8.5554E-6	-71.9941E-9	185.1136E-12
55.5000E+0	8.9854E-6	-71.7978E-9	109.9582E-12
55.6000E+0	9.2707E-6	-71.6402E-9	125.1449E-12
55.7000E+0	9.8046E-6	-71.4651E-9	69.6481E-12
55.8000E+0	10.1633E-6	-71.5353E-9	66.4206E-12
55.9000E+0	10.3738E-6	-71.5985E-9	120.3733E-12
56.0000E+0	10.8405E-6	-71.3848E-9	114.7389E-12
56.1000E+0	11.2745E-6	-71.3813E-9	176.4999E-12
56.2000E+0	11.5990E-6	-71.7036E-9	168.0618E-12
56.3000E+0	12.0273E-6	-71.6836E-9	138.5907E-12
56.4000E+0	12.4467E-6	-71.7866E-9	147.2558E-12
56.5000E+0	12.9578E-6	-71.6253E-9	208.9805E-12
56.6000E+0	13.3563E-6	-71.9183E-9	199.2133E-12
56.7000E+0	13.7976E-6	-72.3533E-9	238.9936E-12
56.8000E+0	14.2809E-6	-71.5503E-9	682.1387E-12
56.9000E+0	14.5919E-6	-72.1971E-9	163.0057E-12
57.0000E+0	15.2166E-6	-71.3122E-9	524.9885E-12
57.1000E+0	15.4701E-6	-71.8514E-9	174.7620E-12
57.2000E+0	15.8714E-6	-71.3463E-9	153.0477E-12
57.3000E+0	16.4278E-6	-71.3823E-9	204.3997E-12
57.4000E+0	16.8598E-6	-71.1761E-9	136.2715E-12
57.5000E+0	17.1673E-6	-71.0661E-9	94.6080E-12
57.6000E+0	17.5944E-6	-71.2038E-9	123.2405E-12
57.7000E+0	18.1412E-6	-71.1221E-9	210.5034E-12
57.8000E+0	18.6505E-6	-71.1951E-9	170.8079E-12
57.9000E+0	19.2861E-6	-71.6311E-9	109.9976E-12
58.0000E+0	19.6652E-6	-71.4346E-9	182.3221E-12
58.1000E+0	20.2238E-6	-71.9331E-9	79.8301E-12
58.2000E+0	20.8440E-6	-72.0180E-9	154.0105E-12
58.3000E+0	21.4288E-6	-72.1046E-9	213.7128E-12
58.4000E+0	22.0312E-6	-72.5306E-9	66.2480E-12
58.5000E+0	22.3774E-6	-72.2795E-9	288.3898E-12
58.6000E+0	22.9449E-6	-71.9766E-9	220.5674E-12
58.7000E+0	23.4637E-6	-71.7357E-9	255.9333E-12
58.8000E+0	23.9480E-6	-71.7094E-9	132.0570E-12
58.9000E+0	24.3925E-6	-71.4078E-9	51.8909E-12
59.0000E+0	25.0921E-6	-71.3607E-9	215.6171E-12
59.1000E+0	25.5754E-6	-71.1442E-9	337.0623E-12
59.2000E+0	26.1500E-6	-71.4144E-9	291.0087E-12
59.3000E+0	26.6877E-6	-71.5635E-9	109.0408E-12
59.4000E+0	27.2804E-6	-71.4798E-9	447.8955E-12
59.5000E+0	28.1227E-6	-71.8546E-9	264.4289E-12
59.6000E+0	28.6853E-6	-71.8795E-9	200.4002E-12
59.7000E+0	29.5528E-6	-72.0320E-9	152.5512E-12
59.8000E+0	30.2282E-6	-71.9779E-9	271.3380E-12
59.9000E+0	30.5831E-6	-72.3776E-9	178.3589E-12
60.0000E+0	31.0671E-6	-72.3906E-9	124.1912E-12
60.1000E+0	32.1758E-6	-72.1382E-9	258.7642E-12
60.2000E+0	32.6964E-6	-71.8840E-9	145.6724E-12
60.3000E+0	33.2853E-6	-71.8464E-9	141.7395E-12
60.4000E+0	34.0880E-6	-71.4928E-9	172.2884E-12
60.5000E+0	34.5999E-6	-71.4440E-9	116.8068E-12
60.6000E+0	35.0742E-6	-71.3001E-9	200.7847E-12
60.7000E+0	35.8707E-6	-71.3520E-9	136.0232E-12
60.8000E+0	36.9631E-6	-71.3961E-9	225.1997E-12
60.9000E+0	37.5890E-6	-71.6029E-9	117.6515E-12
61.0000E+0	38.4424E-6	-71.4871E-9	187.6931E-12
61.1000E+0	39.2280E-6	-71.6154E-9	24.2848E-12
61.2000E+0	40.1874E-6	-72.0288E-9	325.3029E-12
61.3000E+0	40.9621E-6	-72.2781E-9	142.2451E-12
61.4000E+0	41.8379E-6	-72.1206E-9	256.4329E-12
61.5000E+0	42.8253E-6	-72.6042E-9	172.6911E-12
61.6000E+0	43.4723E-6	-72.2851E-9	180.0392E-12
61.7000E+0	44.3129E-6	-71.9561E-9	247.8192E-12
61.8000E+0	45.1927E-6	-71.8072E-9	214.2486E-12
61.9000E+0	45.8907E-6	-71.6590E-9	127.6760E-12
62.0000E+0	46.8266E-6	-71.5629E-9	205.0718E-12
62.1000E+0	47.8717E-6	-71.4711E-9	205.0385E-12
62.2000E+0	48.6797E-6	-71.3232E-9	229.0720E-12
62.3000E+0	49.5827E-6	-71.4588E-9	200.2488E-12
62.4000E+0	50.8733E-6	-71.4901E-9	143.8406E-12
62.5000E+0	51.1439E-6	-71.6117E-9	155.9724E-12
62.6000E+0	52.4291E-6	-71.8705E-9	211.7872E-12
62.7000E+0	53.7077E-6	-71.9296E-9	249.7781E-12
62.8000E+0	54.5251E-6	-72.0075E-9	223.7434E-12
62.9000E+0	56.1802E-6	-72.3682E-9	270.8294E-12
63.0000E+0	56.8580E-6	-72.2292E-9	288.8045E-12
63.1000E+0	57.7578E-6	-72.4574E-9	209.1410E-12
63.2000E+0	59.4915E-6	-72.2044E-9	172.9969E-12
63.3000E+0	60.1095E-6	-71.9088E-9	354.0201E-12
63.4000E+0	61.5261E-6	-71.8068E-9	99.6733E-12
63.5000E+0	62.0457E-6	-71.8481E-9	86.7331E-12
63.6000E+0	63.9637E-6	-71.5844E-9	129.2383E-12
63.7000E+0	64.6994E-6	-71.2531E-9	127.0735E-12
63.8000E+0	65.8045E-6	-71.4240E-9	139.8108E-12
63.9000E+0	66.7327E-6	-71.4284E-9	196.5339E-12
