Voltage(V)	Current(A)	DiodeCurrent(A)	DiodeCurrent Std(A)
0.0000E+0	6.7809E-12	-54.3617E-9	142.9233E-12
2.0000E+0	39.4159E-12	-54.6805E-9	83.6419E-12
4.0000E+0	69.9054E-12	-54.7704E-9	169.4758E-12
6.0000E+0	182.5520E-12	-54.3733E-9	340.9770E-12
8.0000E+0	238.9268E-12	-55.1237E-9	136.0444E-12
10.0000E+0	283.6682E-12	-55.1745E-9	173.7720E-12
12.0000E+0	317.8798E-12	-54.9280E-9	164.6376E-12
14.0000E+0	348.7063E-12	-54.6430E-9	118.1117E-12
16.0000E+0	379.9409E-12	-54.4967E-9	228.2848E-12
18.0000E+0	416.6123E-12	-54.5310E-9	200.0944E-12
20.0000E+0	454.3657E-12	-54.3069E-9	82.7517E-12
22.0000E+0	491.7357E-12	-54.2668E-9	61.4371E-12
24.0000E+0	530.5529E-12	-54.1424E-9	56.1781E-12
26.0000E+0	556.6681E-12	-54.2859E-9	130.8490E-12
28.0000E+0	575.1130E-12	-54.3078E-9	187.3964E-12
30.0000E+0	586.1531E-12	-54.0914E-9	176.0518E-12
32.0000E+0	597.5814E-12	-54.3577E-9	163.3781E-12
34.0000E+0	609.6349E-12	-54.7131E-9	90.8235E-12
36.0000E+0	622.1572E-12	-54.8086E-9	186.9332E-12
38.0000E+0	633.7627E-12	-54.3930E-9	501.2669E-12
40.0000E+0	649.2753E-12	-55.0051E-9	195.2562E-12
42.0000E+0	663.5801E-12	-55.1432E-9	126.3832E-12
44.0000E+0	680.6549E-12	-54.9401E-9	160.8288E-12
46.0000E+0	697.8177E-12	-54.8302E-9	81.3287E-12
48.0000E+0	720.5200E-12	-54.4349E-9	122.0567E-12
50.0000E+0	753.6627E-12	-54.4653E-9	154.4253E-12
50.1000E+0	756.4310E-12	-54.3156E-9	158.0645E-12
50.2000E+0	758.9527E-12	-54.3911E-9	125.0995E-12
50.3000E+0	762.8913E-12	-54.2976E-9	192.5646E-12
50.4000E+0	764.3771E-12	-54.5868E-9	114.2090E-12
50.5000E+0	769.0380E-12	-54.5806E-9	81.0230E-12
50.6000E+0	772.7925E-12	-54.6805E-9	127.9273E-12
50.7000E+0	778.4985E-12	-54.6662E-9	113.1372E-12
50.8000E+0	783.0268E-12	-54.6478E-9	179.7940E-12
50.9000E+0	791.0052E-12	-55.0929E-9	161.9369E-12
51.0000E+0	799.4364E-12	-55.0809E-9	287.2907E-12
51.1000E+0	808.9355E-12	-54.5612E-9	511.9000E-12
51.2000E+0	821.2916E-12	-54.8650E-9	128.9809E-12
51.3000E+0	837.5570E-12	-54.7375E-9	158.2220E-12
51.4000E+0	863.7489E-12	-54.3485E-9	95.7949E-12
51.5000E+0	904.4367E-12	-54.4481E-9	156.9716E-12
51.6000E+0	989.7303E-12	-54.3154E-9	229.2537E-12
51.7000E+0	1.2024E-9	-54.1995E-9	100.0517E-12
51.8000E+0	2.0589E-9	-54.1590E-9	98.7831E-12
51.9000E+0	6.6012E-9	-54.2842E-9	164.2137E-12
52.0000E+0	22.1885E-9	-54.4410E-9	175.4947E-12
52.1000E+0	52.2182E-9	-54.4101E-9	149.2995E-12
52.2000E+0	91.8256E-9	-54.6052E-9	136.4017E-12
52.3000E+0	141.0705E-9	-54.7799E-9	176.5938E-12
52.4000E+0	197.5893E-9	-54.9257E-9	214.8360E-12
52.5000E+0	264.2931E-9	-55.0923E-9	335.7785E-12
52.6000E+0	335.3974E-9	-54.6997E-9	454.6501E-12
52.7000E+0	413.2859E-9	-54.7386E-9	298.8109E-12
52.8000E+0	486.7489E-9	-54.4595E-9	300.3520E-12
52.9000E+0	579.6579E-9	-54.6326E-9	93.6361E-12
53.0000E+0	662.7614E-9	-54.4327E-9	134.4489E-12
53.1000E+0	774.1809E-9	-54.3496E-9	146.4414E-12
53.2000E+0	873.4818E-9	-54.3555E-9	209.8525E-12
53.3000E+0	984.7071E-9	-54.3351E-9	125.1933E-12
53.4000E+0	1.0946E-6	-54.3211E-9	158.4521E-12
53.5000E+0	1.2054E-6	-54.4124E-9	170.8352E-12
53.6000E+0	1.3298E-6	-54.3777E-9	216.8585E-12
53.7000E+0	1.4670E-6	-54.4369E-9	136.8922E-12
53.8000E+0	1.5949E-6	-54.6335E-9	201.3418E-12
53.9000E+0	1.7235E-6	-54.8279E-9	82.1735E-12
54.0000E+0	1.8498E-6	-54.4429E-9	371.8288E-12
54.1000E+0	2.0118E-6	-55.2661E-9	36.9585E-12
54.2000E+0	2.1370E-6	-55.2062E-9	180.7114E-12
54.3000E+0	2.2806E-6	-54.9737E-9	121.8720E-12
54.4000E+0	2.4081E-6	-54.7933E-9	154.4616E-12
54.5000E+0	2.5561E-6	-54.4319E-9	115.0659E-12
54.6000E+0	2.7010E-6	-54.4805E-9	172.7275E-12
54.7000E+0	2.8815E-6	-54.6180E-9	186.0673E-12
54.8000E+0	3.0360E-6	-54.4609E-9	227.8943E-12
54.9000E+0	3.2010E-6	-54.4937E-9	113.1433E-12
55.0000E+0	3.3364E-6	-54.2096E-9	247.8465E-12
55.1000E+0	3.5092E-6	-54.2462E-9	194.3812E-12
55.2000E+0	3.6970E-6	-54.5173E-9	79.9996E-12
55.3000E+0	3.8340E-6	-54.6958E-9	126.1259E-12
55.4000E+0	4.0299E-6	-54.8756E-9	103.6244E-12
55.5000E+0	4.2316E-6	-54.7728E-9	258.1072E-12
55.6000E+0	4.4308E-6	-54.7615E-9	278.1260E-12
55.7000E+0	4.6431E-6	-55.3117E-9	104.7325E-12
55.8000E+0	4.8117E-6	-55.0114E-9	89.7668E-12
55.9000E+0	4.9578E-6	-54.6844E-9	147.3497E-12
56.0000E+0	5.1818E-6	-54.4617E-9	180.9445E-12
56.1000E+0	5.3714E-6	-54.4874E-9	98.0505E-12
56.2000E+0	5.5700E-6	-54.3917E-9	145.4725E-12
56.3000E+0	5.6772E-6	-54.3097E-9	118.4901E-12
56.4000E+0	5.8940E-6	-54.2944E-9	154.7493E-12
56.5000E+0	6.0969E-6	-54.3979E-9	134.8243E-12
56.6000E+0	6.3178E-6	-54.2319E-9	197.0516E-12
56.7000E+0	6.5823E-6	-54.4731E-9	152.7450E-12
56.8000E+0	6.8090E-6	-54.5839E-9	180.7598E-12
56.9000E+0	7.0216E-6	-54.6696E-9	124.3971E-12
57.0000E+0	7.2643E-6	-54.9704E-9	257.6228E-12
57.1000E+0	7.5783E-6	-55.2431E-9	232.5780E-12
57.2000E+0	7.7464E-6	-54.9733E-9	129.9922E-12
57.3000E+0	8.0438E-6	-54.8306E-9	192.1074E-12
57.4000E+0	8.2088E-6	-54.6184E-9	135.4450E-12
57.5000E+0	8.4066E-6	-54.5598E-9	128.1847E-12
57.6000E+0	8.5941E-6	-54.1952E-9	192.4253E-12
57.7000E+0	8.7761E-6	-54.2680E-9	92.1496E-12
57.8000E+0	9.0317E-6	-54.2841E-9	280.4997E-12
57.9000E+0	9.2367E-6	-54.3147E-9	79.2366E-12
58.0000E+0	9.5404E-6	-54.3817E-9	150.2835E-12
58.1000E+0	9.7797E-6	-54.2785E-9	114.3725E-12
58.2000E+0	10.0634E-6	-54.5094E-9	39.4291E-12
58.3000E+0	10.3930E-6	-54.5785E-9	55.5544E-12
58.4000E+0	10.7347E-6	-54.7936E-9	210.1008E-12
58.5000E+0	11.0026E-6	-54.7986E-9	286.9335E-12
58.6000E+0	11.3269E-6	-54.7695E-9	362.8003E-12
58.7000E+0	11.4937E-6	-55.0539E-9	156.9776E-12
58.8000E+0	11.9704E-6	-54.8668E-9	109.6857E-12
58.9000E+0	12.1436E-6	-54.6850E-9	177.6444E-12
59.0000E+0	12.4082E-6	-54.5891E-9	158.2916E-12
59.1000E+0	12.7136E-6	-54.5882E-9	191.5746E-12
59.2000E+0	13.0217E-6	-54.4509E-9	91.9982E-12
59.3000E+0	13.1907E-6	-54.2784E-9	79.7816E-12
59.4000E+0	13.6112E-6	-54.3924E-9	86.4576E-12
59.5000E+0	13.9822E-6	-54.3336E-9	199.0377E-12
59.6000E+0	14.2435E-6	-54.2803E-9	149.7809E-12
59.7000E+0	14.6353E-6	-54.5667E-9	72.8029E-12
59.8000E+0	14.8629E-6	-54.6664E-9	160.2959E-12
59.9000E+0	15.4072E-6	-54.8549E-9	196.1130E-12
60.0000E+0	15.6817E-6	-54.8762E-9	219.9527E-12
60.1000E+0	16.1378E-6	-54.8017E-9	164.9858E-12
60.2000E+0	16.4829E-6	-55.0389E-9	195.1896E-12
60.3000E+0	16.9440E-6	-54.9257E-9	111.1481E-12
60.4000E+0	17.1737E-6	-54.9746E-9	152.1818E-12
60.5000E+0	17.5734E-6	-54.4074E-9	167.3564E-12
60.6000E+0	17.6759E-6	-54.4935E-9	75.7185E-12
60.7000E+0	18.2059E-6	-54.3554E-9	86.4576E-12
60.8000E+0	18.6419E-6	-54.4791E-9	175.7218E-12
60.9000E+0	19.0200E-6	-54.3097E-9	25.2627E-12
61.0000E+0	19.3349E-6	-54.3762E-9	94.3386E-12
61.1000E+0	19.8576E-6	-54.4487E-9	45.1968E-12
61.2000E+0	20.1740E-6	-54.5354E-9	92.4221E-12
61.3000E+0	20.8740E-6	-54.5418E-9	139.2871E-12
61.4000E+0	21.2201E-6	-54.6226E-9	181.7801E-12
61.5000E+0	21.8506E-6	-54.5673E-9	369.3491E-12
61.6000E+0	22.3548E-6	-55.0899E-9	138.3697E-12
61.7000E+0	22.7450E-6	-55.1823E-9	226.7347E-12
61.8000E+0	23.4292E-6	-55.1073E-9	124.1125E-12
61.9000E+0	23.8831E-6	-54.7315E-9	160.5896E-12
62.0000E+0	24.0153E-6	-54.6421E-9	140.1590E-12
62.1000E+0	24.6052E-6	-54.4711E-9	143.0141E-12
62.2000E+0	25.0522E-6	-54.5165E-9	177.7140E-12
62.3000E+0	25.5392E-6	-54.4341E-9	112.2895E-12
62.4000E+0	26.1657E-6	-54.2726E-9	101.3294E-12
62.5000E+0	26.6453E-6	-54.0928E-9	192.6252E-12
62.6000E+0	27.4094E-6	-54.5426E-9	143.9769E-12
62.7000E+0	27.9467E-6	-54.3322E-9	135.1755E-12
62.8000E+0	28.4851E-6	-54.5435E-9	122.3837E-12
62.9000E+0	29.0405E-6	-54.6251E-9	181.6560E-12
63.0000E+0	29.3914E-6	-54.7112E-9	322.6143E-12
63.1000E+0	29.8273E-6	-54.2690E-9	514.3524E-12
63.2000E+0	30.9739E-6	-55.0868E-9	193.4426E-12
63.3000E+0	31.9390E-6	-55.1995E-9	112.2865E-12
63.4000E+0	32.1223E-6	-54.7274E-9	126.7586E-12
63.5000E+0	32.6348E-6	-54.6617E-9	200.9330E-12
63.6000E+0	33.5190E-6	-54.4657E-9	191.1416E-12
63.7000E+0	33.9750E-6	-54.3039E-9	154.6433E-12
63.8000E+0	34.7296E-6	-54.3015E-9	50.0561E-12
63.9000E+0	35.1246E-6	-54.1421E-9	117.9270E-12
