Voltage(V)	Current(A)	DiodeCurrent(A)	DiodeCurrent Std(A)
0.0000E+0	2.6659E-12	-53.4304E-9	315.3146E-12
2.0000E+0	33.7093E-12	-53.6421E-9	101.0176E-12
4.0000E+0	70.3011E-12	-53.7107E-9	43.7980E-12
6.0000E+0	181.3593E-12	-54.0236E-9	114.6844E-12
8.0000E+0	242.2895E-12	-54.1709E-9	126.4619E-12
10.0000E+0	285.8661E-12	-54.3336E-9	159.8539E-12
12.0000E+0	320.1619E-12	-54.1226E-9	203.6670E-12
14.0000E+0	352.2471E-12	-53.6553E-9	153.8864E-12
16.0000E+0	381.7000E-12	-53.6775E-9	83.3149E-12
18.0000E+0	418.4270E-12	-53.4401E-9	21.9384E-12
20.0000E+0	458.3933E-12	-53.3079E-9	112.1805E-12
22.0000E+0	496.4500E-12	-53.4634E-9	87.8291E-12
24.0000E+0	535.2870E-12	-53.2461E-9	102.5132E-12
26.0000E+0	560.9261E-12	-53.2811E-9	170.8897E-12
28.0000E+0	578.8403E-12	-53.4421E-9	118.4750E-12
30.0000E+0	590.3605E-12	-53.3271E-9	169.1003E-12
32.0000E+0	601.5744E-12	-53.4323E-9	95.3195E-12
34.0000E+0	613.4371E-12	-53.6139E-9	125.8806E-12
36.0000E+0	626.1513E-12	-53.4339E-9	293.3763E-12
38.0000E+0	640.3826E-12	-53.8612E-9	232.0755E-12
40.0000E+0	653.3672E-12	-53.9007E-9	242.1061E-12
42.0000E+0	668.5069E-12	-54.3116E-9	134.2763E-12
44.0000E+0	685.8380E-12	-53.9828E-9	138.5756E-12
46.0000E+0	704.3865E-12	-53.7778E-9	191.2355E-12
48.0000E+0	726.6074E-12	-53.5202E-9	118.5174E-12
50.0000E+0	761.4344E-12	-53.6543E-9	113.8851E-12
50.1000E+0	763.9698E-12	-53.2100E-9	252.1064E-12
50.2000E+0	766.6986E-12	-53.5125E-9	125.1964E-12
50.3000E+0	769.5566E-12	-53.4410E-9	134.7123E-12
50.4000E+0	773.1674E-12	-53.4939E-9	86.0428E-12
50.5000E+0	775.9868E-12	-53.4573E-9	82.2280E-12
50.6000E+0	781.9242E-12	-53.6814E-9	125.2206E-12
50.7000E+0	786.1405E-12	-53.4300E-9	296.8520E-12
50.8000E+0	792.2325E-12	-53.8640E-9	75.9668E-12
50.9000E+0	798.7350E-12	-53.8310E-9	235.7177E-12
51.0000E+0	806.8746E-12	-53.7419E-9	309.0353E-12
51.1000E+0	817.5617E-12	-54.1813E-9	113.4128E-12
51.2000E+0	831.3417E-12	-54.0697E-9	102.0591E-12
51.3000E+0	848.9054E-12	-53.8638E-9	77.1082E-12
51.4000E+0	874.5720E-12	-53.6945E-9	113.9032E-12
51.5000E+0	918.3857E-12	-53.6421E-9	46.7318E-12
51.6000E+0	997.9989E-12	-53.4736E-9	150.5741E-12
51.7000E+0	1.2064E-9	-53.2611E-9	80.9533E-12
51.8000E+0	2.0729E-9	-53.3816E-9	62.5180E-12
51.9000E+0	6.4851E-9	-53.4864E-9	126.0017E-12
52.0000E+0	23.3810E-9	-53.4986E-9	209.0108E-12
52.1000E+0	54.0327E-9	-53.5666E-9	210.5004E-12
52.2000E+0	95.1660E-9	-53.6956E-9	186.9120E-12
52.3000E+0	147.6536E-9	-53.7508E-9	195.7013E-12
52.4000E+0	205.4985E-9	-53.9860E-9	159.9568E-12
52.5000E+0	271.7272E-9	-53.9252E-9	138.3182E-12
52.6000E+0	351.6209E-9	-53.8313E-9	66.1875E-12
52.7000E+0	433.5014E-9	-53.7052E-9	69.5572E-12
52.8000E+0	515.9245E-9	-53.7836E-9	175.6279E-12
52.9000E+0	614.9907E-9	-53.6866E-9	203.7609E-12
53.0000E+0	716.8846E-9	-53.8635E-9	79.0913E-12
53.1000E+0	813.6134E-9	-53.8631E-9	181.3230E-12
53.2000E+0	915.5799E-9	-53.8641E-9	182.3160E-12
53.3000E+0	1.0346E-6	-53.8127E-9	98.0535E-12
53.4000E+0	1.1516E-6	-53.9865E-9	148.4215E-12
53.5000E+0	1.2880E-6	-54.0014E-9	158.6580E-12
53.6000E+0	1.4009E-6	-54.0086E-9	168.2526E-12
53.7000E+0	1.5423E-6	-54.0134E-9	128.3936E-12
53.8000E+0	1.6628E-6	-53.8709E-9	280.6359E-12
53.9000E+0	1.8152E-6	-53.6644E-9	256.6206E-12
54.0000E+0	1.9618E-6	-53.5121E-9	245.8331E-12
54.1000E+0	2.0980E-6	-53.6940E-9	94.2992E-12
54.2000E+0	2.2632E-6	-53.7898E-9	76.1727E-12
54.3000E+0	2.4095E-6	-53.5927E-9	91.8165E-12
54.4000E+0	2.5520E-6	-53.7343E-9	127.1886E-12
54.5000E+0	2.7070E-6	-53.7553E-9	94.6110E-12
54.6000E+0	2.8840E-6	-54.0548E-9	144.2161E-12
54.7000E+0	3.0514E-6	-53.8559E-9	229.2900E-12
54.8000E+0	3.2007E-6	-54.0396E-9	90.5722E-12
54.9000E+0	3.3664E-6	-53.8612E-9	117.0853E-12
55.0000E+0	3.5486E-6	-53.8267E-9	77.2596E-12
55.1000E+0	3.7098E-6	-53.8423E-9	111.0451E-12
55.2000E+0	3.8961E-6	-53.7623E-9	56.4384E-12
55.3000E+0	4.0591E-6	-53.6430E-9	104.4570E-12
55.4000E+0	4.2365E-6	-53.5906E-9	131.0276E-12
55.5000E+0	4.4006E-6	-53.4819E-9	199.7765E-12
55.6000E+0	4.6085E-6	-53.6882E-9	106.1797E-12
55.7000E+0	4.8164E-6	-53.6704E-9	64.0711E-12
55.8000E+0	5.0330E-6	-53.3111E-9	344.0743E-12
55.9000E+0	5.2397E-6	-53.8115E-9	191.5625E-12
56.0000E+0	5.4029E-6	-53.6451E-9	277.4569E-12
56.1000E+0	5.6524E-6	-54.0695E-9	124.9784E-12
56.2000E+0	5.7918E-6	-54.0347E-9	89.0099E-12
56.3000E+0	6.0942E-6	-53.8082E-9	164.9070E-12
56.4000E+0	6.2494E-6	-53.7143E-9	167.0839E-12
56.5000E+0	6.4134E-6	-53.6731E-9	85.9580E-12
56.6000E+0	6.6720E-6	-53.4202E-9	278.9132E-12
56.7000E+0	6.8543E-6	-53.7265E-9	146.2476E-12
56.8000E+0	7.1447E-6	-53.6002E-9	154.7281E-12
56.9000E+0	7.3309E-6	-53.6758E-9	166.4754E-12
57.0000E+0	7.5580E-6	-53.6787E-9	91.9709E-12
57.1000E+0	7.8380E-6	-53.7348E-9	260.0964E-12
57.2000E+0	8.1017E-6	-53.8824E-9	94.3931E-12
57.3000E+0	8.4096E-6	-53.8824E-9	143.6075E-12
57.4000E+0	8.5191E-6	-54.0259E-9	282.3284E-12
57.5000E+0	8.7147E-6	-53.8555E-9	117.1519E-12
57.6000E+0	9.0771E-6	-53.7554E-9	142.1330E-12
57.7000E+0	9.3142E-6	-53.8028E-9	119.0018E-12
57.8000E+0	9.5793E-6	-53.4964E-9	172.7759E-12
57.9000E+0	9.8778E-6	-53.5520E-9	154.3557E-12
58.0000E+0	10.1176E-6	-53.5454E-9	52.2300E-12
58.1000E+0	10.4833E-6	-53.6021E-9	135.4662E-12
58.2000E+0	10.6483E-6	-53.6106E-9	60.5500E-12
58.3000E+0	10.7875E-6	-53.4893E-9	232.8959E-12
58.4000E+0	11.1851E-6	-53.5554E-9	187.1875E-12
58.5000E+0	11.5519E-6	-53.6334E-9	340.5501E-12
58.6000E+0	11.8617E-6	-54.0011E-9	116.8552E-12
58.7000E+0	12.1429E-6	-53.6453E-9	242.4149E-12
58.8000E+0	12.4751E-6	-53.7791E-9	183.6209E-12
58.9000E+0	12.6849E-6	-53.7702E-9	59.3510E-12
59.0000E+0	12.8583E-6	-53.7128E-9	74.7224E-12
59.1000E+0	13.3903E-6	-53.6616E-9	229.3263E-12
59.2000E+0	13.6912E-6	-53.5059E-9	149.3631E-12
59.3000E+0	13.8512E-6	-53.6973E-9	104.5478E-12
59.4000E+0	14.2377E-6	-53.6647E-9	174.7287E-12
59.5000E+0	14.6725E-6	-53.6215E-9	190.0244E-12
59.6000E+0	14.9566E-6	-53.5442E-9	172.6215E-12
59.7000E+0	15.2856E-6	-53.8238E-9	181.8104E-12
59.8000E+0	15.7746E-6	-53.9072E-9	134.0280E-12
59.9000E+0	16.0169E-6	-53.8356E-9	254.1561E-12
60.0000E+0	16.4380E-6	-53.8279E-9	194.7809E-12
60.1000E+0	16.6909E-6	-53.6774E-9	80.2418E-12
60.2000E+0	17.0691E-6	-53.5276E-9	175.8490E-12
60.3000E+0	17.6023E-6	-53.7074E-9	71.9763E-12
60.4000E+0	17.9517E-6	-53.4867E-9	229.0417E-12
60.5000E+0	18.2400E-6	-53.6007E-9	109.7342E-12
60.6000E+0	18.7166E-6	-53.5078E-9	145.9327E-12
60.7000E+0	19.0871E-6	-53.4905E-9	150.0140E-12
60.8000E+0	19.5860E-6	-53.4795E-9	188.9708E-12
60.9000E+0	19.7885E-6	-53.7755E-9	105.0292E-12
61.0000E+0	20.4518E-6	-53.7642E-9	163.8746E-12
61.1000E+0	20.7068E-6	-53.6968E-9	176.2093E-12
61.2000E+0	21.2533E-6	-53.4365E-9	438.7610E-12
61.3000E+0	21.7505E-6	-53.5361E-9	489.7830E-12
61.4000E+0	22.4511E-6	-53.8179E-9	122.0567E-12
61.5000E+0	22.6195E-6	-53.3813E-9	107.7904E-12
61.6000E+0	23.1216E-6	-53.4596E-9	67.5681E-12
61.7000E+0	23.3434E-6	-53.2451E-9	115.5018E-12
61.8000E+0	23.9897E-6	-53.1899E-9	127.5912E-12
61.9000E+0	24.4254E-6	-52.9701E-9	113.0676E-12
62.0000E+0	25.0406E-6	-53.0000E-9	69.2363E-12
62.1000E+0	25.4887E-6	-53.0970E-9	114.2090E-12
62.2000E+0	25.9613E-6	-53.0382E-9	115.0961E-12
62.3000E+0	26.5731E-6	-53.2849E-9	124.8875E-12
62.4000E+0	27.1349E-6	-53.3751E-9	107.8207E-12
62.5000E+0	27.7429E-6	-53.2908E-9	122.4715E-12
62.6000E+0	28.4835E-6	-53.6537E-9	219.4168E-12
62.7000E+0	28.8331E-6	-53.3745E-9	264.3926E-12
62.8000E+0	29.7866E-6	-53.3522E-9	423.3200E-12
62.9000E+0	30.5238E-6	-53.7866E-9	195.5257E-12
63.0000E+0	30.8808E-6	-53.7936E-9	124.0489E-12
63.1000E+0	31.3515E-6	-53.7853E-9	96.6275E-12
63.2000E+0	32.0672E-6	-53.5568E-9	138.0972E-12
63.3000E+0	32.9487E-6	-53.4327E-9	99.8156E-12
63.4000E+0	33.2404E-6	-53.2683E-9	185.7645E-12
63.5000E+0	33.6753E-6	-53.3929E-9	141.0552E-12
63.6000E+0	34.5951E-6	-53.3403E-9	222.6928E-12
63.7000E+0	35.2131E-6	-53.4124E-9	121.6298E-12
63.8000E+0	36.0664E-6	-53.4877E-9	123.5463E-12
63.9000E+0	36.9618E-6	-53.4773E-9	157.3500E-12
