Voltage(V)	Current(A)	DiodeCurrent(A)	DiodeCurrent Std(A)
0.0000E+0	4.0723E-12	-26.7668E-9	85.1315E-12
2.0000E+0	33.9452E-12	-26.7541E-9	57.6071E-12
4.0000E+0	65.4778E-12	-26.5806E-9	47.1284E-12
6.0000E+0	168.0706E-12	-26.5466E-9	94.7715E-12
8.0000E+0	223.7444E-12	-26.4685E-9	46.2897E-12
10.0000E+0	262.0950E-12	-26.4554E-9	38.5602E-12
12.0000E+0	295.0024E-12	-26.4240E-9	51.0220E-12
14.0000E+0	324.4283E-12	-26.4976E-9	58.3852E-12
16.0000E+0	353.2868E-12	-26.4782E-9	45.6751E-12
18.0000E+0	384.9283E-12	-26.4183E-9	71.6312E-12
20.0000E+0	420.7069E-12	-26.4495E-9	99.0223E-12
22.0000E+0	456.1648E-12	-26.5474E-9	101.5716E-12
24.0000E+0	491.7275E-12	-26.6323E-9	119.4136E-12
26.0000E+0	515.5709E-12	-26.6725E-9	26.1165E-12
28.0000E+0	530.1209E-12	-26.8706E-9	75.2674E-12
30.0000E+0	541.0404E-12	-26.8110E-9	53.5379E-12
32.0000E+0	553.0749E-12	-26.8064E-9	162.0368E-12
34.0000E+0	562.2758E-12	-26.8502E-9	45.6085E-12
36.0000E+0	573.5151E-12	-26.6757E-9	67.6528E-12
38.0000E+0	585.2267E-12	-26.5543E-9	98.8043E-12
40.0000E+0	598.2952E-12	-26.4849E-9	53.3805E-12
42.0000E+0	610.9135E-12	-26.4018E-9	43.6920E-12
44.0000E+0	625.5421E-12	-26.4245E-9	51.8606E-12
46.0000E+0	641.0676E-12	-26.4147E-9	63.7320E-12
48.0000E+0	659.5230E-12	-26.4438E-9	100.8571E-12
50.0000E+0	685.7808E-12	-26.3827E-9	40.4555E-12
50.1000E+0	687.6003E-12	-26.4664E-9	86.9844E-12
50.2000E+0	688.4435E-12	-26.5220E-9	34.3245E-12
50.3000E+0	691.7997E-12	-26.4281E-9	20.7667E-12
50.4000E+0	693.7895E-12	-26.5984E-9	78.0014E-12
50.5000E+0	695.8714E-12	-26.7478E-9	41.5727E-12
50.6000E+0	697.8553E-12	-26.8798E-9	64.9794E-12
50.7000E+0	700.9383E-12	-26.8505E-9	82.0796E-12
50.8000E+0	705.5219E-12	-26.7881E-9	126.5649E-12
50.9000E+0	708.8836E-12	-26.7582E-9	61.8640E-12
51.0000E+0	713.8536E-12	-26.6671E-9	51.3035E-12
51.1000E+0	718.6170E-12	-26.6292E-9	56.4929E-12
51.2000E+0	728.0261E-12	-26.4792E-9	85.1799E-12
51.3000E+0	738.9793E-12	-26.4893E-9	47.8460E-12
51.4000E+0	754.7872E-12	-26.4962E-9	48.7179E-12
51.5000E+0	781.8600E-12	-26.4722E-9	63.0538E-12
51.6000E+0	841.2742E-12	-26.4433E-9	52.8204E-12
51.7000E+0	1.0307E-9	-26.3858E-9	189.0011E-12
51.8000E+0	1.8756E-9	-26.5506E-9	22.8527E-12
51.9000E+0	5.9791E-9	-26.5299E-9	59.7567E-12
52.0000E+0	17.4320E-9	-26.6544E-9	72.0914E-12
52.1000E+0	35.8351E-9	-26.7472E-9	94.5172E-12
52.2000E+0	58.3394E-9	-26.5041E-9	215.6414E-12
52.3000E+0	86.5589E-9	-26.6761E-9	221.8269E-12
52.4000E+0	118.3137E-9	-26.8780E-9	70.6684E-12
52.5000E+0	155.2169E-9	-26.7308E-9	53.3169E-12
52.6000E+0	192.0764E-9	-26.6829E-9	41.9057E-12
52.7000E+0	234.8319E-9	-26.6232E-9	50.1803E-12
52.8000E+0	282.2171E-9	-26.4670E-9	33.7644E-12
52.9000E+0	326.6971E-9	-26.5201E-9	52.7598E-12
53.0000E+0	378.9132E-9	-26.3716E-9	86.0882E-12
53.1000E+0	431.1341E-9	-26.4504E-9	31.9235E-12
53.2000E+0	489.2596E-9	-26.5261E-9	39.2989E-12
53.3000E+0	543.2408E-9	-26.5982E-9	40.5402E-12
53.4000E+0	606.2753E-9	-26.6165E-9	98.5258E-12
53.5000E+0	667.5418E-9	-26.6434E-9	29.2532E-12
53.6000E+0	743.2980E-9	-26.7228E-9	114.7177E-12
53.7000E+0	819.8524E-9	-26.6551E-9	139.9077E-12
53.8000E+0	894.8343E-9	-26.8042E-9	160.8591E-12
53.9000E+0	956.2276E-9	-26.7540E-9	46.0475E-12
54.0000E+0	1.0236E-6	-26.6062E-9	107.1909E-12
54.1000E+0	1.1048E-6	-26.7097E-9	69.4240E-12
54.2000E+0	1.1790E-6	-26.7511E-9	97.6811E-12
54.3000E+0	1.2515E-6	-26.6359E-9	88.5467E-12
54.4000E+0	1.3467E-6	-26.6647E-9	28.2268E-12
54.5000E+0	1.4216E-6	-26.6054E-9	106.7610E-12
54.6000E+0	1.5044E-6	-26.6903E-9	87.8927E-12
54.7000E+0	1.5932E-6	-26.6516E-9	33.8885E-12
54.8000E+0	1.6860E-6	-26.7053E-9	74.4923E-12
54.9000E+0	1.7669E-6	-26.7404E-9	102.0076E-12
55.0000E+0	1.8746E-6	-26.7779E-9	207.6817E-12
55.1000E+0	1.9719E-6	-26.9302E-9	107.1062E-12
55.2000E+0	2.0397E-6	-26.8368E-9	57.0833E-12
55.3000E+0	2.1582E-6	-26.7227E-9	51.1431E-12
55.4000E+0	2.2237E-6	-26.7801E-9	33.3889E-12
55.5000E+0	2.3352E-6	-26.6165E-9	107.5966E-12
55.6000E+0	2.4099E-6	-26.5697E-9	125.8564E-12
55.7000E+0	2.5593E-6	-26.6426E-9	91.0203E-12
55.8000E+0	2.6603E-6	-26.5880E-9	87.4537E-12
55.9000E+0	2.7535E-6	-26.3617E-9	189.0556E-12
56.0000E+0	2.8630E-6	-26.7421E-9	19.5253E-12
56.1000E+0	2.9382E-6	-26.5629E-9	60.6287E-12
56.2000E+0	3.0935E-6	-26.6900E-9	56.9501E-12
56.3000E+0	3.1783E-6	-26.4373E-9	307.6002E-12
56.4000E+0	3.3474E-6	-26.9062E-9	80.6445E-12
56.5000E+0	3.4420E-6	-26.8970E-9	101.5444E-12
56.6000E+0	3.5126E-6	-26.9037E-9	56.5262E-12
56.7000E+0	3.6742E-6	-26.9295E-9	101.3536E-12
56.8000E+0	3.7710E-6	-26.7651E-9	101.1689E-12
56.9000E+0	3.9155E-6	-26.6406E-9	32.3959E-12
57.0000E+0	4.0223E-6	-26.4754E-9	80.5900E-12
57.1000E+0	4.1057E-6	-26.4919E-9	84.2262E-12
57.2000E+0	4.1993E-6	-26.3725E-9	21.1118E-12
57.3000E+0	4.3570E-6	-26.2475E-9	79.2821E-12
57.4000E+0	4.4849E-6	-26.3414E-9	24.3423E-12
57.5000E+0	4.6251E-6	-26.3166E-9	65.7333E-12
57.6000E+0	4.7686E-6	-26.4282E-9	43.9918E-12
57.7000E+0	4.9129E-6	-26.4413E-9	49.4627E-12
57.8000E+0	5.0770E-6	-26.5657E-9	77.1021E-12
57.9000E+0	5.2243E-6	-26.6188E-9	55.9268E-12
58.0000E+0	5.3270E-6	-26.7038E-9	97.9324E-12
58.1000E+0	5.4797E-6	-26.8235E-9	96.1279E-12
58.2000E+0	5.6289E-6	-26.6882E-9	175.6582E-12
58.3000E+0	5.8547E-6	-26.8585E-9	96.9090E-12
58.4000E+0	6.0069E-6	-26.8097E-9	26.0862E-12
58.5000E+0	6.1260E-6	-26.6969E-9	48.3092E-12
58.6000E+0	6.2677E-6	-26.6761E-9	54.8731E-12
58.7000E+0	6.4607E-6	-26.6833E-9	43.4044E-12
58.8000E+0	6.6245E-6	-26.5393E-9	46.4835E-12
58.9000E+0	6.7638E-6	-26.6084E-9	118.6688E-12
59.0000E+0	6.9178E-6	-26.5319E-9	75.7034E-12
59.1000E+0	7.1123E-6	-26.5599E-9	28.6628E-12
59.2000E+0	7.3191E-6	-26.5792E-9	37.9607E-12
59.3000E+0	7.5057E-6	-26.5964E-9	65.2247E-12
59.4000E+0	7.6482E-6	-26.6696E-9	83.8508E-12
59.5000E+0	7.9076E-6	-26.7455E-9	52.6085E-12
59.6000E+0	8.0682E-6	-26.7626E-9	54.8156E-12
59.7000E+0	8.2349E-6	-26.8816E-9	119.6982E-12
59.8000E+0	8.5181E-6	-26.8379E-9	79.9391E-12
59.9000E+0	8.6741E-6	-26.7957E-9	51.2642E-12
60.0000E+0	8.8177E-6	-26.7568E-9	38.9537E-12
60.1000E+0	9.0528E-6	-26.7710E-9	55.0942E-12
60.2000E+0	9.2639E-6	-26.7350E-9	58.7001E-12
60.3000E+0	9.4415E-6	-26.7197E-9	71.8825E-12
60.4000E+0	9.7705E-6	-26.7076E-9	27.3881E-12
60.5000E+0	9.8763E-6	-26.7187E-9	84.5047E-12
60.6000E+0	10.0667E-6	-26.7029E-9	39.3897E-12
60.7000E+0	10.3651E-6	-26.7631E-9	96.8212E-12
60.8000E+0	10.5606E-6	-26.6771E-9	86.1518E-12
60.9000E+0	10.7976E-6	-26.6254E-9	201.6809E-12
61.0000E+0	11.1473E-6	-26.7975E-9	101.4233E-12
61.1000E+0	11.4486E-6	-26.6943E-9	78.2224E-12
61.2000E+0	11.6612E-6	-26.7923E-9	127.8123E-12
61.3000E+0	11.8930E-6	-26.7987E-9	51.6669E-12
61.4000E+0	12.1009E-6	-26.8436E-9	24.2485E-12
61.5000E+0	12.4590E-6	-26.9403E-9	59.1875E-12
61.6000E+0	12.7816E-6	-26.8642E-9	40.5372E-12
61.7000E+0	12.9657E-6	-26.8508E-9	54.5946E-12
61.8000E+0	13.3207E-6	-26.8915E-9	40.9762E-12
61.9000E+0	13.5972E-6	-26.8075E-9	71.6584E-12
62.0000E+0	13.8761E-6	-26.7728E-9	109.0620E-12
62.1000E+0	14.2627E-6	-26.7472E-9	57.6707E-12
62.2000E+0	14.4279E-6	-26.7533E-9	62.2455E-12
62.3000E+0	14.7845E-6	-26.7374E-9	66.0058E-12
62.4000E+0	15.0839E-6	-26.7317E-9	52.9142E-12
62.5000E+0	15.4780E-6	-26.7770E-9	40.7855E-12
62.6000E+0	15.7107E-6	-26.7833E-9	96.5578E-12
62.7000E+0	15.9823E-6	-26.7900E-9	96.6910E-12
62.8000E+0	16.5061E-6	-26.7326E-9	55.4030E-12
62.9000E+0	16.6859E-6	-26.7432E-9	76.3573E-12
63.0000E+0	17.0694E-6	-26.7325E-9	65.6607E-12
63.1000E+0	17.3840E-6	-26.7748E-9	45.2058E-12
63.2000E+0	17.8370E-6	-26.6077E-9	164.3772E-12
63.3000E+0	18.3776E-6	-26.8009E-9	40.7310E-12
63.4000E+0	18.6367E-6	-26.6067E-9	116.6493E-12
63.5000E+0	19.1625E-6	-26.8356E-9	45.9143E-12
63.6000E+0	19.3140E-6	-26.7584E-9	50.5436E-12
63.7000E+0	19.7369E-6	-26.7528E-9	77.2232E-12
63.8000E+0	19.9522E-6	-26.7690E-9	54.1919E-12
63.9000E+0	20.7741E-6	-26.8363E-9	51.5457E-12
