Voltage(V)	Current(A)	DiodeCurrent(A)	DiodeCurrent Std(A)
0.0000E+0	4.0099E-12	-9.2941E-9	67.4915E-12
2.0000E+0	38.7846E-12	-9.2361E-9	92.1935E-12
4.0000E+0	71.9252E-12	-9.2669E-9	98.4038E-12
6.0000E+0	187.2954E-12	-9.2945E-9	91.8441E-12
8.0000E+0	248.6970E-12	-9.2970E-9	93.2002E-12
10.0000E+0	293.4893E-12	-9.2438E-9	99.5734E-12
12.0000E+0	330.1641E-12	-9.2424E-9	106.8712E-12
14.0000E+0	362.2291E-12	-9.1897E-9	98.3305E-12
16.0000E+0	393.5309E-12	-9.2219E-9	85.4697E-12
18.0000E+0	430.1051E-12	-9.2352E-9	118.7184E-12
20.0000E+0	469.8040E-12	-9.2649E-9	108.3729E-12
22.0000E+0	510.0589E-12	-9.2555E-9	100.4038E-12
24.0000E+0	551.6249E-12	-9.2331E-9	82.4708E-12
26.0000E+0	576.6094E-12	-9.2260E-9	90.8674E-12
28.0000E+0	593.8333E-12	-9.2165E-9	85.0576E-12
30.0000E+0	607.9819E-12	-9.2255E-9	97.9430E-12
32.0000E+0	616.5146E-12	-9.2410E-9	90.1389E-12
34.0000E+0	629.7199E-12	-9.2120E-9	98.1031E-12
36.0000E+0	640.7941E-12	-9.2885E-9	54.7971E-12
38.0000E+0	654.6453E-12	-9.2931E-9	75.3903E-12
40.0000E+0	668.7267E-12	-9.2925E-9	98.5158E-12
42.0000E+0	683.1847E-12	-9.2515E-9	88.2711E-12
44.0000E+0	698.7878E-12	-9.2275E-9	103.3216E-12
46.0000E+0	717.0644E-12	-9.2342E-9	86.0092E-12
48.0000E+0	736.1980E-12	-9.2309E-9	76.9853E-12
50.0000E+0	762.1386E-12	-9.2463E-9	98.9094E-12
50.1000E+0	762.5581E-12	-9.2222E-9	92.4251E-12
50.2000E+0	765.1042E-12	-9.2729E-9	99.6206E-12
50.3000E+0	767.8546E-12	-9.1961E-9	84.3043E-12
50.4000E+0	767.4610E-12	-9.2563E-9	83.4396E-12
50.5000E+0	770.9005E-12	-9.2543E-9	88.2469E-12
50.6000E+0	772.1987E-12	-9.1687E-9	111.4908E-12
50.7000E+0	775.6247E-12	-9.1949E-9	112.3894E-12
50.8000E+0	778.9566E-12	-9.2033E-9	116.1437E-12
50.9000E+0	780.4155E-12	-9.2617E-9	104.5390E-12
51.0000E+0	785.2595E-12	-9.2832E-9	81.0299E-12
51.1000E+0	789.3434E-12	-9.2556E-9	84.7258E-12
51.2000E+0	795.2085E-12	-9.2807E-9	103.2716E-12
51.3000E+0	802.7731E-12	-9.2463E-9	101.0106E-12
51.4000E+0	814.0940E-12	-9.2366E-9	118.2522E-12
51.5000E+0	829.7717E-12	-9.2385E-9	90.5485E-12
51.6000E+0	858.7043E-12	-9.2268E-9	100.6261E-12
51.7000E+0	920.8062E-12	-9.2455E-9	90.8474E-12
51.8000E+0	1.1580E-9	-9.2568E-9	71.6727E-12
51.9000E+0	2.3654E-9	-9.2449E-9	104.4200E-12
52.0000E+0	7.5512E-9	-9.2405E-9	98.1598E-12
52.1000E+0	18.4499E-9	-9.2519E-9	105.2732E-12
52.2000E+0	34.6262E-9	-9.2323E-9	106.7138E-12
52.3000E+0	54.3169E-9	-9.2528E-9	95.0052E-12
52.4000E+0	75.8940E-9	-9.2759E-9	83.5308E-12
52.5000E+0	104.2043E-9	-9.2523E-9	102.5171E-12
52.6000E+0	129.5274E-9	-9.2716E-9	99.2809E-12
52.7000E+0	163.0226E-9	-9.2661E-9	94.9507E-12
52.8000E+0	196.5100E-9	-9.2367E-9	90.4341E-12
52.9000E+0	229.2546E-9	-9.2393E-9	62.6369E-12
53.0000E+0	266.2358E-9	-9.2543E-9	75.0461E-12
53.1000E+0	306.9111E-9	-9.2347E-9	116.9675E-12
53.2000E+0	354.0381E-9	-9.2283E-9	104.9895E-12
53.3000E+0	391.4286E-9	-9.2639E-9	117.4731E-12
53.4000E+0	433.9666E-9	-9.2266E-9	110.4693E-12
53.5000E+0	478.3401E-9	-9.2413E-9	73.9322E-12
53.6000E+0	525.8123E-9	-9.2842E-9	101.7097E-12
53.7000E+0	581.1483E-9	-9.2266E-9	99.0114E-12
53.8000E+0	631.2030E-9	-9.1988E-9	83.0763E-12
53.9000E+0	678.6160E-9	-9.3198E-9	89.5273E-12
54.0000E+0	737.9613E-9	-9.2369E-9	105.1003E-12
54.1000E+0	795.4867E-9	-9.2862E-9	82.7853E-12
54.2000E+0	847.6341E-9	-9.2746E-9	84.6180E-12
54.3000E+0	879.4467E-9	-9.3015E-9	93.8054E-12
54.4000E+0	956.1064E-9	-9.2197E-9	95.2405E-12
54.5000E+0	997.9209E-9	-9.1859E-9	102.8759E-12
54.6000E+0	1.0660E-6	-9.1986E-9	104.2447E-12
54.7000E+0	1.1293E-6	-9.2639E-9	105.2557E-12
54.8000E+0	1.1835E-6	-9.2355E-9	103.9874E-12
54.9000E+0	1.2360E-6	-9.2136E-9	100.8492E-12
55.0000E+0	1.3151E-6	-9.2637E-9	90.6560E-12
55.1000E+0	1.3821E-6	-9.2545E-9	115.1848E-12
55.2000E+0	1.4328E-6	-9.1925E-9	99.7908E-12
55.3000E+0	1.5138E-6	-9.1792E-9	113.5593E-12
55.4000E+0	1.5458E-6	-9.2137E-9	119.2703E-12
55.5000E+0	1.6267E-6	-9.2573E-9	88.6381E-12
55.6000E+0	1.7053E-6	-9.2805E-9	88.5657E-12
55.7000E+0	1.7695E-6	-9.1975E-9	99.4171E-12
55.8000E+0	1.8351E-6	-9.2295E-9	85.6298E-12
55.9000E+0	1.9291E-6	-9.2433E-9	92.9283E-12
56.0000E+0	1.9648E-6	-9.2460E-9	100.0269E-12
56.1000E+0	2.0569E-6	-9.2041E-9	94.8693E-12
56.2000E+0	2.1317E-6	-9.2366E-9	101.5332E-12
56.3000E+0	2.2196E-6	-9.1942E-9	88.5182E-12
56.4000E+0	2.2934E-6	-9.2419E-9	79.0716E-12
56.5000E+0	2.3471E-6	-9.2031E-9	102.2665E-12
56.6000E+0	2.4538E-6	-9.2009E-9	107.7395E-12
56.7000E+0	2.5298E-6	-9.2672E-9	64.5441E-12
56.8000E+0	2.5980E-6	-9.2486E-9	88.6302E-12
56.9000E+0	2.7145E-6	-9.2547E-9	72.7478E-12
57.0000E+0	2.7483E-6	-9.2526E-9	92.1256E-12
57.1000E+0	2.8529E-6	-9.2789E-9	87.7431E-12
57.2000E+0	2.9286E-6	-9.2782E-9	89.0014E-12
57.3000E+0	3.0027E-6	-9.2858E-9	94.4760E-12
57.4000E+0	3.0779E-6	-9.2922E-9	87.7988E-12
57.5000E+0	3.1673E-6	-9.2640E-9	79.8140E-12
57.6000E+0	3.2989E-6	-9.2950E-9	95.4615E-12
57.7000E+0	3.3474E-6	-9.2907E-9	127.0081E-12
57.8000E+0	3.5021E-6	-9.2520E-9	102.6613E-12
57.9000E+0	3.5426E-6	-9.2406E-9	116.4795E-12
58.0000E+0	3.6117E-6	-9.2399E-9	85.7391E-12
58.1000E+0	3.7204E-6	-9.2523E-9	103.5590E-12
58.2000E+0	3.7745E-6	-9.2339E-9	98.7789E-12
58.3000E+0	3.9718E-6	-9.2672E-9	102.9976E-12
58.4000E+0	4.0416E-6	-9.2562E-9	91.4717E-12
58.5000E+0	4.1258E-6	-9.2772E-9	103.4527E-12
58.6000E+0	4.2149E-6	-9.2534E-9	120.2359E-12
58.7000E+0	4.3141E-6	-9.2831E-9	65.5405E-12
58.8000E+0	4.4758E-6	-9.2792E-9	86.9072E-12
58.9000E+0	4.5289E-6	-9.2560E-9	74.0612E-12
59.0000E+0	4.6889E-6	-9.2562E-9	86.6326E-12
59.1000E+0	4.7612E-6	-9.2485E-9	101.7021E-12
59.2000E+0	4.8523E-6	-9.2559E-9	63.0102E-12
59.3000E+0	4.9728E-6	-9.2322E-9	88.4243E-12
59.4000E+0	5.2513E-6	-9.2361E-9	95.6989E-12
59.5000E+0	5.2249E-6	-9.2924E-9	71.0980E-12
59.6000E+0	5.2954E-6	-9.2379E-9	102.5483E-12
59.7000E+0	5.4696E-6	-9.2798E-9	111.6413E-12
59.8000E+0	5.5958E-6	-9.2542E-9	66.2326E-12
59.9000E+0	5.7154E-6	-9.2512E-9	108.0223E-12
60.0000E+0	5.8682E-6	-9.2304E-9	83.3103E-12
60.1000E+0	6.0255E-6	-9.2299E-9	119.0457E-12
60.2000E+0	6.1313E-6	-9.2619E-9	107.8606E-12
60.3000E+0	6.2021E-6	-9.2348E-9	112.6807E-12
60.4000E+0	6.4116E-6	-9.2716E-9	124.9757E-12
60.5000E+0	6.4505E-6	-9.2986E-9	92.3769E-12
60.6000E+0	6.6285E-6	-9.2745E-9	110.6303E-12
60.7000E+0	6.8459E-6	-9.2412E-9	104.8300E-12
60.8000E+0	6.9345E-6	-9.2386E-9	106.6051E-12
60.9000E+0	7.1053E-6	-9.2455E-9	94.5508E-12
61.0000E+0	7.2878E-6	-9.2769E-9	103.8614E-12
61.1000E+0	7.3189E-6	-9.2581E-9	113.6961E-12
61.2000E+0	7.6456E-6	-9.2135E-9	96.5754E-12
61.3000E+0	7.7510E-6	-9.2317E-9	114.4637E-12
61.4000E+0	8.0338E-6	-9.3175E-9	95.2632E-12
61.5000E+0	8.1302E-6	-9.2872E-9	120.7248E-12
61.6000E+0	8.2221E-6	-9.2626E-9	131.5841E-12
61.7000E+0	8.3998E-6	-9.2293E-9	97.5076E-12
61.8000E+0	8.5034E-6	-9.2192E-9	88.3717E-12
61.9000E+0	8.7246E-6	-9.2475E-9	95.7682E-12
62.0000E+0	9.0628E-6	-9.2304E-9	80.0247E-12
62.1000E+0	9.1990E-6	-9.2358E-9	105.7691E-12
62.2000E+0	9.3445E-6	-9.2272E-9	70.0317E-12
62.3000E+0	9.5252E-6	-9.2396E-9	90.7971E-12
62.4000E+0	9.7499E-6	-9.2450E-9	96.7843E-12
62.5000E+0	9.8715E-6	-9.2593E-9	108.5531E-12
62.6000E+0	10.2198E-6	-9.2177E-9	117.1210E-12
62.7000E+0	10.3457E-6	-9.2728E-9	66.6683E-12
62.8000E+0	10.6352E-6	-9.2129E-9	120.1786E-12
62.9000E+0	10.8000E-6	-9.2219E-9	108.7783E-12
63.0000E+0	11.1168E-6	-9.2125E-9	99.6070E-12
63.1000E+0	11.0428E-6	-9.2738E-9	99.2058E-12
63.2000E+0	11.4557E-6	-9.2884E-9	113.0479E-12
63.3000E+0	11.6488E-6	-9.2675E-9	83.5647E-12
63.4000E+0	12.1096E-6	-9.2272E-9	105.2090E-12
63.5000E+0	12.2938E-6	-9.3009E-9	92.1859E-12
63.6000E+0	12.7153E-6	-9.1782E-9	103.5620E-12
63.7000E+0	12.6259E-6	-9.2622E-9	110.3863E-12
63.8000E+0	13.0854E-6	-9.2703E-9	102.7736E-12
63.9000E+0	13.3016E-6	-9.2391E-9	98.2775E-12
