Voltage(V)	Current(A)	DiodeCurrent(A)	DiodeCurrent Std(A)
0.0000E+0	8.3081E-12	-32.1233E-9	27.0521E-12
2.0000E+0	37.7714E-12	-32.1553E-9	51.9212E-12
4.0000E+0	64.6824E-12	-31.9898E-9	53.9376E-12
6.0000E+0	178.1834E-12	-31.9711E-9	54.4311E-12
8.0000E+0	231.4859E-12	-31.9513E-9	93.3637E-12
10.0000E+0	272.4254E-12	-31.9575E-9	133.7828E-12
12.0000E+0	304.9621E-12	-31.9679E-9	47.4493E-12
14.0000E+0	335.5630E-12	-32.0234E-9	124.6090E-12
16.0000E+0	365.5931E-12	-32.1242E-9	53.2836E-12
18.0000E+0	398.9170E-12	-32.1794E-9	47.2556E-12
20.0000E+0	435.5188E-12	-32.1675E-9	136.8831E-12
22.0000E+0	473.6304E-12	-32.2540E-9	105.2442E-12
24.0000E+0	508.7452E-12	-32.3474E-9	71.5706E-12
26.0000E+0	532.8356E-12	-32.4266E-9	104.0936E-12
28.0000E+0	550.7017E-12	-32.1658E-9	123.5857E-12
30.0000E+0	559.4687E-12	-32.2663E-9	61.5249E-12
32.0000E+0	571.0276E-12	-32.1541E-9	41.7907E-12
34.0000E+0	582.9586E-12	-32.0827E-9	55.9903E-12
36.0000E+0	594.7954E-12	-32.0992E-9	76.7964E-12
38.0000E+0	605.8281E-12	-32.0168E-9	38.8326E-12
40.0000E+0	620.2035E-12	-31.9518E-9	90.2512E-12
42.0000E+0	634.2998E-12	-32.0311E-9	49.8654E-12
44.0000E+0	650.7485E-12	-32.1183E-9	92.7975E-12
46.0000E+0	668.3577E-12	-32.1779E-9	104.1784E-12
48.0000E+0	692.7125E-12	-32.1958E-9	94.5142E-12
50.0000E+0	731.9605E-12	-32.2927E-9	103.9362E-12
50.1000E+0	735.1870E-12	-32.2028E-9	77.9378E-12
50.2000E+0	738.9950E-12	-32.4415E-9	125.2055E-12
50.3000E+0	742.3616E-12	-32.2935E-9	196.8881E-12
50.4000E+0	746.3994E-12	-32.1470E-9	110.4608E-12
50.5000E+0	750.5931E-12	-32.2386E-9	65.2519E-12
50.6000E+0	756.5081E-12	-32.0571E-9	68.0586E-12
50.7000E+0	761.9509E-12	-31.9829E-9	84.2171E-12
50.8000E+0	770.3031E-12	-31.9397E-9	121.0091E-12
50.9000E+0	778.3777E-12	-31.9435E-9	98.3381E-12
51.0000E+0	789.7314E-12	-32.0310E-9	53.7832E-12
51.1000E+0	804.2339E-12	-31.9157E-9	126.2258E-12
51.2000E+0	821.0912E-12	-32.0865E-9	171.0562E-12
51.3000E+0	848.9790E-12	-32.0677E-9	113.5399E-12
51.4000E+0	884.8481E-12	-32.2089E-9	98.9981E-12
51.5000E+0	950.9739E-12	-32.1071E-9	251.4585E-12
51.6000E+0	1.0823E-9	-32.3271E-9	67.5560E-12
51.7000E+0	1.4540E-9	-32.3619E-9	91.7772E-12
51.8000E+0	3.1366E-9	-32.1713E-9	125.7595E-12
51.9000E+0	11.7940E-9	-32.2210E-9	136.6772E-12
52.0000E+0	38.3471E-9	-32.1844E-9	57.6404E-12
52.1000E+0	82.7430E-9	-32.1120E-9	108.6593E-12
52.2000E+0	140.1008E-9	-32.0877E-9	67.5953E-12
52.3000E+0	209.0093E-9	-32.0021E-9	49.3991E-12
52.4000E+0	286.5310E-9	-32.0644E-9	60.2200E-12
52.5000E+0	379.0200E-9	-31.9534E-9	126.6618E-12
52.6000E+0	479.7233E-9	-32.0451E-9	107.1031E-12
52.7000E+0	577.5105E-9	-32.0074E-9	87.9865E-12
52.8000E+0	698.9729E-9	-32.0883E-9	99.1767E-12
52.9000E+0	813.9602E-9	-32.1697E-9	131.7906E-12
53.0000E+0	939.7691E-9	-32.3995E-9	70.3172E-12
53.1000E+0	1.0847E-6	-32.5375E-9	178.4860E-12
53.2000E+0	1.2333E-6	-32.0873E-9	177.3900E-12
53.3000E+0	1.3573E-6	-32.1730E-9	83.5631E-12
53.4000E+0	1.5049E-6	-32.2181E-9	48.0367E-12
53.5000E+0	1.6741E-6	-32.1237E-9	88.5830E-12
53.6000E+0	1.8200E-6	-32.0539E-9	51.5427E-12
53.7000E+0	2.0015E-6	-32.0276E-9	110.0611E-12
53.8000E+0	2.1503E-6	-32.0400E-9	46.9195E-12
53.9000E+0	2.3435E-6	-32.0096E-9	61.7096E-12
54.0000E+0	2.4881E-6	-31.9922E-9	81.1471E-12
54.1000E+0	2.6867E-6	-32.1142E-9	109.2770E-12
54.2000E+0	2.8667E-6	-32.1549E-9	149.8869E-12
54.3000E+0	3.0790E-6	-32.1008E-9	90.2240E-12
54.4000E+0	3.2430E-6	-32.2422E-9	80.4326E-12
54.5000E+0	3.4334E-6	-32.1245E-9	179.7637E-12
54.6000E+0	3.6288E-6	-32.2179E-9	83.8811E-12
54.7000E+0	3.8562E-6	-32.4926E-9	164.5891E-12
54.8000E+0	4.0752E-6	-32.3983E-9	127.7487E-12
54.9000E+0	4.2640E-6	-32.3293E-9	30.6852E-12
55.0000E+0	4.4274E-6	-32.1319E-9	123.3071E-12
55.1000E+0	4.6240E-6	-32.0399E-9	62.7814E-12
55.2000E+0	4.8186E-6	-32.0294E-9	87.9472E-12
55.3000E+0	5.0604E-6	-31.9266E-9	10.7603E-12
55.4000E+0	5.2520E-6	-31.9516E-9	38.9204E-12
55.5000E+0	5.4504E-6	-32.0756E-9	142.9505E-12
55.6000E+0	5.6457E-6	-32.0736E-9	80.1177E-12
55.7000E+0	5.9099E-6	-31.9790E-9	42.3387E-12
55.8000E+0	6.1595E-6	-31.8906E-9	149.5417E-12
55.9000E+0	6.4531E-6	-32.1887E-9	57.8009E-12
56.0000E+0	6.7150E-6	-32.2547E-9	78.9702E-12
56.1000E+0	6.8670E-6	-32.4027E-9	46.8832E-12
56.2000E+0	7.2065E-6	-32.4457E-9	106.9154E-12
56.3000E+0	7.4505E-6	-32.3431E-9	46.7590E-12
56.4000E+0	7.6113E-6	-32.1495E-9	66.3752E-12
56.5000E+0	7.8862E-6	-32.0988E-9	47.8793E-12
56.6000E+0	8.1430E-6	-32.0471E-9	71.7856E-12
56.7000E+0	8.3583E-6	-32.0703E-9	44.8274E-12
56.8000E+0	8.5866E-6	-32.0038E-9	60.4682E-12
56.9000E+0	8.9141E-6	-32.0185E-9	67.3682E-12
57.0000E+0	9.1792E-6	-31.9579E-9	108.1598E-12
57.1000E+0	9.4201E-6	-32.1377E-9	24.2515E-12
57.2000E+0	9.6412E-6	-32.1255E-9	98.1201E-12
57.3000E+0	10.0152E-6	-32.1929E-9	103.3125E-12
57.4000E+0	10.3673E-6	-32.2219E-9	123.6492E-12
57.5000E+0	10.6270E-6	-32.2925E-9	162.7574E-12
57.6000E+0	10.8074E-6	-32.3510E-9	197.7570E-12
57.7000E+0	11.1679E-6	-32.3621E-9	159.2393E-12
57.8000E+0	11.5212E-6	-32.3228E-9	52.0544E-12
57.9000E+0	11.7173E-6	-32.1067E-9	71.2891E-12
58.0000E+0	11.9237E-6	-32.1175E-9	54.3796E-12
58.1000E+0	12.2619E-6	-32.0353E-9	117.7060E-12
58.2000E+0	12.4817E-6	-31.9677E-9	48.3122E-12
58.3000E+0	12.8716E-6	-31.8932E-9	95.4679E-12
58.4000E+0	13.2285E-6	-31.9502E-9	23.1706E-12
58.5000E+0	13.4790E-6	-31.8747E-9	66.0361E-12
58.6000E+0	13.7857E-6	-31.9648E-9	111.1450E-12
58.7000E+0	14.1419E-6	-32.0744E-9	29.5408E-12
58.8000E+0	14.3603E-6	-32.0786E-9	81.8889E-12
58.9000E+0	14.8505E-6	-32.2229E-9	94.6353E-12
59.0000E+0	15.3205E-6	-32.3487E-9	151.0010E-12
59.1000E+0	15.6466E-6	-32.4565E-9	55.7814E-12
59.2000E+0	15.8855E-6	-32.3033E-9	161.2103E-12
59.3000E+0	16.2020E-6	-32.3401E-9	17.5634E-12
59.4000E+0	16.6547E-6	-32.2287E-9	68.5521E-12
59.5000E+0	16.9791E-6	-32.1214E-9	87.2690E-12
59.6000E+0	17.3822E-6	-32.0998E-9	144.3190E-12
59.7000E+0	17.6541E-6	-32.0330E-9	38.8932E-12
59.8000E+0	18.0128E-6	-31.9908E-9	64.5768E-12
59.9000E+0	18.4036E-6	-32.0314E-9	94.5808E-12
60.0000E+0	18.7884E-6	-32.0990E-9	71.4768E-12
60.1000E+0	19.2486E-6	-32.0862E-9	58.5093E-12
60.2000E+0	19.5552E-6	-32.0592E-9	121.5935E-12
60.3000E+0	19.9605E-6	-32.0859E-9	85.5614E-12
60.4000E+0	20.5333E-6	-32.2731E-9	63.3627E-12
60.5000E+0	20.8358E-6	-32.1131E-9	250.5926E-12
60.6000E+0	20.9601E-6	-32.3185E-9	143.9829E-12
60.7000E+0	22.0094E-6	-32.4238E-9	149.7324E-12
60.8000E+0	22.3439E-6	-32.1936E-9	97.8446E-12
60.9000E+0	22.6573E-6	-32.1628E-9	34.1095E-12
61.0000E+0	23.0610E-6	-32.0931E-9	90.7205E-12
61.1000E+0	23.6271E-6	-31.9963E-9	48.9632E-12
61.2000E+0	24.0387E-6	-32.0637E-9	96.0431E-12
61.3000E+0	24.4846E-6	-31.9570E-9	94.0479E-12
61.4000E+0	24.7577E-6	-32.0336E-9	102.4133E-12
61.5000E+0	25.7096E-6	-31.9102E-9	151.5369E-12
61.6000E+0	25.8457E-6	-31.9660E-9	96.5064E-12
61.7000E+0	26.6051E-6	-32.0675E-9	77.0053E-12
61.8000E+0	27.3764E-6	-31.7753E-9	241.1402E-12
61.9000E+0	27.3153E-6	-32.2062E-9	128.9264E-12
62.0000E+0	28.1318E-6	-31.9473E-9	301.4208E-12
62.1000E+0	28.5766E-6	-32.3536E-9	151.2947E-12
62.2000E+0	29.5972E-6	-32.3678E-9	88.9251E-12
62.3000E+0	30.2433E-6	-32.2444E-9	60.4773E-12
62.4000E+0	30.5967E-6	-32.1668E-9	107.9176E-12
62.5000E+0	31.1775E-6	-32.1341E-9	75.1463E-12
62.6000E+0	31.7361E-6	-32.0675E-9	58.3882E-12
62.7000E+0	32.5051E-6	-31.9817E-9	91.2504E-12
62.8000E+0	32.6251E-6	-32.0523E-9	90.8749E-12
62.9000E+0	33.7740E-6	-31.9713E-9	83.3906E-12
63.0000E+0	34.3317E-6	-32.0410E-9	111.4599E-12
63.1000E+0	35.0070E-6	-31.9884E-9	117.2034E-12
63.2000E+0	35.6607E-6	-32.0101E-9	118.0420E-12
63.3000E+0	36.3775E-6	-32.2813E-9	69.8570E-12
63.4000E+0	37.6734E-6	-32.3062E-9	83.8175E-12
63.5000E+0	37.9400E-6	-32.3334E-9	94.3537E-12
63.6000E+0	38.4566E-6	-32.3261E-9	111.2419E-12
63.7000E+0	39.2492E-6	-32.2559E-9	174.9407E-12
63.8000E+0	40.0779E-6	-32.1700E-9	84.1838E-12
63.9000E+0	40.4082E-6	-32.1028E-9	100.8541E-12
