Voltage(V)	Current(A)	DiodeCurrent(A)	DiodeCurrent Std(A)
0.0000E+0	2.5784E-12	-48.4323E-9	363.4815E-12
2.0000E+0	42.6588E-12	-48.9761E-9	95.2045E-12
4.0000E+0	73.5141E-12	-48.9414E-9	87.9896E-12
6.0000E+0	190.3006E-12	-48.9518E-9	237.3648E-12
8.0000E+0	248.5359E-12	-48.6096E-9	154.1135E-12
10.0000E+0	291.8025E-12	-48.5378E-9	52.6660E-12
12.0000E+0	327.4971E-12	-48.5083E-9	114.6541E-12
14.0000E+0	359.6367E-12	-48.4835E-9	175.0648E-12
16.0000E+0	391.9581E-12	-48.5255E-9	122.3383E-12
18.0000E+0	426.0218E-12	-48.4993E-9	79.2518E-12
20.0000E+0	467.3699E-12	-48.6384E-9	153.1719E-12
22.0000E+0	505.7160E-12	-48.5689E-9	239.1511E-12
24.0000E+0	544.0954E-12	-48.5326E-9	117.0005E-12
26.0000E+0	570.5600E-12	-48.6727E-9	238.4184E-12
28.0000E+0	587.4708E-12	-48.5487E-9	69.5724E-12
30.0000E+0	600.4552E-12	-48.8750E-9	335.4243E-12
32.0000E+0	610.4223E-12	-48.9654E-9	141.6062E-12
34.0000E+0	622.1574E-12	-48.8636E-9	127.0977E-12
36.0000E+0	635.5077E-12	-48.6379E-9	215.4930E-12
38.0000E+0	648.9643E-12	-48.5924E-9	204.8417E-12
40.0000E+0	664.1702E-12	-48.4672E-9	107.0426E-12
42.0000E+0	680.9548E-12	-48.4440E-9	97.5388E-12
44.0000E+0	700.9202E-12	-48.2650E-9	73.6294E-12
46.0000E+0	723.0961E-12	-48.4128E-9	227.3584E-12
48.0000E+0	756.1462E-12	-48.3349E-9	195.1835E-12
50.0000E+0	819.5185E-12	-48.6128E-9	260.6353E-12
50.1000E+0	823.8554E-12	-48.6203E-9	224.1218E-12
50.2000E+0	831.1588E-12	-48.5218E-9	116.4434E-12
50.3000E+0	838.0437E-12	-48.6765E-9	72.7847E-12
50.4000E+0	846.4914E-12	-48.6380E-9	198.8742E-12
50.5000E+0	855.7929E-12	-48.9049E-9	144.6430E-12
50.6000E+0	867.1537E-12	-48.4353E-9	323.8314E-12
50.7000E+0	879.4851E-12	-48.9323E-9	174.5713E-12
50.8000E+0	894.4047E-12	-48.6672E-9	96.1067E-12
50.9000E+0	912.3032E-12	-48.6997E-9	228.2424E-12
51.0000E+0	932.5112E-12	-48.6906E-9	214.3395E-12
51.1000E+0	957.8647E-12	-48.5222E-9	90.9415E-12
51.2000E+0	993.2197E-12	-48.6462E-9	255.6881E-12
51.3000E+0	1.0407E-9	-48.6998E-9	227.7066E-12
51.4000E+0	1.1092E-9	-48.5891E-9	185.7918E-12
51.5000E+0	1.2223E-9	-48.6246E-9	156.4478E-12
51.6000E+0	1.4352E-9	-48.4613E-9	93.0306E-12
51.7000E+0	1.9569E-9	-48.3333E-9	333.0627E-12
51.8000E+0	3.8400E-9	-48.7403E-9	211.6267E-12
51.9000E+0	14.1894E-9	-48.5440E-9	429.2905E-12
52.0000E+0	53.4867E-9	-48.9290E-9	227.2009E-12
52.1000E+0	136.0198E-9	-48.9708E-9	180.9142E-12
52.2000E+0	252.2620E-9	-48.8342E-9	92.9398E-12
52.3000E+0	391.3777E-9	-48.6953E-9	103.6849E-12
52.4000E+0	548.5131E-9	-48.6284E-9	131.0428E-12
52.5000E+0	733.6860E-9	-48.4006E-9	85.9399E-12
52.6000E+0	935.1984E-9	-48.4022E-9	69.7995E-12
52.7000E+0	1.1460E-6	-48.2160E-9	84.7227E-12
52.8000E+0	1.3675E-6	-48.3394E-9	97.5236E-12
52.9000E+0	1.6105E-6	-48.2356E-9	204.8599E-12
53.0000E+0	1.8779E-6	-48.4470E-9	182.6945E-12
53.1000E+0	2.1516E-6	-48.4818E-9	146.7865E-12
53.2000E+0	2.4196E-6	-48.2957E-9	118.5446E-12
53.3000E+0	2.7364E-6	-48.5354E-9	72.9664E-12
53.4000E+0	3.0436E-6	-48.6347E-9	160.6047E-12
53.5000E+0	3.3469E-6	-48.4433E-9	381.9653E-12
53.6000E+0	3.6525E-6	-48.8842E-9	36.0078E-12
53.7000E+0	4.0033E-6	-48.8896E-9	199.6917E-12
53.8000E+0	4.3174E-6	-48.7387E-9	101.9773E-12
53.9000E+0	4.6578E-6	-48.7252E-9	326.5684E-12
54.0000E+0	5.0006E-6	-48.5644E-9	74.6861E-12
54.1000E+0	5.3330E-6	-48.6007E-9	139.6867E-12
54.2000E+0	5.7403E-6	-48.4056E-9	109.5919E-12
54.3000E+0	6.0039E-6	-48.6329E-9	123.5978E-12
54.4000E+0	6.4087E-6	-48.6077E-9	70.7289E-12
54.5000E+0	6.7371E-6	-48.6190E-9	73.9988E-12
54.6000E+0	7.2286E-6	-48.4952E-9	298.1570E-12
54.7000E+0	7.5269E-6	-48.6465E-9	162.1821E-12
54.8000E+0	7.9565E-6	-48.7113E-9	284.5022E-12
54.9000E+0	8.3047E-6	-48.8374E-9	157.8102E-12
55.0000E+0	8.7123E-6	-48.9370E-9	106.4159E-12
55.1000E+0	9.1961E-6	-49.0312E-9	116.6947E-12
55.2000E+0	9.5604E-6	-48.8221E-9	60.4501E-12
55.3000E+0	9.9611E-6	-48.8541E-9	71.0468E-12
55.4000E+0	10.3234E-6	-48.5610E-9	72.0217E-12
55.5000E+0	10.7246E-6	-48.4258E-9	97.9384E-12
55.6000E+0	11.1124E-6	-48.5986E-9	217.1401E-12
55.7000E+0	11.4983E-6	-48.4756E-9	208.8292E-12
55.8000E+0	12.0105E-6	-48.3605E-9	106.8246E-12
55.9000E+0	12.3422E-6	-48.4123E-9	155.0127E-12
56.0000E+0	12.8561E-6	-48.4761E-9	177.1145E-12
56.1000E+0	13.2437E-6	-48.3630E-9	89.1704E-12
56.2000E+0	13.6338E-6	-48.3908E-9	82.7275E-12
56.3000E+0	14.1101E-6	-48.4196E-9	446.8872E-12
56.4000E+0	14.6721E-6	-48.6536E-9	287.0455E-12
56.5000E+0	15.0680E-6	-48.7102E-9	127.5277E-12
56.6000E+0	15.3623E-6	-48.7978E-9	191.8228E-12
56.7000E+0	15.9446E-6	-48.9203E-9	81.2652E-12
56.8000E+0	16.6208E-6	-48.7902E-9	188.8376E-12
56.9000E+0	16.7771E-6	-48.7256E-9	155.4396E-12
57.0000E+0	17.4525E-6	-48.5787E-9	211.1604E-12
57.1000E+0	17.7878E-6	-48.5344E-9	106.1373E-12
57.2000E+0	18.2013E-6	-48.3244E-9	105.5711E-12
57.3000E+0	18.8273E-6	-48.5299E-9	237.7099E-12
57.4000E+0	19.3221E-6	-48.4177E-9	103.1339E-12
57.5000E+0	19.6926E-6	-48.4667E-9	234.4764E-12
57.6000E+0	20.2555E-6	-48.4939E-9	204.1393E-12
57.7000E+0	20.7260E-6	-48.3494E-9	202.5861E-12
57.8000E+0	21.2409E-6	-48.6315E-9	24.2757E-12
57.9000E+0	21.8386E-6	-48.6347E-9	89.7305E-12
58.0000E+0	22.4248E-6	-48.6059E-9	311.8995E-12
58.1000E+0	23.0442E-6	-48.8342E-9	271.7589E-12
58.2000E+0	23.6233E-6	-48.8018E-9	179.7001E-12
58.3000E+0	24.0264E-6	-48.8127E-9	67.7013E-12
58.4000E+0	24.6560E-6	-48.7194E-9	63.9743E-12
58.5000E+0	24.9066E-6	-48.7023E-9	157.5589E-12
58.6000E+0	25.5913E-6	-48.5661E-9	226.2170E-12
58.7000E+0	25.8372E-6	-48.3733E-9	82.2885E-12
58.8000E+0	26.5226E-6	-48.3493E-9	62.2727E-12
58.9000E+0	27.1763E-6	-48.3683E-9	238.0641E-12
59.0000E+0	27.7063E-6	-48.6023E-9	224.0098E-12
59.1000E+0	28.2542E-6	-48.3532E-9	93.1487E-12
59.2000E+0	28.8028E-6	-48.2412E-9	273.2182E-12
59.3000E+0	29.4747E-6	-48.3874E-9	121.4239E-12
59.4000E+0	30.2008E-6	-48.5570E-9	218.7477E-12
59.5000E+0	30.9689E-6	-48.7717E-9	198.3323E-12
59.6000E+0	31.6157E-6	-48.7196E-9	110.9725E-12
59.7000E+0	32.0774E-6	-48.8613E-9	227.9609E-12
59.8000E+0	33.1758E-6	-48.8140E-9	189.0586E-12
59.9000E+0	33.5294E-6	-48.7328E-9	226.8921E-12
60.0000E+0	34.1310E-6	-48.7103E-9	92.8671E-12
60.1000E+0	34.7323E-6	-48.7034E-9	135.9718E-12
60.2000E+0	35.1936E-6	-48.7053E-9	178.9735E-12
60.3000E+0	36.2621E-6	-48.4699E-9	136.3896E-12
60.4000E+0	36.5464E-6	-48.2804E-9	276.4881E-12
60.5000E+0	37.4844E-6	-48.3559E-9	129.2655E-12
60.6000E+0	37.8985E-6	-48.6426E-9	142.7355E-12
60.7000E+0	39.0724E-6	-48.4493E-9	227.7035E-12
60.8000E+0	39.5567E-6	-48.5951E-9	52.2663E-12
60.9000E+0	40.2922E-6	-48.5601E-9	248.9940E-12
61.0000E+0	41.5364E-6	-48.6669E-9	97.2512E-12
61.1000E+0	41.8592E-6	-48.8604E-9	264.7287E-12
61.2000E+0	42.5587E-6	-49.0803E-9	64.5404E-12
61.3000E+0	43.7304E-6	-48.8422E-9	160.3232E-12
61.4000E+0	44.0201E-6	-48.8681E-9	85.9005E-12
61.5000E+0	45.1438E-6	-48.8084E-9	156.2268E-12
61.6000E+0	46.0274E-6	-48.7018E-9	198.9469E-12
61.7000E+0	46.6912E-6	-48.5122E-9	132.2932E-12
61.8000E+0	47.3686E-6	-48.5187E-9	142.9868E-12
61.9000E+0	48.7836E-6	-48.3221E-9	108.7017E-12
62.0000E+0	49.0379E-6	-48.3214E-9	107.1576E-12
62.1000E+0	50.2955E-6	-48.3705E-9	190.7329E-12
62.2000E+0	50.9934E-6	-48.5553E-9	191.8016E-12
62.3000E+0	52.2768E-6	-48.6724E-9	203.2946E-12
62.4000E+0	53.0000E-6	-48.5255E-9	144.5461E-12
62.5000E+0	54.1203E-6	-48.4237E-9	273.0547E-12
62.6000E+0	55.0527E-6	-48.5711E-9	260.6323E-12
62.7000E+0	56.1904E-6	-48.5230E-9	421.5700E-12
62.8000E+0	56.8102E-6	-48.9761E-9	200.4062E-12
62.9000E+0	58.5139E-6	-48.9685E-9	210.4762E-12
63.0000E+0	59.0569E-6	-48.6840E-9	60.2563E-12
63.1000E+0	60.3002E-6	-48.7097E-9	111.1087E-12
63.2000E+0	61.3245E-6	-48.6204E-9	108.0326E-12
63.3000E+0	62.2856E-6	-48.4734E-9	73.9049E-12
63.4000E+0	63.5970E-6	-48.4113E-9	142.6780E-12
63.5000E+0	64.3985E-6	-48.3625E-9	102.1317E-12
63.6000E+0	65.3814E-6	-48.3392E-9	108.4807E-12
63.7000E+0	66.8503E-6	-48.4678E-9	55.9268E-12
63.8000E+0	67.7810E-6	-48.3078E-9	281.7683E-12
63.9000E+0	69.2040E-6	-48.3611E-9	255.4913E-12
