Voltage(V)	Current(A)	DiodeCurrent(A)	DiodeCurrent Std(A)
0.0000E+0	2.2031E-12	-40.0943E-9	150.5348E-12
2.0000E+0	37.6773E-12	-40.2710E-9	109.2740E-12
4.0000E+0	69.8096E-12	-40.4452E-9	73.0966E-12
6.0000E+0	184.9015E-12	-40.1540E-9	294.3633E-12
8.0000E+0	240.8514E-12	-40.6310E-9	67.4076E-12
10.0000E+0	281.4332E-12	-40.4802E-9	75.7306E-12
12.0000E+0	316.5866E-12	-40.4263E-9	143.2624E-12
14.0000E+0	347.2618E-12	-40.4388E-9	154.3587E-12
16.0000E+0	376.8926E-12	-40.2804E-9	113.6277E-12
18.0000E+0	411.8087E-12	-40.2483E-9	95.8887E-12
20.0000E+0	451.2732E-12	-40.0460E-9	114.1303E-12
22.0000E+0	489.2909E-12	-40.1633E-9	129.8075E-12
24.0000E+0	527.2599E-12	-40.1627E-9	114.4089E-12
26.0000E+0	553.2123E-12	-40.2170E-9	212.1444E-12
28.0000E+0	568.4048E-12	-40.2247E-9	47.2253E-12
30.0000E+0	580.7991E-12	-40.3066E-9	162.7786E-12
32.0000E+0	590.2702E-12	-40.3857E-9	83.3875E-12
34.0000E+0	602.5044E-12	-40.3833E-9	236.9742E-12
36.0000E+0	615.5447E-12	-40.4369E-9	150.0231E-12
38.0000E+0	627.9420E-12	-40.7432E-9	88.3801E-12
40.0000E+0	642.8532E-12	-40.4985E-9	109.9673E-12
42.0000E+0	656.7059E-12	-40.3873E-9	112.4954E-12
44.0000E+0	676.3601E-12	-40.2140E-9	87.6323E-12
46.0000E+0	696.7114E-12	-40.1218E-9	65.3427E-12
48.0000E+0	723.6103E-12	-40.1646E-9	173.9476E-12
50.0000E+0	775.5532E-12	-40.1527E-9	189.3704E-12
50.1000E+0	780.4729E-12	-40.2179E-9	88.2439E-12
50.2000E+0	786.0658E-12	-40.0036E-9	281.2687E-12
50.3000E+0	790.2109E-12	-40.0570E-9	189.5642E-12
50.4000E+0	797.4963E-12	-40.4263E-9	162.9481E-12
50.5000E+0	805.3907E-12	-40.4908E-9	218.6599E-12
50.6000E+0	813.7370E-12	-40.3900E-9	197.5663E-12
50.7000E+0	821.7966E-12	-40.5163E-9	199.1649E-12
50.8000E+0	832.1820E-12	-40.4385E-9	154.2073E-12
50.9000E+0	847.8601E-12	-40.6215E-9	81.7980E-12
51.0000E+0	862.5987E-12	-40.3012E-9	162.4183E-12
51.1000E+0	884.8680E-12	-40.2860E-9	75.9577E-12
51.2000E+0	909.0793E-12	-40.0750E-9	90.1210E-12
51.3000E+0	946.3177E-12	-40.1223E-9	157.5650E-12
51.4000E+0	1.0009E-9	-39.9573E-9	65.0793E-12
51.5000E+0	1.0972E-9	-39.9548E-9	128.9658E-12
51.6000E+0	1.2703E-9	-40.0164E-9	135.8961E-12
51.7000E+0	1.7393E-9	-40.0899E-9	83.6903E-12
51.8000E+0	3.6330E-9	-40.0993E-9	124.6998E-12
51.9000E+0	14.0789E-9	-40.2996E-9	129.6198E-12
52.0000E+0	48.7534E-9	-40.2952E-9	140.6495E-12
52.1000E+0	114.5034E-9	-40.3023E-9	329.3993E-12
52.2000E+0	202.6410E-9	-40.4812E-9	110.0581E-12
52.3000E+0	307.5281E-9	-40.6240E-9	96.1915E-12
52.4000E+0	433.9439E-9	-40.4639E-9	139.1538E-12
52.5000E+0	568.2883E-9	-40.4560E-9	101.5020E-12
52.6000E+0	731.5522E-9	-40.3925E-9	75.3552E-12
52.7000E+0	891.2551E-9	-40.3560E-9	124.4243E-12
52.8000E+0	1.0532E-6	-40.1494E-9	61.9578E-12
52.9000E+0	1.2426E-6	-40.0946E-9	167.1808E-12
53.0000E+0	1.4294E-6	-40.2355E-9	115.3171E-12
53.1000E+0	1.6397E-6	-40.0857E-9	157.0321E-12
53.2000E+0	1.8668E-6	-40.2905E-9	129.5229E-12
53.3000E+0	2.0755E-6	-40.3184E-9	126.1077E-12
53.4000E+0	2.3122E-6	-40.3433E-9	107.6632E-12
53.5000E+0	2.5674E-6	-40.4592E-9	88.0441E-12
53.6000E+0	2.7802E-6	-40.4860E-9	128.7084E-12
53.7000E+0	3.0470E-6	-40.6310E-9	129.0869E-12
53.8000E+0	3.3142E-6	-40.7310E-9	214.1487E-12
53.9000E+0	3.5516E-6	-40.5679E-9	213.8732E-12
54.0000E+0	3.8388E-6	-40.2997E-9	152.9296E-12
54.1000E+0	4.1039E-6	-40.2063E-9	67.8981E-12
54.2000E+0	4.3472E-6	-40.1492E-9	118.1450E-12
54.3000E+0	4.6010E-6	-39.9882E-9	82.9697E-12
54.4000E+0	4.9014E-6	-40.1507E-9	65.4033E-12
54.5000E+0	5.1896E-6	-40.0971E-9	84.9377E-12
54.6000E+0	5.4643E-6	-40.2066E-9	160.8258E-12
54.7000E+0	5.7624E-6	-40.3361E-9	83.3482E-12
54.8000E+0	6.0676E-6	-40.3336E-9	157.2229E-12
54.9000E+0	6.3608E-6	-40.4421E-9	200.4062E-12
55.0000E+0	6.7367E-6	-40.3445E-9	164.7435E-12
55.1000E+0	6.9913E-6	-40.6116E-9	131.5938E-12
55.2000E+0	7.3386E-6	-40.2364E-9	214.3576E-12
55.3000E+0	7.6656E-6	-40.4034E-9	192.2407E-12
55.4000E+0	7.9777E-6	-40.3566E-9	137.9852E-12
55.5000E+0	8.2301E-6	-40.3955E-9	155.8604E-12
55.6000E+0	8.5365E-6	-40.2676E-9	92.1496E-12
55.7000E+0	8.8831E-6	-40.2168E-9	162.6272E-12
55.8000E+0	9.2633E-6	-40.0741E-9	192.3648E-12
55.9000E+0	9.5682E-6	-40.1451E-9	149.6053E-12
56.0000E+0	9.8500E-6	-40.0110E-9	46.8226E-12
56.1000E+0	10.2856E-6	-40.1043E-9	73.1601E-12
56.2000E+0	10.5849E-6	-40.1296E-9	146.9743E-12
56.3000E+0	10.8500E-6	-40.3746E-9	133.1591E-12
56.4000E+0	11.2192E-6	-40.3451E-9	169.9632E-12
56.5000E+0	11.6801E-6	-40.3187E-9	179.3822E-12
56.6000E+0	11.8416E-6	-40.5709E-9	169.9087E-12
56.7000E+0	12.4284E-6	-40.6243E-9	230.5980E-12
56.8000E+0	12.7484E-6	-40.5083E-9	82.6639E-12
56.9000E+0	13.1893E-6	-40.2532E-9	37.6064E-12
57.0000E+0	13.6016E-6	-40.4011E-9	193.7938E-12
57.1000E+0	13.7728E-6	-40.2609E-9	86.1518E-12
57.2000E+0	14.2298E-6	-40.1501E-9	77.1657E-12
57.3000E+0	14.5007E-6	-40.1781E-9	66.3449E-12
57.4000E+0	15.0305E-6	-40.1395E-9	140.7736E-12
57.5000E+0	15.3688E-6	-40.0518E-9	113.9698E-12
57.6000E+0	15.7838E-6	-40.1211E-9	82.5186E-12
57.7000E+0	16.3118E-6	-40.3280E-9	195.9465E-12
57.8000E+0	16.6450E-6	-40.1381E-9	229.8441E-12
57.9000E+0	16.8457E-6	-40.3396E-9	162.8240E-12
58.0000E+0	17.4903E-6	-40.5471E-9	93.0851E-12
58.1000E+0	17.8584E-6	-40.6014E-9	117.6515E-12
58.2000E+0	18.4542E-6	-40.5409E-9	102.0621E-12
58.3000E+0	18.6621E-6	-40.5466E-9	177.1781E-12
58.4000E+0	19.2194E-6	-40.3338E-9	79.0338E-12
58.5000E+0	19.6514E-6	-40.2641E-9	85.1617E-12
58.6000E+0	19.9965E-6	-40.2778E-9	82.6367E-12
58.7000E+0	20.4898E-6	-40.2914E-9	109.7432E-12
58.8000E+0	20.8081E-6	-40.1034E-9	54.8459E-12
58.9000E+0	21.1907E-6	-40.1833E-9	199.4041E-12
59.0000E+0	22.0233E-6	-40.1034E-9	111.7415E-12
59.1000E+0	22.4344E-6	-40.2876E-9	137.8550E-12
59.2000E+0	22.8751E-6	-40.3531E-9	45.0272E-12
59.3000E+0	23.4181E-6	-40.2785E-9	124.3850E-12
59.4000E+0	24.0651E-6	-40.4912E-9	84.2201E-12
59.5000E+0	24.5273E-6	-40.4585E-9	49.2114E-12
59.6000E+0	24.9876E-6	-40.1847E-9	287.6116E-12
59.7000E+0	25.6593E-6	-40.4769E-9	262.1067E-12
59.8000E+0	26.0770E-6	-40.4901E-9	59.6296E-12
59.9000E+0	26.5654E-6	-40.3840E-9	124.2003E-12
60.0000E+0	26.8856E-6	-40.1630E-9	129.3927E-12
60.1000E+0	27.4472E-6	-40.0660E-9	37.0887E-12
60.2000E+0	27.9050E-6	-40.1580E-9	129.6137E-12
60.3000E+0	28.4387E-6	-39.9997E-9	159.6208E-12
60.4000E+0	29.0097E-6	-40.1728E-9	164.9010E-12
60.5000E+0	29.7367E-6	-40.0548E-9	100.1759E-12
60.6000E+0	30.0931E-6	-40.0987E-9	129.0203E-12
60.7000E+0	30.9138E-6	-40.0232E-9	90.6388E-12
60.8000E+0	31.4162E-6	-40.1582E-9	47.4433E-12
60.9000E+0	32.4658E-6	-40.2504E-9	226.5197E-12
61.0000E+0	32.9494E-6	-40.2053E-9	335.4152E-12
61.1000E+0	33.3548E-6	-40.0244E-9	407.9002E-12
61.2000E+0	34.4626E-6	-40.3802E-9	193.8150E-12
61.3000E+0	34.8916E-6	-40.5505E-9	248.4732E-12
61.4000E+0	35.6033E-6	-40.2960E-9	142.2663E-12
61.5000E+0	36.1950E-6	-40.2091E-9	87.7958E-12
61.6000E+0	36.6948E-6	-40.2976E-9	87.0510E-12
61.7000E+0	37.5630E-6	-40.1772E-9	105.7770E-12
61.8000E+0	38.0412E-6	-40.1341E-9	230.3860E-12
61.9000E+0	38.9306E-6	-39.9591E-9	131.6453E-12
62.0000E+0	39.2820E-6	-40.0780E-9	135.0544E-12
62.1000E+0	40.0758E-6	-40.1932E-9	41.2184E-12
62.2000E+0	40.8109E-6	-40.2563E-9	132.8745E-12
62.3000E+0	41.5930E-6	-40.3825E-9	78.0589E-12
62.4000E+0	42.6852E-6	-40.5111E-9	116.6190E-12
62.5000E+0	43.9895E-6	-39.9279E-9	304.5968E-12
62.6000E+0	44.5917E-6	-40.5510E-9	194.1814E-12
62.7000E+0	45.0614E-6	-40.5461E-9	106.7216E-12
62.8000E+0	46.3964E-6	-40.5001E-9	124.3910E-12
62.9000E+0	46.9320E-6	-40.3881E-9	105.7074E-12
63.0000E+0	47.8089E-6	-40.1724E-9	92.6461E-12
63.1000E+0	48.7760E-6	-40.0873E-9	46.4381E-12
63.2000E+0	49.3843E-6	-40.0367E-9	65.7666E-12
63.3000E+0	49.9630E-6	-40.0912E-9	85.3343E-12
63.4000E+0	50.7177E-6	-40.0319E-9	103.0945E-12
63.5000E+0	51.6754E-6	-40.0831E-9	142.9929E-12
63.6000E+0	52.9755E-6	-40.1182E-9	106.8912E-12
63.7000E+0	54.0811E-6	-40.1003E-9	229.5625E-12
63.8000E+0	54.8682E-6	-40.2438E-9	64.7039E-12
63.9000E+0	55.6936E-6	-40.4637E-9	151.7186E-12
