Voltage(V)	Current(A)	DiodeCurrent(A)	DiodeCurrent Std(A)
0.0000E+0	1.5661E-12	-49.6915E-9	227.7641E-12
2.0000E+0	42.6933E-12	-50.0732E-9	211.3784E-12
4.0000E+0	71.7484E-12	-49.9254E-9	155.1126E-12
6.0000E+0	186.8928E-12	-50.0038E-9	191.1416E-12
8.0000E+0	245.2149E-12	-50.0468E-9	156.5447E-12
10.0000E+0	291.5889E-12	-50.0049E-9	195.9707E-12
12.0000E+0	325.1795E-12	-49.7800E-9	198.4746E-12
14.0000E+0	355.7080E-12	-49.7271E-9	241.8517E-12
16.0000E+0	386.9929E-12	-49.6768E-9	73.9292E-12
18.0000E+0	422.3317E-12	-49.6859E-9	250.7651E-12
20.0000E+0	462.8114E-12	-49.4715E-9	209.5497E-12
22.0000E+0	499.7220E-12	-49.7346E-9	185.7675E-12
24.0000E+0	538.9129E-12	-49.6068E-9	214.8602E-12
26.0000E+0	565.5132E-12	-49.8228E-9	127.4126E-12
28.0000E+0	580.6409E-12	-49.5516E-9	192.7523E-12
30.0000E+0	592.3792E-12	-49.9087E-9	246.3539E-12
32.0000E+0	604.6246E-12	-50.0576E-9	167.6894E-12
34.0000E+0	614.8076E-12	-49.6440E-9	427.0259E-12
36.0000E+0	628.8496E-12	-50.1178E-9	173.7629E-12
38.0000E+0	642.0504E-12	-49.9875E-9	326.0416E-12
40.0000E+0	657.8340E-12	-50.0338E-9	92.0557E-12
42.0000E+0	674.6204E-12	-49.9079E-9	277.8172E-12
44.0000E+0	692.8130E-12	-49.8339E-9	82.8910E-12
46.0000E+0	716.9696E-12	-49.6218E-9	173.5903E-12
48.0000E+0	746.7213E-12	-49.6729E-9	273.3181E-12
50.0000E+0	810.7233E-12	-49.7070E-9	73.6597E-12
50.1000E+0	816.3189E-12	-49.8163E-9	249.3664E-12
50.2000E+0	822.1989E-12	-49.8173E-9	202.6164E-12
50.3000E+0	830.4788E-12	-49.7076E-9	180.2027E-12
50.4000E+0	840.1866E-12	-49.7905E-9	249.7176E-12
50.5000E+0	847.8280E-12	-49.9897E-9	284.1359E-12
50.6000E+0	858.4405E-12	-49.9176E-9	281.8046E-12
50.7000E+0	869.0501E-12	-49.8554E-9	329.5809E-12
50.8000E+0	883.9378E-12	-50.2347E-9	98.9073E-12
50.9000E+0	903.7402E-12	-50.0411E-9	202.0079E-12
51.0000E+0	922.7503E-12	-50.1275E-9	205.7137E-12
51.1000E+0	951.5005E-12	-49.9329E-9	77.6986E-12
51.2000E+0	990.3552E-12	-49.8822E-9	215.2296E-12
51.3000E+0	1.0334E-9	-49.7708E-9	231.1853E-12
51.4000E+0	1.1070E-9	-49.5955E-9	67.6619E-12
51.5000E+0	1.2208E-9	-49.6012E-9	205.0446E-12
51.6000E+0	1.4360E-9	-49.6880E-9	307.8212E-12
51.7000E+0	2.0114E-9	-49.8165E-9	168.6492E-12
51.8000E+0	4.0919E-9	-49.8294E-9	153.1476E-12
51.9000E+0	15.6950E-9	-49.5762E-9	201.0632E-12
52.0000E+0	57.9104E-9	-49.7034E-9	224.2217E-12
52.1000E+0	142.7718E-9	-49.9332E-9	86.1215E-12
52.2000E+0	260.8347E-9	-50.1280E-9	241.3522E-12
52.3000E+0	393.7709E-9	-50.0326E-9	148.4911E-12
52.4000E+0	562.9067E-9	-50.2672E-9	79.8361E-12
52.5000E+0	753.0556E-9	-50.0197E-9	215.9956E-12
52.6000E+0	947.1153E-9	-50.1050E-9	96.3065E-12
52.7000E+0	1.1544E-6	-49.8394E-9	89.9152E-12
52.8000E+0	1.4158E-6	-49.7643E-9	254.7465E-12
52.9000E+0	1.6296E-6	-49.7364E-9	216.3286E-12
53.0000E+0	1.8970E-6	-49.5468E-9	59.7870E-12
53.1000E+0	2.1467E-6	-49.7799E-9	110.3457E-12
53.2000E+0	2.4202E-6	-49.7127E-9	164.7980E-12
53.3000E+0	2.7574E-6	-49.8506E-9	225.9263E-12
53.4000E+0	3.0382E-6	-49.7416E-9	101.8592E-12
53.5000E+0	3.3970E-6	-49.7682E-9	252.8572E-12
53.6000E+0	3.6723E-6	-49.8115E-9	94.4173E-12
53.7000E+0	4.0115E-6	-49.8942E-9	133.7828E-12
53.8000E+0	4.3429E-6	-50.0384E-9	163.0662E-12
53.9000E+0	4.6523E-6	-50.3098E-9	75.8911E-12
54.0000E+0	5.1298E-6	-49.8631E-9	254.0713E-12
54.1000E+0	5.4022E-6	-49.9683E-9	218.8416E-12
54.2000E+0	5.7853E-6	-50.0423E-9	202.9555E-12
54.3000E+0	6.1473E-6	-49.8257E-9	52.8204E-12
54.4000E+0	6.5027E-6	-49.6280E-9	152.2060E-12
54.5000E+0	6.8236E-6	-49.5728E-9	69.1515E-12
54.6000E+0	7.2050E-6	-49.5230E-9	80.2509E-12
54.7000E+0	7.5419E-6	-49.5505E-9	89.1310E-12
54.8000E+0	7.9586E-6	-49.4030E-9	193.8786E-12
54.9000E+0	8.4251E-6	-49.6532E-9	99.0466E-12
55.0000E+0	8.7533E-6	-49.8720E-9	161.6039E-12
55.1000E+0	9.1625E-6	-49.8258E-9	116.9551E-12
55.2000E+0	9.6112E-6	-50.0049E-9	105.0564E-12
55.3000E+0	9.9712E-6	-49.8766E-9	289.1043E-12
55.4000E+0	10.4801E-6	-49.8263E-9	307.4730E-12
55.5000E+0	10.8767E-6	-49.7161E-9	322.3146E-12
55.6000E+0	11.2716E-6	-50.1710E-9	282.3889E-12
55.7000E+0	11.7076E-6	-49.8972E-9	209.5073E-12
55.8000E+0	12.0547E-6	-49.6835E-9	194.5053E-12
55.9000E+0	12.6553E-6	-49.7137E-9	78.5100E-12
56.0000E+0	12.9152E-6	-49.5665E-9	171.8646E-12
56.1000E+0	13.4787E-6	-49.7390E-9	118.9745E-12
56.2000E+0	13.7906E-6	-49.6928E-9	145.0911E-12
56.3000E+0	14.1160E-6	-49.5719E-9	111.0330E-12
56.4000E+0	14.8231E-6	-49.5271E-9	196.0888E-12
56.5000E+0	15.2256E-6	-49.8360E-9	215.8836E-12
56.6000E+0	15.5812E-6	-49.7557E-9	137.2404E-12
56.7000E+0	16.1010E-6	-50.0344E-9	202.8980E-12
56.8000E+0	16.8190E-6	-49.6377E-9	319.7713E-12
56.9000E+0	17.0424E-6	-50.1480E-9	299.0864E-12
57.0000E+0	17.5649E-6	-50.1407E-9	219.5773E-12
57.1000E+0	17.9964E-6	-50.0997E-9	171.4044E-12
57.2000E+0	18.5089E-6	-49.8891E-9	93.8572E-12
57.3000E+0	19.1273E-6	-49.6901E-9	75.2644E-12
57.4000E+0	19.4402E-6	-49.7928E-9	82.8789E-12
57.5000E+0	19.9409E-6	-49.7024E-9	113.5399E-12
57.6000E+0	20.5878E-6	-49.7711E-9	129.8923E-12
57.7000E+0	20.9493E-6	-49.6834E-9	189.3432E-12
57.8000E+0	21.6692E-6	-49.6393E-9	51.6063E-12
57.9000E+0	21.9567E-6	-49.7855E-9	70.5473E-12
58.0000E+0	22.5453E-6	-49.7891E-9	73.2691E-12
58.1000E+0	23.2176E-6	-49.9829E-9	217.1915E-12
58.2000E+0	23.7742E-6	-50.1089E-9	316.9889E-12
58.3000E+0	24.2391E-6	-50.0193E-9	160.3625E-12
58.4000E+0	24.5393E-6	-50.1517E-9	230.0621E-12
58.5000E+0	25.4856E-6	-50.1212E-9	248.3824E-12
58.6000E+0	25.8841E-6	-49.9876E-9	103.3095E-12
58.7000E+0	26.4653E-6	-50.2596E-9	201.5295E-12
58.8000E+0	26.9905E-6	-49.8594E-9	78.9430E-12
58.9000E+0	27.6561E-6	-49.8159E-9	137.1768E-12
59.0000E+0	28.0938E-6	-49.6748E-9	140.7101E-12
59.1000E+0	28.4939E-6	-49.6802E-9	171.7465E-12
59.2000E+0	29.2185E-6	-49.6942E-9	241.5762E-12
59.3000E+0	29.7362E-6	-49.5320E-9	333.6895E-12
59.4000E+0	30.4528E-6	-49.6965E-9	267.8078E-12
59.5000E+0	31.2475E-6	-49.4057E-9	132.0025E-12
59.6000E+0	31.8757E-6	-49.7632E-9	230.7524E-12
59.7000E+0	32.9000E-6	-49.8503E-9	279.8094E-12
59.8000E+0	33.1925E-6	-50.1569E-9	189.3674E-12
59.9000E+0	33.7694E-6	-49.5305E-9	420.2439E-12
60.0000E+0	34.7289E-6	-50.0952E-9	124.3335E-12
60.1000E+0	35.3653E-6	-50.1317E-9	139.7806E-12
60.2000E+0	35.7922E-6	-50.0071E-9	243.6835E-12
60.3000E+0	36.7086E-6	-50.0452E-9	217.5942E-12
60.4000E+0	37.5957E-6	-49.9308E-9	192.5737E-12
60.5000E+0	38.0626E-6	-49.6433E-9	86.0549E-12
60.6000E+0	38.7463E-6	-49.5492E-9	210.8516E-12
60.7000E+0	39.3273E-6	-49.5709E-9	165.2794E-12
60.8000E+0	39.7955E-6	-49.6984E-9	71.3647E-12
60.9000E+0	40.9539E-6	-49.6763E-9	225.1845E-12
61.0000E+0	41.9987E-6	-49.8895E-9	120.2219E-12
61.1000E+0	42.6342E-6	-49.7628E-9	292.1834E-12
61.2000E+0	43.2487E-6	-49.9035E-9	119.8162E-12
61.3000E+0	44.0758E-6	-49.8655E-9	171.8373E-12
61.4000E+0	45.3289E-6	-49.8361E-9	226.4289E-12
61.5000E+0	46.0455E-6	-50.3923E-9	201.3145E-12
61.6000E+0	46.6647E-6	-50.1292E-9	82.5852E-12
61.7000E+0	47.1606E-6	-49.8414E-9	245.8482E-12
61.8000E+0	48.6991E-6	-49.9367E-9	188.3138E-12
61.9000E+0	49.0971E-6	-49.9127E-9	233.0473E-12
62.0000E+0	50.6448E-6	-49.6005E-9	125.5809E-12
62.1000E+0	51.0064E-6	-49.6544E-9	195.1109E-12
62.2000E+0	52.3001E-6	-49.6092E-9	194.9080E-12
62.3000E+0	52.7141E-6	-49.7718E-9	128.2543E-12
62.4000E+0	53.9011E-6	-49.6595E-9	147.1741E-12
62.5000E+0	54.4521E-6	-49.6758E-9	283.3850E-12
62.6000E+0	55.7922E-6	-49.8808E-9	325.3634E-12
62.7000E+0	57.8237E-6	-50.0306E-9	249.1272E-12
62.8000E+0	58.2303E-6	-50.1366E-9	166.7055E-12
62.9000E+0	58.9236E-6	-50.0063E-9	182.0011E-12
63.0000E+0	60.1187E-6	-50.2261E-9	163.8443E-12
63.1000E+0	61.3244E-6	-49.9408E-9	194.2359E-12
63.2000E+0	62.2370E-6	-49.8372E-9	44.0220E-12
63.3000E+0	63.1455E-6	-49.7738E-9	258.0103E-12
63.4000E+0	63.9430E-6	-49.5723E-9	131.2305E-12
63.5000E+0	65.7121E-6	-49.7561E-9	199.4192E-12
63.6000E+0	66.1719E-6	-49.5701E-9	229.1992E-12
63.7000E+0	67.6616E-6	-49.5519E-9	232.0936E-12
63.8000E+0	68.9660E-6	-49.5759E-9	139.4384E-12
63.9000E+0	70.5661E-6	-49.7291E-9	103.4124E-12
