Voltage(V)	Current(A)	DiodeCurrent(A)	DiodeCurrent Std(A)
0.0000E+0	222.7921E-15	-831.7377E-12	1.7619E-12
2.0000E+0	37.9040E-12	-830.8462E-12	1.6188E-12
4.0000E+0	70.6352E-12	-828.2465E-12	2.6314E-12
6.0000E+0	188.0368E-12	-828.8722E-12	1.2638E-12
8.0000E+0	249.2988E-12	-832.4534E-12	1.6193E-12
10.0000E+0	294.7786E-12	-831.0726E-12	775.8960E-15
12.0000E+0	329.8028E-12	-832.0634E-12	1.8363E-12
14.0000E+0	362.4584E-12	-829.9758E-12	3.9513E-12
16.0000E+0	396.0084E-12	-832.3062E-12	1.7050E-12
18.0000E+0	432.5620E-12	-834.6362E-12	1.3374E-12
20.0000E+0	472.3516E-12	-833.4567E-12	2.1292E-12
22.0000E+0	510.1234E-12	-834.2462E-12	3.0582E-12
24.0000E+0	552.7689E-12	-831.6111E-12	912.3824E-15
26.0000E+0	578.0649E-12	-831.5390E-12	1.5478E-12
28.0000E+0	595.6051E-12	-830.0059E-12	1.5659E-12
30.0000E+0	607.7354E-12	-833.0260E-12	1.9841E-12
32.0000E+0	618.2270E-12	-826.6050E-12	2.4645E-12
34.0000E+0	630.9858E-12	-827.5664E-12	2.8283E-12
36.0000E+0	642.2272E-12	-832.1484E-12	1.6363E-12
38.0000E+0	654.8144E-12	-829.3352E-12	2.2842E-12
40.0000E+0	669.5691E-12	-838.6358E-12	5.1842E-12
42.0000E+0	684.4175E-12	-832.3148E-12	1.5434E-12
44.0000E+0	699.0866E-12	-833.9951E-12	778.9236E-15
46.0000E+0	715.6913E-12	-832.1761E-12	983.6230E-15
48.0000E+0	734.6384E-12	-834.9419E-12	3.4292E-12
50.0000E+0	755.1822E-12	-832.5536E-12	965.6691E-15
50.1000E+0	756.4722E-12	-832.8794E-12	1.0044E-12
50.2000E+0	756.8761E-12	-835.4092E-12	1.4768E-12
50.3000E+0	757.2348E-12	-832.9965E-12	2.0174E-12
50.4000E+0	759.3366E-12	-833.3216E-12	1.9224E-12
50.5000E+0	759.5560E-12	-833.4089E-12	1.2632E-12
50.6000E+0	760.7375E-12	-832.1158E-12	991.4344E-15
50.7000E+0	762.4016E-12	-832.8071E-12	684.1279E-15
50.8000E+0	762.9746E-12	-833.9465E-12	713.4961E-15
50.9000E+0	764.5599E-12	-832.1308E-12	1.9760E-12
51.0000E+0	766.7998E-12	-831.4796E-12	2.5402E-12
51.1000E+0	769.6420E-12	-827.8877E-12	1.5466E-12
51.2000E+0	769.1799E-12	-832.1887E-12	2.5856E-12
51.3000E+0	771.3611E-12	-833.0575E-12	3.0763E-12
51.4000E+0	774.1334E-12	-831.1840E-12	1.2363E-12
51.5000E+0	777.0360E-12	-832.5290E-12	1.5234E-12
51.6000E+0	783.7284E-12	-835.1959E-12	1.3913E-12
51.7000E+0	796.2945E-12	-834.9303E-12	848.4385E-15
51.8000E+0	832.3477E-12	-832.4525E-12	1.1908E-12
51.9000E+0	1.0586E-9	-835.8569E-12	1.7172E-12
52.0000E+0	1.9387E-9	-834.4879E-12	927.6721E-15
52.1000E+0	3.7080E-9	-834.9396E-12	1.5535E-12
52.2000E+0	6.4979E-9	-835.0441E-12	1.5193E-12
52.3000E+0	9.8116E-9	-833.9178E-12	2.0102E-12
52.4000E+0	14.0826E-9	-835.3074E-12	3.0147E-12
52.5000E+0	19.0330E-9	-830.6923E-12	2.3517E-12
52.6000E+0	24.5005E-9	-830.7014E-12	1.8215E-12
52.7000E+0	31.0703E-9	-832.0202E-12	1.4655E-12
52.8000E+0	35.9828E-9	-830.7578E-12	1.2105E-12
52.9000E+0	44.1834E-9	-834.0803E-12	2.1485E-12
53.0000E+0	51.9433E-9	-832.3924E-12	976.4172E-15
53.1000E+0	59.6963E-9	-837.9173E-12	2.5777E-12
53.2000E+0	65.9890E-9	-837.9436E-12	2.4394E-12
53.3000E+0	76.2751E-9	-836.2140E-12	2.6853E-12
53.4000E+0	86.6800E-9	-836.2744E-12	1.1219E-12
53.5000E+0	95.8590E-9	-834.4206E-12	1.2176E-12
53.6000E+0	106.7147E-9	-836.0802E-12	2.5896E-12
53.7000E+0	116.5158E-9	-832.9435E-12	1.6566E-12
53.8000E+0	132.2827E-9	-837.3289E-12	3.2965E-12
53.9000E+0	143.7591E-9	-833.7004E-12	2.6005E-12
54.0000E+0	156.4639E-9	-832.4416E-12	1.6255E-12
54.1000E+0	170.4890E-9	-829.5080E-12	1.2244E-12
54.2000E+0	178.8282E-9	-829.7237E-12	2.3021E-12
54.3000E+0	197.3181E-9	-829.2255E-12	2.4112E-12
54.4000E+0	214.5222E-9	-832.4631E-12	2.0297E-12
54.5000E+0	230.8018E-9	-833.6332E-12	1.7827E-12
54.6000E+0	243.7850E-9	-833.1886E-12	2.0636E-12
54.7000E+0	256.3938E-9	-835.0040E-12	2.0633E-12
54.8000E+0	272.0148E-9	-835.9391E-12	2.6221E-12
54.9000E+0	293.1170E-9	-836.0094E-12	1.9686E-12
55.0000E+0	304.5323E-9	-834.6966E-12	1.7912E-12
55.1000E+0	334.1083E-9	-832.8771E-12	975.4181E-15
55.2000E+0	348.8376E-9	-834.6431E-12	1.9347E-12
55.3000E+0	363.3971E-9	-833.4042E-12	2.7134E-12
55.4000E+0	385.6878E-9	-831.9335E-12	1.8222E-12
55.5000E+0	404.9091E-9	-835.8211E-12	1.7919E-12
55.6000E+0	429.9379E-9	-837.5662E-12	2.4107E-12
55.7000E+0	451.2700E-9	-831.1576E-12	1.5742E-12
55.8000E+0	472.6677E-9	-830.7375E-12	735.8401E-15
55.9000E+0	490.7239E-9	-827.0003E-12	1.3828E-12
56.0000E+0	516.7493E-9	-832.1898E-12	2.0539E-12
56.1000E+0	537.5663E-9	-832.3778E-12	2.3883E-12
56.2000E+0	562.2952E-9	-834.7702E-12	1.6915E-12
56.3000E+0	585.0553E-9	-833.6388E-12	2.1469E-12
56.4000E+0	602.3163E-9	-836.9767E-12	946.8068E-15
56.5000E+0	639.8527E-9	-837.6803E-12	3.1174E-12
56.6000E+0	655.4496E-9	-835.2122E-12	1.5436E-12
56.7000E+0	701.9604E-9	-834.7913E-12	1.5370E-12
56.8000E+0	710.6960E-9	-836.8316E-12	2.3592E-12
56.9000E+0	746.0026E-9	-834.5632E-12	992.3124E-15
57.0000E+0	777.7298E-9	-836.4855E-12	1.6310E-12
57.1000E+0	803.9996E-9	-832.4961E-12	1.1018E-12
57.2000E+0	817.5494E-9	-832.2788E-12	2.2955E-12
57.3000E+0	863.0713E-9	-829.7616E-12	2.3735E-12
57.4000E+0	892.2277E-9	-827.2607E-12	1.7707E-12
57.5000E+0	927.4161E-9	-828.0737E-12	1.2933E-12
57.6000E+0	963.5779E-9	-833.2989E-12	2.3324E-12
57.7000E+0	991.9495E-9	-833.0234E-12	878.6544E-15
57.8000E+0	1.0323E-6	-834.6599E-12	1.0672E-12
57.9000E+0	1.0728E-6	-835.8267E-12	1.4528E-12
58.0000E+0	1.0992E-6	-835.4342E-12	1.8815E-12
58.1000E+0	1.1516E-6	-836.3778E-12	2.0854E-12
58.2000E+0	1.1668E-6	-835.3351E-12	2.2328E-12
58.3000E+0	1.2099E-6	-837.7042E-12	2.2971E-12
58.4000E+0	1.2311E-6	-835.0864E-12	1.5435E-12
58.5000E+0	1.2758E-6	-836.8179E-12	3.1927E-12
58.6000E+0	1.3360E-6	-835.7302E-12	1.8869E-12
58.7000E+0	1.3665E-6	-835.9976E-12	3.1038E-12
58.8000E+0	1.4018E-6	-835.7871E-12	1.9055E-12
58.9000E+0	1.4647E-6	-828.4956E-12	2.0958E-12
59.0000E+0	1.5216E-6	-830.5082E-12	4.2803E-12
59.1000E+0	1.5537E-6	-830.1175E-12	1.8881E-12
59.2000E+0	1.6143E-6	-831.5916E-12	2.0469E-12
59.3000E+0	1.6681E-6	-833.7037E-12	2.6286E-12
59.4000E+0	1.6943E-6	-834.6673E-12	1.6717E-12
59.5000E+0	1.7334E-6	-834.2437E-12	1.8962E-12
59.6000E+0	1.7865E-6	-834.1220E-12	1.7242E-12
59.7000E+0	1.8458E-6	-832.1467E-12	1.1441E-12
59.8000E+0	1.9276E-6	-834.9092E-12	1.2184E-12
59.9000E+0	1.9591E-6	-834.1459E-12	2.7023E-12
60.0000E+0	1.9685E-6	-837.2823E-12	2.9044E-12
60.1000E+0	2.0406E-6	-834.4840E-12	1.4555E-12
60.2000E+0	2.1287E-6	-834.8542E-12	2.2601E-12
60.3000E+0	2.1883E-6	-833.8810E-12	946.4738E-15
60.4000E+0	2.2647E-6	-834.4131E-12	3.4325E-12
60.5000E+0	2.2922E-6	-835.4845E-12	1.5905E-12
60.6000E+0	2.3623E-6	-832.7481E-12	1.1608E-12
60.7000E+0	2.4794E-6	-829.0934E-12	943.7792E-15
60.8000E+0	2.5345E-6	-828.1235E-12	1.6871E-12
60.9000E+0	2.5945E-6	-831.9825E-12	1.5431E-12
61.0000E+0	2.6184E-6	-834.0901E-12	1.4604E-12
61.1000E+0	2.7453E-6	-835.2989E-12	2.8275E-12
61.2000E+0	2.7876E-6	-833.8086E-12	941.4782E-15
61.3000E+0	2.8448E-6	-835.0277E-12	2.0015E-12
61.4000E+0	2.9197E-6	-833.5857E-12	1.2459E-12
61.5000E+0	3.0337E-6	-835.6433E-12	2.4764E-12
61.6000E+0	3.0987E-6	-834.4791E-12	1.8026E-12
61.7000E+0	3.1367E-6	-834.0790E-12	2.0967E-12
61.8000E+0	3.2353E-6	-832.8007E-12	913.8357E-15
61.9000E+0	3.3503E-6	-830.7387E-12	1.3344E-12
62.0000E+0	3.4535E-6	-833.5143E-12	1.3291E-12
62.1000E+0	3.5342E-6	-827.7057E-12	2.5090E-12
62.2000E+0	3.6160E-6	-830.1729E-12	2.2856E-12
62.3000E+0	3.6735E-6	-829.7107E-12	1.2303E-12
62.4000E+0	3.7910E-6	-832.2018E-12	1.6694E-12
62.5000E+0	3.9127E-6	-835.5628E-12	1.3127E-12
62.6000E+0	3.9399E-6	-837.7900E-12	1.9113E-12
62.7000E+0	4.1141E-6	-834.2728E-12	393.6854E-15
62.8000E+0	4.1833E-6	-834.3279E-12	1.3857E-12
62.9000E+0	4.2508E-6	-835.8411E-12	1.1022E-12
63.0000E+0	4.4173E-6	-838.0771E-12	1.8657E-12
63.1000E+0	4.5950E-6	-834.7929E-12	1.3992E-12
63.2000E+0	4.6905E-6	-836.1316E-12	2.4548E-12
63.3000E+0	4.7544E-6	-837.2077E-12	1.2380E-12
63.4000E+0	4.8721E-6	-832.7333E-12	1.2708E-12
63.5000E+0	4.9734E-6	-830.6314E-12	760.9394E-15
63.6000E+0	5.1237E-6	-830.8600E-12	2.6780E-12
63.7000E+0	5.3191E-6	-830.0295E-12	2.0075E-12
63.8000E+0	5.4607E-6	-832.3690E-12	1.1553E-12
63.9000E+0	5.6350E-6	-830.5668E-12	558.2382E-15
