Voltage(V)	Current(A)	DiodeCurrent(A)	DiodeCurrent Std(A)
0.0000E+0	4.5635E-12	-78.7533E-9	524.9159E-12
2.0000E+0	42.3410E-12	-79.4852E-9	176.6543E-12
4.0000E+0	67.2092E-12	-79.2591E-9	384.7508E-12
6.0000E+0	189.6670E-12	-79.0932E-9	257.3049E-12
8.0000E+0	253.0557E-12	-79.3620E-9	131.5999E-12
10.0000E+0	298.1489E-12	-79.7077E-9	255.3157E-12
12.0000E+0	336.7466E-12	-79.5634E-9	431.1980E-12
14.0000E+0	368.4532E-12	-79.8674E-9	253.1055E-12
16.0000E+0	402.0991E-12	-80.1291E-9	442.1126E-12
18.0000E+0	438.3550E-12	-79.6340E-9	329.4568E-12
20.0000E+0	478.3439E-12	-79.5478E-9	211.3058E-12
22.0000E+0	517.4303E-12	-79.8494E-9	81.5861E-12
24.0000E+0	557.5734E-12	-79.5000E-9	214.6362E-12
26.0000E+0	584.2126E-12	-79.0855E-9	203.5822E-12
28.0000E+0	602.9429E-12	-79.1375E-9	250.4382E-12
30.0000E+0	612.6698E-12	-79.1943E-9	202.8677E-12
32.0000E+0	624.1985E-12	-79.1043E-9	422.3542E-12
34.0000E+0	635.6535E-12	-78.6990E-9	113.2856E-12
36.0000E+0	649.2155E-12	-79.0071E-9	224.9847E-12
38.0000E+0	661.9686E-12	-79.4391E-9	242.4421E-12
40.0000E+0	674.9712E-12	-79.2359E-9	251.0285E-12
42.0000E+0	689.8235E-12	-79.6099E-9	226.1170E-12
44.0000E+0	707.0358E-12	-79.7393E-9	129.8650E-12
46.0000E+0	724.0273E-12	-79.7193E-9	255.1522E-12
48.0000E+0	743.6843E-12	-80.3289E-9	127.2249E-12
50.0000E+0	770.3749E-12	-80.1741E-9	233.9284E-12
50.1000E+0	771.5973E-12	-80.0245E-9	390.0946E-12
50.2000E+0	772.8549E-12	-79.6662E-9	208.4477E-12
50.3000E+0	775.7106E-12	-79.4920E-9	301.0907E-12
50.4000E+0	776.9876E-12	-79.1706E-9	226.9860E-12
50.5000E+0	778.1795E-12	-79.2002E-9	120.5459E-12
50.6000E+0	781.3643E-12	-78.9809E-9	307.4488E-12
50.7000E+0	783.5899E-12	-79.3407E-9	314.8726E-12
50.8000E+0	786.9940E-12	-79.2964E-9	302.6137E-12
50.9000E+0	790.4338E-12	-79.0956E-9	302.2624E-12
51.0000E+0	793.7038E-12	-79.1838E-9	318.2848E-12
51.1000E+0	797.9412E-12	-79.1882E-9	123.2496E-12
51.2000E+0	803.3010E-12	-79.1293E-9	404.9452E-12
51.3000E+0	810.3873E-12	-79.4590E-9	132.8442E-12
51.4000E+0	820.7077E-12	-79.4235E-9	233.0776E-12
51.5000E+0	835.8037E-12	-79.8830E-9	378.4230E-12
51.6000E+0	861.8308E-12	-79.3287E-9	404.8453E-12
51.7000E+0	922.3729E-12	-79.5417E-9	61.4159E-12
51.8000E+0	1.1202E-9	-79.7498E-9	108.6412E-12
51.9000E+0	2.0705E-9	-79.4228E-9	468.9437E-12
52.0000E+0	6.5630E-9	-79.8774E-9	259.7391E-12
52.1000E+0	17.1841E-9	-79.9805E-9	298.5839E-12
52.2000E+0	32.9177E-9	-79.9943E-9	173.3239E-12
52.3000E+0	53.2805E-9	-79.8616E-9	278.2047E-12
52.4000E+0	76.3238E-9	-79.5927E-9	125.5960E-12
52.5000E+0	106.4973E-9	-79.7903E-9	171.7071E-12
52.6000E+0	134.1789E-9	-79.2856E-9	265.3312E-12
52.7000E+0	169.7435E-9	-79.6042E-9	142.3389E-12
52.8000E+0	200.9363E-9	-79.6043E-9	240.9192E-12
52.9000E+0	242.5321E-9	-79.0336E-9	197.6995E-12
53.0000E+0	279.1239E-9	-79.2061E-9	255.9031E-12
53.1000E+0	325.8659E-9	-79.2803E-9	254.1379E-12
53.2000E+0	375.8680E-9	-79.2288E-9	321.8059E-12
53.3000E+0	423.8743E-9	-79.3739E-9	355.8912E-12
53.4000E+0	472.1350E-9	-79.4383E-9	264.4531E-12
53.5000E+0	539.2051E-9	-79.5136E-9	161.2072E-12
53.6000E+0	588.4758E-9	-79.1868E-9	251.6341E-12
53.7000E+0	646.9666E-9	-79.7142E-9	135.8961E-12
53.8000E+0	693.6597E-9	-79.0092E-9	341.1133E-12
53.9000E+0	761.8638E-9	-79.3664E-9	197.5209E-12
54.0000E+0	826.0954E-9	-79.6621E-9	156.1420E-12
54.1000E+0	887.2224E-9	-79.6984E-9	299.9796E-12
54.2000E+0	960.9694E-9	-79.3164E-9	289.2557E-12
54.3000E+0	1.0128E-6	-79.3990E-9	277.1784E-12
54.4000E+0	1.1022E-6	-79.4741E-9	124.1639E-12
54.5000E+0	1.1609E-6	-79.5479E-9	162.9754E-12
54.6000E+0	1.2355E-6	-79.1602E-9	219.6439E-12
54.7000E+0	1.3140E-6	-78.5845E-9	811.2710E-12
54.8000E+0	1.3696E-6	-79.1858E-9	65.9513E-12
54.9000E+0	1.4371E-6	-79.1575E-9	137.9791E-12
55.0000E+0	1.5451E-6	-79.3186E-9	88.5194E-12
55.1000E+0	1.6479E-6	-79.3716E-9	194.8475E-12
55.2000E+0	1.7035E-6	-79.4112E-9	492.9015E-12
55.3000E+0	1.7983E-6	-80.0776E-9	484.1940E-12
55.4000E+0	1.8572E-6	-80.1760E-9	182.5915E-12
55.5000E+0	1.9676E-6	-79.2751E-9	519.1512E-12
55.6000E+0	2.0541E-6	-79.5204E-9	236.1719E-12
55.7000E+0	2.1358E-6	-79.2688E-9	233.9798E-12
55.8000E+0	2.2189E-6	-78.9966E-9	196.9759E-12
55.9000E+0	2.2939E-6	-78.9863E-9	266.2304E-12
56.0000E+0	2.4037E-6	-78.8813E-9	178.8978E-12
56.1000E+0	2.4765E-6	-78.5132E-9	307.2460E-12
56.2000E+0	2.5948E-6	-78.4300E-9	362.4945E-12
56.3000E+0	2.6789E-6	-78.9283E-9	82.7275E-12
56.4000E+0	2.7942E-6	-78.9804E-9	208.0450E-12
56.5000E+0	2.9007E-6	-78.9757E-9	273.5573E-12
56.6000E+0	2.9868E-6	-79.0585E-9	220.6370E-12
56.7000E+0	3.1234E-6	-79.0165E-9	409.9166E-12
56.8000E+0	3.2414E-6	-79.0496E-9	274.6836E-12
56.9000E+0	3.3338E-6	-78.9606E-9	162.2881E-12
57.0000E+0	3.4675E-6	-79.1653E-9	193.4941E-12
57.1000E+0	3.5390E-6	-79.4473E-9	115.5018E-12
57.2000E+0	3.6730E-6	-79.7406E-9	70.1779E-12
57.3000E+0	3.8149E-6	-79.4652E-9	294.8477E-12
57.4000E+0	3.9246E-6	-80.3368E-9	315.7446E-12
57.5000E+0	4.0267E-6	-79.7338E-9	58.1945E-12
57.6000E+0	4.1536E-6	-79.4323E-9	199.6645E-12
57.7000E+0	4.2682E-6	-79.0297E-9	97.7568E-12
57.8000E+0	4.4356E-6	-78.9105E-9	97.6569E-12
57.9000E+0	4.5322E-6	-78.9714E-9	207.7816E-12
58.0000E+0	4.6846E-6	-78.9819E-9	341.4493E-12
58.1000E+0	4.7702E-6	-78.7932E-9	41.0943E-12
58.2000E+0	4.8872E-6	-79.3101E-9	245.2609E-12
58.3000E+0	5.0612E-6	-78.6996E-9	311.6936E-12
58.4000E+0	5.1556E-6	-78.9903E-9	212.5078E-12
58.5000E+0	5.2985E-6	-79.3652E-9	155.7605E-12
58.6000E+0	5.4648E-6	-79.2130E-9	269.9029E-12
58.7000E+0	5.6875E-6	-79.3994E-9	182.6854E-12
58.8000E+0	5.8166E-6	-79.4583E-9	158.0161E-12
58.9000E+0	5.9411E-6	-79.7689E-9	276.6425E-12
59.0000E+0	6.0833E-6	-80.0209E-9	95.1712E-12
59.1000E+0	6.3069E-6	-79.9527E-9	477.0517E-12
59.2000E+0	6.4630E-6	-79.7428E-9	308.6932E-12
59.3000E+0	6.6272E-6	-79.8065E-9	129.5895E-12
59.4000E+0	6.7907E-6	-79.3566E-9	191.3899E-12
59.5000E+0	6.8687E-6	-79.1394E-9	219.1807E-12
59.6000E+0	7.0258E-6	-78.9717E-9	87.7322E-12
59.7000E+0	7.2577E-6	-78.8164E-9	325.7873E-12
59.8000E+0	7.4622E-6	-78.9840E-9	186.6910E-12
59.9000E+0	7.7261E-6	-79.2671E-9	266.1002E-12
60.0000E+0	7.8003E-6	-79.2125E-9	285.0684E-12
60.1000E+0	8.0003E-6	-79.3539E-9	197.8903E-12
60.2000E+0	8.2288E-6	-79.5304E-9	255.4217E-12
60.3000E+0	8.3982E-6	-79.6546E-9	154.0983E-12
60.4000E+0	8.5791E-6	-79.4845E-9	336.1873E-12
60.5000E+0	8.8478E-6	-79.8383E-9	235.6329E-12
60.6000E+0	8.9709E-6	-79.4841E-9	228.5392E-12
60.7000E+0	9.2855E-6	-79.7139E-9	258.9761E-12
60.8000E+0	9.4328E-6	-79.5802E-9	134.3399E-12
60.9000E+0	9.5992E-6	-78.9606E-9	685.8112E-12
61.0000E+0	10.0542E-6	-79.4534E-9	147.5556E-12
61.1000E+0	10.1736E-6	-79.5435E-9	362.5157E-12
61.2000E+0	10.4164E-6	-79.6011E-9	228.7602E-12
61.3000E+0	10.5696E-6	-79.2080E-9	293.3036E-12
61.4000E+0	10.9332E-6	-79.5856E-9	245.4879E-12
61.5000E+0	11.1247E-6	-79.5983E-9	244.0952E-12
61.6000E+0	11.2661E-6	-79.5687E-9	256.9325E-12
61.7000E+0	11.6960E-6	-79.6968E-9	223.5678E-12
61.8000E+0	11.8521E-6	-79.8092E-9	109.9703E-12
61.9000E+0	12.0849E-6	-79.9057E-9	118.7051E-12
62.0000E+0	12.5472E-6	-79.9847E-9	293.8637E-12
62.1000E+0	12.6313E-6	-79.2631E-9	173.3633E-12
62.2000E+0	13.0759E-6	-79.5709E-9	199.4767E-12
62.3000E+0	13.4465E-6	-79.2127E-9	307.9756E-12
62.4000E+0	13.5615E-6	-79.4666E-9	303.8429E-12
62.5000E+0	13.9435E-6	-79.7635E-9	225.5690E-12
62.6000E+0	14.1103E-6	-79.7149E-9	91.9255E-12
62.7000E+0	14.5176E-6	-79.7270E-9	346.2270E-12
62.8000E+0	14.7967E-6	-79.2119E-9	261.2438E-12
62.9000E+0	15.1816E-6	-79.2746E-9	332.1181E-12
63.0000E+0	15.4508E-6	-79.4018E-9	342.9147E-12
63.1000E+0	15.7953E-6	-79.3409E-9	126.9857E-12
63.2000E+0	16.0574E-6	-79.3711E-9	118.5143E-12
63.3000E+0	16.3396E-6	-79.8602E-9	191.6896E-12
63.4000E+0	17.1613E-6	-79.4993E-9	118.2388E-12
63.5000E+0	17.1185E-6	-79.5365E-9	133.8797E-12
63.6000E+0	17.8546E-6	-79.7577E-9	331.7154E-12
63.7000E+0	18.0094E-6	-79.6755E-9	197.2363E-12
63.8000E+0	18.3681E-6	-79.6890E-9	246.4719E-12
63.9000E+0	18.7946E-6	-79.4283E-9	114.6056E-12
