Voltage(V)	Current(A)	DiodeCurrent(A)	DiodeCurrent Std(A)
0.0000E+0	916.8299E-15	-25.9886E-9	66.5054E-12
2.0000E+0	37.7477E-12	-25.9665E-9	89.6366E-12
4.0000E+0	65.8083E-12	-26.0667E-9	83.6964E-12
6.0000E+0	165.0263E-12	-26.1784E-9	34.1640E-12
8.0000E+0	220.8594E-12	-26.1915E-9	102.8765E-12
10.0000E+0	258.7143E-12	-26.1992E-9	86.6483E-12
12.0000E+0	291.6930E-12	-26.1750E-9	48.5635E-12
14.0000E+0	318.6120E-12	-26.1067E-9	36.1895E-12
16.0000E+0	344.2603E-12	-25.9135E-9	45.8598E-12
18.0000E+0	376.5771E-12	-25.8448E-9	35.2600E-12
20.0000E+0	413.3508E-12	-25.8183E-9	24.0607E-12
22.0000E+0	448.8586E-12	-25.8127E-9	41.9027E-12
24.0000E+0	483.6854E-12	-25.7847E-9	92.8429E-12
26.0000E+0	507.0614E-12	-25.8014E-9	38.5238E-12
28.0000E+0	520.4469E-12	-25.8253E-9	44.4035E-12
30.0000E+0	532.2025E-12	-25.8530E-9	79.4395E-12
32.0000E+0	542.9327E-12	-25.8887E-9	58.7879E-12
34.0000E+0	552.2157E-12	-25.9836E-9	78.6856E-12
36.0000E+0	563.1772E-12	-26.1074E-9	83.6873E-12
38.0000E+0	574.2961E-12	-26.0483E-9	110.8998E-12
40.0000E+0	586.9701E-12	-26.2056E-9	93.7996E-12
42.0000E+0	600.2366E-12	-26.2525E-9	103.7727E-12
44.0000E+0	615.2102E-12	-26.1876E-9	87.2720E-12
46.0000E+0	629.2956E-12	-26.0166E-9	48.0912E-12
48.0000E+0	649.6551E-12	-25.9227E-9	15.7619E-12
50.0000E+0	675.2242E-12	-25.8858E-9	56.5171E-12
50.1000E+0	676.0935E-12	-25.7114E-9	46.3231E-12
50.2000E+0	678.5345E-12	-25.8140E-9	61.8034E-12
50.3000E+0	680.1281E-12	-25.7534E-9	38.5480E-12
50.4000E+0	683.0102E-12	-25.8429E-9	64.1075E-12
50.5000E+0	684.9609E-12	-25.7721E-9	72.5637E-12
50.6000E+0	687.7330E-12	-25.7653E-9	55.9631E-12
50.7000E+0	691.6073E-12	-25.8810E-9	64.5737E-12
50.8000E+0	694.7337E-12	-26.0006E-9	44.7335E-12
50.9000E+0	700.0349E-12	-26.0637E-9	124.2336E-12
51.0000E+0	703.1620E-12	-26.2004E-9	133.5103E-12
51.1000E+0	711.3041E-12	-26.2051E-9	84.7227E-12
51.2000E+0	720.0986E-12	-26.2686E-9	113.1736E-12
51.3000E+0	732.4325E-12	-26.0263E-9	59.3177E-12
51.4000E+0	748.7407E-12	-26.0087E-9	68.6489E-12
51.5000E+0	779.7803E-12	-25.8363E-9	66.6204E-12
51.6000E+0	842.6868E-12	-25.8729E-9	46.8832E-12
51.7000E+0	1.0743E-9	-25.7792E-9	31.7116E-12
51.8000E+0	2.1587E-9	-25.7717E-9	30.3401E-12
51.9000E+0	7.2794E-9	-25.8893E-9	124.5787E-12
52.0000E+0	19.9052E-9	-25.7953E-9	62.8026E-12
52.1000E+0	40.0356E-9	-25.8459E-9	54.3433E-12
52.2000E+0	63.1891E-9	-25.9044E-9	74.3651E-12
52.3000E+0	92.7722E-9	-25.9756E-9	46.4169E-12
52.4000E+0	126.2901E-9	-26.0127E-9	47.7794E-12
52.5000E+0	166.4606E-9	-26.0941E-9	42.7807E-12
52.6000E+0	205.3943E-9	-26.1231E-9	29.7557E-12
52.7000E+0	250.6615E-9	-26.2549E-9	35.4720E-12
52.8000E+0	298.1817E-9	-26.2287E-9	92.3040E-12
52.9000E+0	356.1341E-9	-26.1306E-9	47.6249E-12
53.0000E+0	401.5651E-9	-25.9971E-9	98.3108E-12
53.1000E+0	459.1647E-9	-25.9676E-9	47.8157E-12
53.2000E+0	517.7736E-9	-25.9085E-9	119.0169E-12
53.3000E+0	575.2966E-9	-25.9462E-9	51.2642E-12
53.4000E+0	637.2536E-9	-25.8413E-9	78.8461E-12
53.5000E+0	712.0456E-9	-25.8455E-9	72.2216E-12
53.6000E+0	784.4372E-9	-25.9124E-9	84.6016E-12
53.7000E+0	859.5651E-9	-25.8575E-9	30.1372E-12
53.8000E+0	931.1441E-9	-25.8901E-9	82.8910E-12
53.9000E+0	997.2219E-9	-25.9889E-9	55.6179E-12
54.0000E+0	1.0720E-6	-26.1132E-9	67.9889E-12
54.1000E+0	1.1547E-6	-26.0882E-9	149.7627E-12
54.2000E+0	1.2356E-6	-26.1505E-9	80.1782E-12
54.3000E+0	1.3337E-6	-26.2091E-9	205.0628E-12
54.4000E+0	1.4003E-6	-26.2620E-9	66.5629E-12
54.5000E+0	1.5028E-6	-26.1115E-9	140.0712E-12
54.6000E+0	1.5828E-6	-25.9753E-9	91.2564E-12
54.7000E+0	1.6533E-6	-25.9470E-9	52.2027E-12
54.8000E+0	1.7350E-6	-25.8510E-9	64.6646E-12
54.9000E+0	1.8415E-6	-25.8688E-9	98.3381E-12
55.0000E+0	1.9231E-6	-25.8580E-9	92.9307E-12
55.1000E+0	2.0238E-6	-25.7874E-9	57.9795E-12
55.2000E+0	2.1225E-6	-25.8747E-9	63.9228E-12
55.3000E+0	2.1939E-6	-25.9214E-9	121.0061E-12
55.4000E+0	2.3187E-6	-25.9306E-9	98.1867E-12
55.5000E+0	2.4179E-6	-25.9815E-9	58.7304E-12
55.6000E+0	2.5334E-6	-25.9481E-9	65.2549E-12
55.7000E+0	2.6394E-6	-25.9935E-9	91.7772E-12
55.8000E+0	2.7528E-6	-26.1836E-9	60.4985E-12
55.9000E+0	2.8533E-6	-26.3476E-9	37.8668E-12
56.0000E+0	3.0014E-6	-26.1561E-9	79.6484E-12
56.1000E+0	3.0603E-6	-26.0817E-9	97.1876E-12
56.2000E+0	3.2003E-6	-25.9330E-9	110.9573E-12
56.3000E+0	3.3109E-6	-25.8698E-9	35.4447E-12
56.4000E+0	3.4140E-6	-25.9322E-9	39.0173E-12
56.5000E+0	3.5341E-6	-25.8948E-9	49.2478E-12
56.6000E+0	3.6656E-6	-25.8515E-9	41.2881E-12
56.7000E+0	3.7653E-6	-25.8619E-9	65.3458E-12
56.8000E+0	3.9053E-6	-25.8445E-9	39.6743E-12
56.9000E+0	4.0134E-6	-25.8746E-9	78.3162E-12
57.0000E+0	4.1787E-6	-25.9595E-9	100.1093E-12
57.1000E+0	4.2365E-6	-25.9649E-9	76.3906E-12
57.2000E+0	4.4547E-6	-25.9625E-9	115.2869E-12
57.3000E+0	4.5604E-6	-26.0473E-9	81.4226E-12
57.4000E+0	4.6933E-6	-25.9814E-9	132.8836E-12
57.5000E+0	4.8503E-6	-26.2043E-9	77.2626E-12
57.6000E+0	5.0574E-6	-26.2839E-9	78.0982E-12
57.7000E+0	5.1652E-6	-26.1051E-9	80.9563E-12
57.8000E+0	5.2882E-6	-25.8866E-9	93.6664E-12
57.9000E+0	5.4285E-6	-25.9427E-9	49.0298E-12
58.0000E+0	5.5546E-6	-25.8350E-9	34.8543E-12
58.1000E+0	5.7011E-6	-25.7776E-9	61.3069E-12
58.2000E+0	5.8774E-6	-25.8137E-9	49.6141E-12
58.3000E+0	5.9974E-6	-25.7892E-9	40.1043E-12
58.4000E+0	6.1237E-6	-25.7825E-9	35.1662E-12
58.5000E+0	6.2694E-6	-25.8202E-9	107.0123E-12
58.6000E+0	6.4810E-6	-25.8145E-9	54.4705E-12
58.7000E+0	6.6549E-6	-25.8536E-9	85.7733E-12
58.8000E+0	6.8309E-6	-26.0407E-9	64.2982E-12
58.9000E+0	7.0710E-6	-26.1234E-9	100.3000E-12
59.0000E+0	7.2370E-6	-26.2402E-9	82.6367E-12
59.1000E+0	7.5214E-6	-26.2345E-9	78.1921E-12
59.2000E+0	7.6211E-6	-26.1902E-9	39.1778E-12
59.3000E+0	7.8228E-6	-25.8493E-9	194.4660E-12
59.4000E+0	7.9952E-6	-25.9401E-9	98.6832E-12
59.5000E+0	8.1281E-6	-25.9641E-9	30.6005E-12
59.6000E+0	8.3363E-6	-25.9083E-9	33.2981E-12
59.7000E+0	8.4593E-6	-25.8519E-9	74.6467E-12
59.8000E+0	8.6635E-6	-25.9101E-9	64.0136E-12
59.9000E+0	8.9307E-6	-25.8294E-9	87.9230E-12
60.0000E+0	9.0214E-6	-25.8029E-9	58.0461E-12
60.1000E+0	9.3962E-6	-25.8857E-9	42.6535E-12
60.2000E+0	9.4745E-6	-25.9442E-9	52.4177E-12
60.3000E+0	9.8209E-6	-26.0517E-9	51.0159E-12
60.4000E+0	10.0401E-6	-26.0951E-9	34.5092E-12
60.5000E+0	10.3216E-6	-26.1473E-9	102.7766E-12
60.6000E+0	10.4503E-6	-26.0612E-9	146.0962E-12
60.7000E+0	10.7027E-6	-26.1393E-9	116.4888E-12
60.8000E+0	10.9435E-6	-26.0868E-9	18.3112E-12
60.9000E+0	11.1464E-6	-25.9571E-9	25.6503E-12
61.0000E+0	11.3418E-6	-25.8627E-9	98.2745E-12
61.1000E+0	11.6209E-6	-25.8510E-9	58.3519E-12
61.2000E+0	11.9422E-6	-25.7548E-9	35.6597E-12
61.3000E+0	12.0920E-6	-25.7486E-9	88.7919E-12
61.4000E+0	12.4390E-6	-25.7426E-9	34.0126E-12
61.5000E+0	12.5670E-6	-25.7492E-9	56.9319E-12
61.6000E+0	12.9638E-6	-25.7839E-9	90.9658E-12
61.7000E+0	13.3241E-6	-25.7800E-9	46.7288E-12
61.8000E+0	13.5248E-6	-25.8929E-9	45.6661E-12
61.9000E+0	13.7964E-6	-25.7463E-9	100.0184E-12
62.0000E+0	14.2397E-6	-25.9825E-9	49.1539E-12
62.1000E+0	14.5452E-6	-26.1004E-9	39.9529E-12
62.2000E+0	14.8667E-6	-26.1561E-9	42.2266E-12
62.3000E+0	15.1912E-6	-26.3051E-9	113.8518E-12
62.4000E+0	15.7215E-6	-26.0883E-9	116.7734E-12
62.5000E+0	15.8978E-6	-26.1723E-9	78.5645E-12
62.6000E+0	16.2706E-6	-26.0018E-9	19.8311E-12
62.7000E+0	16.4713E-6	-25.9407E-9	46.0475E-12
62.8000E+0	17.0267E-6	-26.0617E-9	100.2758E-12
62.9000E+0	17.1972E-6	-25.9614E-9	67.6165E-12
63.0000E+0	17.5731E-6	-25.9114E-9	71.0711E-12
63.1000E+0	17.9046E-6	-25.9860E-9	62.0547E-12
63.2000E+0	18.2678E-6	-25.9246E-9	100.9176E-12
63.3000E+0	18.6860E-6	-25.9171E-9	99.7641E-12
63.4000E+0	19.0016E-6	-26.0249E-9	53.1050E-12
63.5000E+0	19.5309E-6	-26.0536E-9	69.1485E-12
63.6000E+0	20.0148E-6	-26.0204E-9	142.7053E-12
63.7000E+0	20.2860E-6	-26.2122E-9	97.9294E-12
63.8000E+0	20.8025E-6	-26.2381E-9	65.5032E-12
63.9000E+0	21.2123E-6	-26.2899E-9	51.0492E-12
