Voltage(V)	Current(A)	DiodeCurrent(A)	DiodeCurrent Std(A)
0.0000E+0	5.5690E-12	-1.7277E-9	4.7141E-12
2.0000E+0	32.5169E-12	-1.7277E-9	2.2096E-12
4.0000E+0	58.6747E-12	-1.7253E-9	5.1528E-12
6.0000E+0	159.7979E-12	-1.7264E-9	4.6226E-12
8.0000E+0	211.2316E-12	-1.7237E-9	3.7279E-12
10.0000E+0	250.5859E-12	-1.7232E-9	4.3831E-12
12.0000E+0	279.4829E-12	-1.7171E-9	1.8451E-12
14.0000E+0	308.6067E-12	-1.7129E-9	2.2305E-12
16.0000E+0	334.4398E-12	-1.7048E-9	2.2713E-12
18.0000E+0	366.2354E-12	-1.7086E-9	3.3404E-12
20.0000E+0	400.7795E-12	-1.7142E-9	3.0610E-12
22.0000E+0	434.2171E-12	-1.7235E-9	5.5557E-12
24.0000E+0	468.4889E-12	-1.7236E-9	3.1191E-12
26.0000E+0	490.6387E-12	-1.7232E-9	5.4501E-12
28.0000E+0	505.5614E-12	-1.7244E-9	1.9356E-12
30.0000E+0	516.4446E-12	-1.7210E-9	2.8672E-12
32.0000E+0	525.5132E-12	-1.7299E-9	4.5091E-12
34.0000E+0	535.2757E-12	-1.7254E-9	3.5484E-12
36.0000E+0	546.8951E-12	-1.7204E-9	971.5730E-15
38.0000E+0	557.6464E-12	-1.7220E-9	4.2314E-12
40.0000E+0	569.7147E-12	-1.7163E-9	3.6629E-12
42.0000E+0	582.6904E-12	-1.7139E-9	1.7482E-12
44.0000E+0	595.1861E-12	-1.7162E-9	4.8797E-12
46.0000E+0	610.0776E-12	-1.7184E-9	3.3795E-12
48.0000E+0	626.2015E-12	-1.7153E-9	3.0940E-12
50.0000E+0	643.9336E-12	-1.7126E-9	3.9517E-12
50.1000E+0	644.3129E-12	-1.7164E-9	2.8157E-12
50.2000E+0	645.0330E-12	-1.7168E-9	2.8629E-12
50.3000E+0	646.2504E-12	-1.7178E-9	3.9078E-12
50.4000E+0	647.7276E-12	-1.7189E-9	3.2117E-12
50.5000E+0	648.6150E-12	-1.7165E-9	2.1757E-12
50.6000E+0	649.2156E-12	-1.7229E-9	3.3952E-12
50.7000E+0	651.5199E-12	-1.7184E-9	2.7724E-12
50.8000E+0	651.2775E-12	-1.7204E-9	4.6580E-12
50.9000E+0	654.5514E-12	-1.7160E-9	2.9795E-12
51.0000E+0	655.5655E-12	-1.7155E-9	1.2598E-12
51.1000E+0	656.6282E-12	-1.7079E-9	1.2858E-12
51.2000E+0	659.4572E-12	-1.7081E-9	3.5372E-12
51.3000E+0	662.1166E-12	-1.7104E-9	4.4985E-12
51.4000E+0	666.4962E-12	-1.7155E-9	4.2974E-12
51.5000E+0	672.5975E-12	-1.7227E-9	3.4975E-12
51.6000E+0	686.2289E-12	-1.7256E-9	3.0055E-12
51.7000E+0	744.9992E-12	-1.7246E-9	1.4484E-12
51.8000E+0	1.0549E-9	-1.7241E-9	1.6004E-12
51.9000E+0	2.1427E-9	-1.7272E-9	1.6728E-12
52.0000E+0	4.3736E-9	-1.7275E-9	3.6837E-12
52.1000E+0	7.7123E-9	-1.7280E-9	5.6242E-12
52.2000E+0	12.1042E-9	-1.7262E-9	3.7927E-12
52.3000E+0	17.0140E-9	-1.7238E-9	4.6847E-12
52.4000E+0	21.8685E-9	-1.7220E-9	3.0567E-12
52.5000E+0	28.0047E-9	-1.7105E-9	3.8654E-12
52.6000E+0	34.3558E-9	-1.7075E-9	6.7544E-12
52.7000E+0	44.0598E-9	-1.7103E-9	2.7291E-12
52.8000E+0	50.2120E-9	-1.7124E-9	3.0095E-12
52.9000E+0	59.6773E-9	-1.7196E-9	2.7497E-12
53.0000E+0	68.9730E-9	-1.7205E-9	4.1058E-12
53.1000E+0	78.6148E-9	-1.7274E-9	4.6789E-12
53.2000E+0	91.3582E-9	-1.7294E-9	4.7340E-12
53.3000E+0	98.7542E-9	-1.7296E-9	5.2572E-12
53.4000E+0	109.1414E-9	-1.7261E-9	3.7740E-12
53.5000E+0	121.8359E-9	-1.7233E-9	2.8227E-12
53.6000E+0	133.9545E-9	-1.7239E-9	3.0331E-12
53.7000E+0	146.4212E-9	-1.7266E-9	3.8354E-12
53.8000E+0	161.3834E-9	-1.7242E-9	2.8418E-12
53.9000E+0	173.4135E-9	-1.7246E-9	1.7869E-12
54.0000E+0	188.1856E-9	-1.7194E-9	4.6147E-12
54.1000E+0	207.1096E-9	-1.7152E-9	2.4245E-12
54.2000E+0	218.6753E-9	-1.7099E-9	2.2974E-12
54.3000E+0	232.5323E-9	-1.7079E-9	4.2959E-12
54.4000E+0	246.3419E-9	-1.7095E-9	1.6676E-12
54.5000E+0	268.2089E-9	-1.7173E-9	3.6632E-12
54.6000E+0	280.2725E-9	-1.7244E-9	3.9756E-12
54.7000E+0	298.3251E-9	-1.7211E-9	2.9901E-12
54.8000E+0	321.9882E-9	-1.7255E-9	4.0564E-12
54.9000E+0	337.5425E-9	-1.7229E-9	2.5659E-12
55.0000E+0	350.1320E-9	-1.7270E-9	3.9266E-12
55.1000E+0	375.8051E-9	-1.7237E-9	1.9329E-12
55.2000E+0	400.9615E-9	-1.7250E-9	3.6877E-12
55.3000E+0	411.0232E-9	-1.7250E-9	4.3189E-12
55.4000E+0	435.3589E-9	-1.7186E-9	3.2145E-12
55.5000E+0	450.4657E-9	-1.7218E-9	6.0075E-12
55.6000E+0	483.9271E-9	-1.7135E-9	2.3703E-12
55.7000E+0	495.1448E-9	-1.7075E-9	1.8342E-12
55.8000E+0	517.8075E-9	-1.7165E-9	4.7543E-12
55.9000E+0	551.2722E-9	-1.7205E-9	4.1645E-12
56.0000E+0	569.5539E-9	-1.7276E-9	4.1349E-12
56.1000E+0	602.9768E-9	-1.7248E-9	2.1787E-12
56.2000E+0	624.6150E-9	-1.7253E-9	1.1841E-12
56.3000E+0	644.0132E-9	-1.7328E-9	6.3681E-12
56.4000E+0	674.3522E-9	-1.7334E-9	5.5061E-12
56.5000E+0	703.2927E-9	-1.7296E-9	3.4331E-12
56.6000E+0	711.1109E-9	-1.7296E-9	6.0187E-12
56.7000E+0	757.6505E-9	-1.7195E-9	1.9483E-12
56.8000E+0	773.0359E-9	-1.7231E-9	1.3942E-12
56.9000E+0	793.8314E-9	-1.7197E-9	2.9153E-12
57.0000E+0	839.9855E-9	-1.7167E-9	4.7822E-12
57.1000E+0	865.1127E-9	-1.7120E-9	4.8297E-12
57.2000E+0	896.9855E-9	-1.7085E-9	3.0622E-12
57.3000E+0	923.4103E-9	-1.7119E-9	4.4985E-12
57.4000E+0	960.1894E-9	-1.7125E-9	2.2420E-12
57.5000E+0	993.2210E-9	-1.7209E-9	5.1500E-12
57.6000E+0	1.0273E-6	-1.7238E-9	2.6822E-12
57.7000E+0	1.0585E-6	-1.7271E-9	4.8760E-12
57.8000E+0	1.0836E-6	-1.7322E-9	4.0334E-12
57.9000E+0	1.1259E-6	-1.7286E-9	1.6413E-12
58.0000E+0	1.1643E-6	-1.7286E-9	3.7861E-12
58.1000E+0	1.1982E-6	-1.7297E-9	4.7558E-12
58.2000E+0	1.2228E-6	-1.7301E-9	2.4212E-12
58.3000E+0	1.3101E-6	-1.7206E-9	2.9859E-12
58.4000E+0	1.3262E-6	-1.7092E-9	2.9374E-12
58.5000E+0	1.3630E-6	-1.7105E-9	3.1972E-12
58.6000E+0	1.3901E-6	-1.7091E-9	2.3467E-12
58.7000E+0	1.4493E-6	-1.7215E-9	3.7358E-12
58.8000E+0	1.4873E-6	-1.7201E-9	2.7137E-12
58.9000E+0	1.5233E-6	-1.7236E-9	918.2864E-15
59.0000E+0	1.5893E-6	-1.7289E-9	4.9862E-12
59.1000E+0	1.6086E-6	-1.7324E-9	5.1603E-12
59.2000E+0	1.6501E-6	-1.7321E-9	3.7700E-12
59.3000E+0	1.7061E-6	-1.7262E-9	2.7549E-12
59.4000E+0	1.7637E-6	-1.7263E-9	4.1748E-12
59.5000E+0	1.8001E-6	-1.7240E-9	1.9695E-12
59.6000E+0	1.8294E-6	-1.7191E-9	2.8442E-12
59.7000E+0	1.9345E-6	-1.7171E-9	4.4600E-12
59.8000E+0	1.9591E-6	-1.7127E-9	4.4718E-12
59.9000E+0	2.0135E-6	-1.7081E-9	2.9992E-12
60.0000E+0	2.0368E-6	-1.7130E-9	3.4403E-12
60.1000E+0	2.1285E-6	-1.7216E-9	6.0063E-12
60.2000E+0	2.1959E-6	-1.7191E-9	2.1454E-12
60.3000E+0	2.2315E-6	-1.7264E-9	2.3794E-12
60.4000E+0	2.2622E-6	-1.7258E-9	5.5588E-12
60.5000E+0	2.3215E-6	-1.7202E-9	3.9390E-12
60.6000E+0	2.4188E-6	-1.7239E-9	3.2941E-12
60.7000E+0	2.4528E-6	-1.7168E-9	3.3819E-12
60.8000E+0	2.5663E-6	-1.7238E-9	3.2372E-12
60.9000E+0	2.6228E-6	-1.7196E-9	2.4497E-12
61.0000E+0	2.7242E-6	-1.7167E-9	2.7515E-12
61.1000E+0	2.7654E-6	-1.7227E-9	6.7895E-12
61.2000E+0	2.8354E-6	-1.7188E-9	3.2853E-12
61.3000E+0	2.9692E-6	-1.7193E-9	4.2054E-12
61.4000E+0	2.9689E-6	-1.7156E-9	1.6707E-12
61.5000E+0	3.0968E-6	-1.7148E-9	5.9984E-12
61.6000E+0	3.1255E-6	-1.7089E-9	1.3255E-12
61.7000E+0	3.2365E-6	-1.7118E-9	4.7537E-12
61.8000E+0	3.3160E-6	-1.7110E-9	4.3153E-12
61.9000E+0	3.4013E-6	-1.7127E-9	3.9562E-12
62.0000E+0	3.4968E-6	-1.7124E-9	1.5826E-12
62.1000E+0	3.5299E-6	-1.7133E-9	3.0582E-12
62.2000E+0	3.6781E-6	-1.7170E-9	2.4367E-12
62.3000E+0	3.7086E-6	-1.7213E-9	3.4703E-12
62.4000E+0	3.8653E-6	-1.7225E-9	5.8376E-12
62.5000E+0	3.9892E-6	-1.7219E-9	3.8164E-12
62.6000E+0	3.9739E-6	-1.7196E-9	3.4509E-12
62.7000E+0	4.1009E-6	-1.7221E-9	3.4594E-12
62.8000E+0	4.2356E-6	-1.7242E-9	3.2662E-12
62.9000E+0	4.3458E-6	-1.7149E-9	933.4246E-15
63.0000E+0	4.4218E-6	-1.7149E-9	3.5978E-12
63.1000E+0	4.5578E-6	-1.7086E-9	3.7373E-12
63.2000E+0	4.6238E-6	-1.7000E-9	4.6154E-12
63.3000E+0	4.7823E-6	-1.7139E-9	3.8357E-12
63.4000E+0	4.9171E-6	-1.7175E-9	4.2666E-12
63.5000E+0	4.9961E-6	-1.7175E-9	1.7657E-12
63.6000E+0	5.1223E-6	-1.7220E-9	3.1633E-12
63.7000E+0	5.1671E-6	-1.7248E-9	2.1502E-12
63.8000E+0	5.4223E-6	-1.7299E-9	2.2583E-12
63.9000E+0	5.5215E-6	-1.7272E-9	5.2557E-12
