Voltage(V)	Current(A)	DiodeCurrent(A)	DiodeCurrent Std(A)
0.0000E+0	3.0122E-12	-60.8691E-9	416.9044E-12
2.0000E+0	39.4824E-12	-60.5682E-9	91.1777E-12
4.0000E+0	65.3315E-12	-60.7690E-9	233.8618E-12
6.0000E+0	174.4744E-12	-60.8557E-9	394.6482E-12
8.0000E+0	227.0635E-12	-60.6940E-9	346.6266E-12
10.0000E+0	268.6473E-12	-60.4442E-9	189.3099E-12
12.0000E+0	298.7353E-12	-60.3672E-9	250.6561E-12
14.0000E+0	329.3149E-12	-60.3987E-9	221.9237E-12
16.0000E+0	358.5709E-12	-60.4880E-9	322.1147E-12
18.0000E+0	391.8907E-12	-60.6177E-9	208.6172E-12
20.0000E+0	425.9701E-12	-60.5225E-9	100.9419E-12
22.0000E+0	464.5186E-12	-60.6778E-9	434.3043E-12
24.0000E+0	500.3393E-12	-60.4090E-9	224.8969E-12
26.0000E+0	524.4146E-12	-60.6346E-9	252.6029E-12
28.0000E+0	541.1666E-12	-60.6023E-9	172.0523E-12
30.0000E+0	551.5324E-12	-60.5519E-9	81.7011E-12
32.0000E+0	563.6024E-12	-60.5173E-9	222.6383E-12
34.0000E+0	572.9023E-12	-60.5112E-9	93.7784E-12
36.0000E+0	585.3115E-12	-60.5567E-9	440.0841E-12
38.0000E+0	597.1709E-12	-60.5733E-9	200.1186E-12
40.0000E+0	613.9454E-12	-60.8287E-9	315.7991E-12
42.0000E+0	628.0599E-12	-60.6712E-9	360.5932E-12
44.0000E+0	645.7043E-12	-60.3654E-9	275.4314E-12
46.0000E+0	666.5832E-12	-60.2997E-9	306.1045E-12
48.0000E+0	694.9841E-12	-60.4091E-9	366.2518E-12
50.0000E+0	751.0459E-12	-61.0747E-9	232.4176E-12
50.1000E+0	756.2704E-12	-60.8827E-9	318.1970E-12
50.2000E+0	761.7215E-12	-60.6080E-9	130.0346E-12
50.3000E+0	768.7858E-12	-60.6721E-9	228.1092E-12
50.4000E+0	774.9599E-12	-60.6388E-9	197.0788E-12
50.5000E+0	783.3448E-12	-60.7260E-9	294.1090E-12
50.6000E+0	791.9549E-12	-61.0204E-9	469.5099E-12
50.7000E+0	803.6620E-12	-60.5200E-9	199.7190E-12
50.8000E+0	816.2099E-12	-60.4932E-9	166.5389E-12
50.9000E+0	833.0163E-12	-60.3772E-9	135.7568E-12
51.0000E+0	852.9778E-12	-60.4132E-9	189.0465E-12
51.1000E+0	878.9065E-12	-60.6480E-9	322.1481E-12
51.2000E+0	913.9325E-12	-60.5619E-9	147.7342E-12
51.3000E+0	960.9870E-12	-60.6189E-9	259.8814E-12
51.4000E+0	1.0337E-9	-61.0837E-9	288.7561E-12
51.5000E+0	1.1638E-9	-61.0254E-9	382.7313E-12
51.6000E+0	1.4309E-9	-60.9310E-9	217.0734E-12
51.7000E+0	2.2126E-9	-61.1149E-9	305.3840E-12
51.8000E+0	6.3879E-9	-60.5813E-9	217.6305E-12
51.9000E+0	25.5312E-9	-60.7494E-9	234.1010E-12
52.0000E+0	78.0393E-9	-60.3867E-9	172.2733E-12
52.1000E+0	159.9432E-9	-60.8040E-9	178.4921E-12
52.2000E+0	264.8998E-9	-60.3226E-9	227.3887E-12
52.3000E+0	389.1569E-9	-60.4389E-9	218.7689E-12
52.4000E+0	524.2246E-9	-60.3809E-9	293.4974E-12
52.5000E+0	678.1695E-9	-60.1438E-9	384.3572E-12
52.6000E+0	848.0298E-9	-60.5750E-9	142.2178E-12
52.7000E+0	1.0294E-6	-60.7261E-9	392.2896E-12
52.8000E+0	1.2292E-6	-60.8219E-9	376.7608E-12
52.9000E+0	1.4378E-6	-60.7533E-9	204.6026E-12
53.0000E+0	1.6474E-6	-60.6822E-9	133.1682E-12
53.1000E+0	1.8781E-6	-60.8564E-9	433.0660E-12
53.2000E+0	2.0962E-6	-60.7892E-9	89.8031E-12
53.3000E+0	2.3346E-6	-60.2604E-9	171.7071E-12
53.4000E+0	2.6013E-6	-60.5099E-9	80.1449E-12
53.5000E+0	2.8377E-6	-60.6778E-9	272.3371E-12
53.6000E+0	3.0703E-6	-61.0720E-9	367.9110E-12
53.7000E+0	3.3773E-6	-60.5175E-9	263.4661E-12
53.8000E+0	3.6244E-6	-60.3240E-9	118.9534E-12
53.9000E+0	3.9092E-6	-60.4204E-9	405.2298E-12
54.0000E+0	4.2297E-6	-60.8242E-9	337.2015E-12
54.1000E+0	4.5018E-6	-60.6225E-9	255.0523E-12
54.2000E+0	4.7209E-6	-60.4216E-9	220.6219E-12
54.3000E+0	5.0351E-6	-60.5842E-9	427.8100E-12
54.4000E+0	5.3116E-6	-60.8265E-9	242.3755E-12
54.5000E+0	5.5901E-6	-60.5482E-9	137.6763E-12
54.6000E+0	5.9362E-6	-60.4606E-9	107.6693E-12
54.7000E+0	6.2214E-6	-60.5480E-9	245.6454E-12
54.8000E+0	6.5219E-6	-60.8664E-9	375.4256E-12
54.9000E+0	6.8661E-6	-60.9840E-9	238.0399E-12
55.0000E+0	7.1254E-6	-60.1524E-9	438.9336E-12
55.1000E+0	7.5263E-6	-60.2752E-9	172.5185E-12
55.2000E+0	7.6989E-6	-60.2999E-9	465.2923E-12
55.3000E+0	8.0723E-6	-60.6975E-9	294.8992E-12
55.4000E+0	8.5122E-6	-60.6388E-9	208.8443E-12
55.5000E+0	8.7567E-6	-60.5852E-9	392.8134E-12
55.6000E+0	9.1765E-6	-60.8305E-9	419.4537E-12
55.7000E+0	9.5007E-6	-60.5106E-9	173.2210E-12
55.8000E+0	9.8596E-6	-60.7247E-9	245.2578E-12
55.9000E+0	10.1957E-6	-60.7826E-9	50.9887E-12
56.0000E+0	10.5029E-6	-60.6193E-9	652.6040E-12
56.1000E+0	10.8718E-6	-60.4959E-9	148.3458E-12
56.2000E+0	11.2492E-6	-60.5276E-9	117.3063E-12
56.3000E+0	11.5305E-6	-60.7418E-9	397.4669E-12
56.4000E+0	11.9730E-6	-60.6509E-9	383.6003E-12
56.5000E+0	12.2788E-6	-60.2965E-9	50.6829E-12
56.6000E+0	12.6666E-6	-60.5550E-9	151.7458E-12
56.7000E+0	13.0237E-6	-60.6434E-9	181.3411E-12
56.8000E+0	13.3393E-6	-60.5959E-9	74.3954E-12
56.9000E+0	13.7749E-6	-61.1007E-9	296.7975E-12
57.0000E+0	14.0616E-6	-60.8480E-9	290.1640E-12
57.1000E+0	14.7096E-6	-60.6875E-9	124.6665E-12
57.2000E+0	14.9745E-6	-60.5577E-9	292.3106E-12
57.3000E+0	15.2836E-6	-60.8186E-9	255.0765E-12
57.4000E+0	15.7418E-6	-61.0849E-9	279.7276E-12
57.5000E+0	16.3396E-6	-60.7410E-9	532.6333E-12
57.6000E+0	16.4615E-6	-60.9808E-9	359.3034E-12
57.7000E+0	16.9602E-6	-61.1586E-9	355.3917E-12
57.8000E+0	17.4079E-6	-60.2213E-9	206.4373E-12
57.9000E+0	17.7529E-6	-60.4452E-9	238.2125E-12
58.0000E+0	18.1571E-6	-60.5012E-9	282.8158E-12
58.1000E+0	18.5081E-6	-60.4508E-9	471.0418E-12
58.2000E+0	19.1135E-6	-60.4015E-9	235.6602E-12
58.3000E+0	19.6325E-6	-60.6848E-9	556.2641E-12
58.4000E+0	20.1094E-6	-60.7132E-9	151.5036E-12
58.5000E+0	20.2488E-6	-60.7379E-9	237.2527E-12
58.6000E+0	20.7905E-6	-60.8074E-9	344.1348E-12
58.7000E+0	21.1782E-6	-60.6173E-9	228.5028E-12
58.8000E+0	21.5765E-6	-60.6111E-9	419.2902E-12
58.9000E+0	22.0136E-6	-60.3981E-9	125.7413E-12
59.0000E+0	22.6482E-6	-60.4080E-9	131.6907E-12
59.1000E+0	23.0177E-6	-60.3784E-9	288.7561E-12
59.2000E+0	23.5919E-6	-60.5703E-9	332.9719E-12
59.3000E+0	24.1616E-6	-60.7215E-9	104.4872E-12
59.4000E+0	24.3569E-6	-60.3213E-9	139.8351E-12
59.5000E+0	24.8349E-6	-60.2946E-9	298.8473E-12
59.6000E+0	25.4603E-6	-60.2768E-9	225.0029E-12
59.7000E+0	25.9744E-6	-60.5432E-9	423.6682E-12
59.8000E+0	26.5964E-6	-60.5614E-9	301.4813E-12
59.9000E+0	27.1226E-6	-60.4972E-9	118.7233E-12
60.0000E+0	27.6944E-6	-60.7877E-9	320.9491E-12
60.1000E+0	28.2513E-6	-61.1264E-9	254.0986E-12
60.2000E+0	28.7688E-6	-60.4733E-9	233.3652E-12
60.3000E+0	29.1861E-6	-60.6641E-9	189.2645E-12
60.4000E+0	30.0250E-6	-60.4019E-9	180.6871E-12
60.5000E+0	30.5468E-6	-60.5459E-9	114.6299E-12
60.6000E+0	31.1868E-6	-60.4946E-9	198.4928E-12
60.7000E+0	32.1559E-6	-60.7207E-9	588.6297E-12
60.8000E+0	32.6761E-6	-60.6830E-9	202.7769E-12
60.9000E+0	32.6035E-6	-60.6481E-9	210.2158E-12
61.0000E+0	33.5250E-6	-60.5392E-9	428.1461E-12
61.1000E+0	34.0948E-6	-59.9393E-9	364.8349E-12
61.2000E+0	34.1428E-6	-60.1891E-9	311.2848E-12
61.3000E+0	35.4037E-6	-60.3545E-9	296.4312E-12
61.4000E+0	35.9040E-6	-60.8727E-9	312.5655E-12
61.5000E+0	36.7213E-6	-60.6550E-9	249.6510E-12
61.6000E+0	37.5353E-6	-60.6876E-9	81.8586E-12
61.7000E+0	38.6101E-6	-60.3918E-9	160.1597E-12
61.8000E+0	38.5694E-6	-60.6475E-9	120.2522E-12
61.9000E+0	39.6166E-6	-60.6168E-9	218.1907E-12
62.0000E+0	39.8952E-6	-60.8530E-9	315.7234E-12
62.1000E+0	40.9114E-6	-60.4982E-9	164.9948E-12
62.2000E+0	41.7516E-6	-60.5597E-9	328.1156E-12
62.3000E+0	42.2770E-6	-60.5028E-9	255.9394E-12
62.4000E+0	43.0077E-6	-60.7237E-9	256.6388E-12
62.5000E+0	43.6333E-6	-60.8194E-9	311.7784E-12
62.6000E+0	45.0878E-6	-60.3003E-9	103.0612E-12
62.7000E+0	45.6542E-6	-60.5123E-9	215.2114E-12
62.8000E+0	46.7544E-6	-60.0739E-9	454.0567E-12
62.9000E+0	47.4348E-6	-60.4316E-9	397.3397E-12
63.0000E+0	48.2865E-6	-61.0670E-9	305.7412E-12
63.1000E+0	48.9585E-6	-60.6393E-9	135.9839E-12
63.2000E+0	49.8974E-6	-60.6288E-9	83.6873E-12
63.3000E+0	51.1516E-6	-60.6932E-9	58.2702E-12
63.4000E+0	51.7391E-6	-60.7093E-9	228.5149E-12
63.5000E+0	53.0812E-6	-60.3914E-9	164.9524E-12
63.6000E+0	53.0742E-6	-60.7877E-9	242.8266E-12
63.7000E+0	54.2561E-6	-60.4680E-9	285.4983E-12
63.8000E+0	54.7520E-6	-60.7045E-9	278.2411E-12
63.9000E+0	56.6270E-6	-60.1984E-9	246.5476E-12
