Voltage(V)	Current(A)	DiodeCurrent(A)	DiodeCurrent Std(A)
0.0000E+0	5.8968E-12	-79.5336E-9	515.3515E-12
2.0000E+0	37.9764E-12	-79.3093E-9	459.6670E-12
4.0000E+0	69.7628E-12	-79.1354E-9	479.1105E-12
6.0000E+0	177.3589E-12	-79.5112E-9	237.0741E-12
8.0000E+0	231.6981E-12	-79.1005E-9	581.5814E-12
10.0000E+0	270.5357E-12	-79.2151E-9	367.5446E-12
12.0000E+0	307.1658E-12	-79.7299E-9	252.2275E-12
14.0000E+0	335.0025E-12	-80.1817E-9	147.8069E-12
16.0000E+0	362.2353E-12	-79.6502E-9	181.6923E-12
18.0000E+0	397.4011E-12	-79.6655E-9	419.7777E-12
20.0000E+0	433.8100E-12	-79.4213E-9	84.0234E-12
22.0000E+0	468.9174E-12	-79.4851E-9	478.0690E-12
24.0000E+0	506.5970E-12	-79.2971E-9	149.1632E-12
26.0000E+0	531.4409E-12	-79.5448E-9	229.9833E-12
28.0000E+0	547.1412E-12	-79.6364E-9	367.6113E-12
30.0000E+0	560.0605E-12	-79.8122E-9	360.7112E-12
32.0000E+0	570.0694E-12	-79.5391E-9	142.4267E-12
34.0000E+0	581.6056E-12	-79.3938E-9	477.9358E-12
36.0000E+0	594.6094E-12	-78.9723E-9	156.9897E-12
38.0000E+0	606.1460E-12	-79.4392E-9	255.2279E-12
40.0000E+0	620.8186E-12	-79.2417E-9	457.3781E-12
42.0000E+0	638.7202E-12	-79.6935E-9	281.4746E-12
44.0000E+0	656.7211E-12	-80.0235E-9	262.2339E-12
46.0000E+0	680.2801E-12	-79.8014E-9	219.5591E-12
48.0000E+0	715.7004E-12	-79.6877E-9	354.2775E-12
50.0000E+0	790.4114E-12	-79.6188E-9	142.5297E-12
50.1000E+0	797.3966E-12	-79.4350E-9	300.7183E-12
50.2000E+0	805.0679E-12	-79.6591E-9	367.8353E-12
50.3000E+0	814.8688E-12	-79.3767E-9	216.7283E-12
50.4000E+0	823.3187E-12	-79.6672E-9	322.8172E-12
50.5000E+0	837.4527E-12	-79.3002E-9	354.6499E-12
50.6000E+0	850.5296E-12	-79.7043E-9	193.0672E-12
50.7000E+0	864.8022E-12	-79.5500E-9	330.2228E-12
50.8000E+0	886.1016E-12	-79.2478E-9	333.3171E-12
50.9000E+0	910.3919E-12	-78.9166E-9	354.6832E-12
51.0000E+0	935.9445E-12	-78.7033E-9	492.0931E-12
51.1000E+0	971.1174E-12	-79.3538E-9	307.2338E-12
51.2000E+0	1.0197E-9	-79.4596E-9	318.8782E-12
51.3000E+0	1.0961E-9	-79.6751E-9	344.2650E-12
51.4000E+0	1.2056E-9	-80.0121E-9	412.6718E-12
51.5000E+0	1.3836E-9	-80.1822E-9	443.3873E-12
51.6000E+0	1.7700E-9	-79.5361E-9	130.0527E-12
51.7000E+0	2.8952E-9	-80.2754E-9	372.5403E-12
51.8000E+0	8.4787E-9	-79.9312E-9	240.8435E-12
51.9000E+0	35.6675E-9	-79.5460E-9	292.4952E-12
52.0000E+0	112.9127E-9	-79.5311E-9	523.0508E-12
52.1000E+0	232.8884E-9	-79.2243E-9	255.4065E-12
52.2000E+0	375.4336E-9	-79.6732E-9	311.2364E-12
52.3000E+0	567.3908E-9	-79.5047E-9	485.6260E-12
52.4000E+0	785.0236E-9	-79.9425E-9	380.8058E-12
52.5000E+0	1.0083E-6	-79.4727E-9	245.4395E-12
52.6000E+0	1.2639E-6	-79.2927E-9	226.0474E-12
52.7000E+0	1.5279E-6	-79.9056E-9	347.7589E-12
52.8000E+0	1.8130E-6	-79.8533E-9	312.3264E-12
52.9000E+0	2.1562E-6	-79.3711E-9	344.9977E-12
53.0000E+0	2.4453E-6	-79.7462E-9	397.7000E-12
53.1000E+0	2.8000E-6	-79.8501E-9	258.2162E-12
53.2000E+0	3.1252E-6	-79.7282E-9	408.6813E-12
53.3000E+0	3.4687E-6	-79.9011E-9	333.5199E-12
53.4000E+0	3.8327E-6	-79.4520E-9	217.5276E-12
53.5000E+0	4.1841E-6	-79.4410E-9	270.7416E-12
53.6000E+0	4.5927E-6	-79.6901E-9	536.8872E-12
53.7000E+0	4.9918E-6	-79.3347E-9	258.4705E-12
53.8000E+0	5.4575E-6	-79.0954E-9	388.1811E-12
53.9000E+0	5.7882E-6	-78.8630E-9	464.5808E-12
54.0000E+0	6.1852E-6	-79.1361E-9	503.0169E-12
54.1000E+0	6.6222E-6	-79.5769E-9	437.1322E-12
54.2000E+0	7.1160E-6	-80.0274E-9	119.7617E-12
54.3000E+0	7.5311E-6	-79.9408E-9	426.3840E-12
54.4000E+0	7.9760E-6	-79.7407E-9	123.5675E-12
54.5000E+0	8.3632E-6	-79.6321E-9	503.5679E-12
54.6000E+0	8.9042E-6	-79.7133E-9	131.8451E-12
54.7000E+0	9.3403E-6	-79.6955E-9	267.8260E-12
54.8000E+0	9.7537E-6	-79.2655E-9	236.6381E-12
54.9000E+0	10.1743E-6	-79.8642E-9	351.8099E-12
55.0000E+0	10.6440E-6	-79.2571E-9	369.0706E-12
55.1000E+0	11.1163E-6	-79.5741E-9	170.1267E-12
55.2000E+0	11.5312E-6	-79.3787E-9	385.1535E-12
55.3000E+0	12.0760E-6	-79.4612E-9	123.0952E-12
55.4000E+0	12.5783E-6	-79.3493E-9	207.9723E-12
55.5000E+0	12.9679E-6	-79.1575E-9	362.0858E-12
55.6000E+0	13.5259E-6	-79.3598E-9	398.9081E-12
55.7000E+0	14.0783E-6	-79.4300E-9	257.2352E-12
55.8000E+0	14.5451E-6	-79.6469E-9	363.5391E-12
55.9000E+0	15.0344E-6	-79.9218E-9	159.5875E-12
56.0000E+0	15.5899E-6	-79.6371E-9	265.6460E-12
56.1000E+0	16.0722E-6	-79.6406E-9	368.6437E-12
56.2000E+0	16.5741E-6	-79.8862E-9	399.4470E-12
56.3000E+0	17.1820E-6	-79.4395E-9	170.2175E-12
56.4000E+0	17.6110E-6	-79.6114E-9	364.2778E-12
56.5000E+0	18.2196E-6	-79.6631E-9	276.2580E-12
56.6000E+0	18.7780E-6	-79.6786E-9	244.9157E-12
56.7000E+0	19.3602E-6	-79.7239E-9	311.0729E-12
56.8000E+0	19.7267E-6	-79.9729E-9	604.8943E-12
56.9000E+0	20.3074E-6	-79.6385E-9	203.0918E-12
57.0000E+0	20.8886E-6	-79.4227E-9	608.6909E-12
57.1000E+0	21.5138E-6	-78.9555E-9	365.5040E-12
57.2000E+0	21.9707E-6	-79.4084E-9	217.2006E-12
57.3000E+0	22.6055E-6	-79.9716E-9	270.0028E-12
57.4000E+0	23.1072E-6	-79.9151E-9	281.8864E-12
57.5000E+0	23.7327E-6	-79.6464E-9	393.0526E-12
57.6000E+0	24.3509E-6	-79.7185E-9	369.2855E-12
57.7000E+0	25.2676E-6	-79.7249E-9	116.6978E-12
57.8000E+0	25.4520E-6	-79.6694E-9	436.2148E-12
57.9000E+0	26.0860E-6	-79.6541E-9	192.8886E-12
58.0000E+0	26.7847E-6	-79.4826E-9	359.0491E-12
58.1000E+0	27.2906E-6	-79.8022E-9	426.8321E-12
58.2000E+0	27.9730E-6	-79.5415E-9	319.9258E-12
58.3000E+0	29.1059E-6	-79.5054E-9	549.5882E-12
58.4000E+0	29.5345E-6	-79.3993E-9	247.9222E-12
58.5000E+0	29.7317E-6	-78.9867E-9	433.7139E-12
58.6000E+0	30.3896E-6	-79.2009E-9	531.5797E-12
58.7000E+0	31.1489E-6	-79.3539E-9	401.7056E-12
58.8000E+0	31.8341E-6	-79.4416E-9	332.0666E-12
58.9000E+0	33.0725E-6	-80.0312E-9	483.3159E-12
59.0000E+0	33.5538E-6	-79.9445E-9	509.9562E-12
59.1000E+0	33.9141E-6	-79.6207E-9	180.5115E-12
59.2000E+0	34.8149E-6	-79.8182E-9	161.4585E-12
59.3000E+0	35.1179E-6	-79.6479E-9	235.0244E-12
59.4000E+0	35.7915E-6	-79.3988E-9	213.1526E-12
59.5000E+0	36.8940E-6	-79.0987E-9	147.1983E-12
59.6000E+0	37.1353E-6	-79.5840E-9	224.6062E-12
59.7000E+0	38.1278E-6	-79.4051E-9	137.1495E-12
59.8000E+0	39.0958E-6	-79.0054E-9	216.6102E-12
59.9000E+0	39.6814E-6	-79.2191E-9	452.5126E-12
60.0000E+0	39.8311E-6	-79.2889E-9	349.9540E-12
60.1000E+0	40.9767E-6	-78.6679E-9	180.7416E-12
60.2000E+0	41.7759E-6	-79.6120E-9	458.6436E-12
60.3000E+0	42.9897E-6	-79.8912E-9	336.8594E-12
60.4000E+0	43.9610E-6	-79.6513E-9	322.1935E-12
60.5000E+0	44.4498E-6	-79.5734E-9	183.2606E-12
60.6000E+0	45.6435E-6	-79.9942E-9	438.9609E-12
60.7000E+0	46.2033E-6	-79.6179E-9	99.2978E-12
60.8000E+0	47.4258E-6	-79.3350E-9	246.0783E-12
60.9000E+0	48.3226E-6	-79.5298E-9	288.9771E-12
61.0000E+0	49.2550E-6	-79.2910E-9	300.2733E-12
61.1000E+0	49.9225E-6	-79.4274E-9	285.4560E-12
61.2000E+0	50.6577E-6	-79.6832E-9	206.4373E-12
61.3000E+0	51.9054E-6	-79.8007E-9	381.6868E-12
61.4000E+0	52.7734E-6	-79.0817E-9	379.2405E-12
61.5000E+0	52.8170E-6	-79.1158E-9	389.1015E-12
61.6000E+0	54.4083E-6	-79.1780E-9	332.0242E-12
61.7000E+0	55.2991E-6	-79.0028E-9	516.6322E-12
61.8000E+0	56.3572E-6	-79.7069E-9	536.8054E-12
61.9000E+0	57.3286E-6	-79.6426E-9	149.5508E-12
62.0000E+0	58.1973E-6	-79.7498E-9	345.5276E-12
62.1000E+0	60.5063E-6	-80.0766E-9	163.6051E-12
62.2000E+0	61.2621E-6	-79.8206E-9	429.4450E-12
62.3000E+0	61.7979E-6	-79.4179E-9	327.8067E-12
62.4000E+0	63.1058E-6	-79.3811E-9	228.5210E-12
62.5000E+0	64.2907E-6	-79.9541E-9	516.0842E-12
62.6000E+0	65.7293E-6	-79.7474E-9	524.2044E-12
62.7000E+0	66.1436E-6	-79.5123E-9	265.7066E-12
62.8000E+0	67.2221E-6	-79.7409E-9	502.1419E-12
62.9000E+0	68.5858E-6	-79.3713E-9	226.9618E-12
63.0000E+0	70.7972E-6	-79.4349E-9	427.6405E-12
63.1000E+0	70.9121E-6	-79.4862E-9	407.1221E-12
63.2000E+0	71.5508E-6	-79.1854E-9	162.3426E-12
63.3000E+0	73.3041E-6	-79.3810E-9	632.8092E-12
63.4000E+0	75.7691E-6	-79.6459E-9	187.0513E-12
63.5000E+0	76.1488E-6	-79.6607E-9	314.9816E-12
63.6000E+0	77.9984E-6	-79.7824E-9	404.0036E-12
63.7000E+0	79.5669E-6	-79.6834E-9	318.0456E-12
63.8000E+0	79.7798E-6	-79.9062E-9	581.8508E-12
63.9000E+0	81.2358E-6	-79.3450E-9	221.8481E-12
